Projects/Engineering Projects/Computer Architecture and Embedded Systems/DATAPATH03/MUX2bit2way/simulation/qsim/MUX2bit2way.msim.vcd
$comment
	File created using the following command:
		vcd file MUX2bit2way.msim.vcd -direction
$end
$date
	Tue Oct 11 16:22:23 2022
$end
$version
	ModelSim Version 10.5b
$end
$timescale
	1ps
$end

$scope module MUX2bit2way_vlg_vec_tst $end
$var reg 2 ! A [1:0] $end
$var reg 2 " B [1:0] $end
$var reg 1 # SEL $end
$var wire 1 $ C [1] $end
$var wire 1 % C [0] $end

$scope module i1 $end
$var wire 1 & gnd $end
$var wire 1 ' vcc $end
$var wire 1 ( unknown $end
$var tri1 1 ) devclrn $end
$var tri1 1 * devpor $end
$var tri1 1 + devoe $end
$var wire 1 , ~QUARTUS_CREATED_GND~I_combout $end
$var wire 1 - B[1]~input_o $end
$var wire 1 . SEL~input_o $end
$var wire 1 / A[1]~input_o $end
$var wire 1 0 inst|inst2~0_combout $end
$var wire 1 1 B[0]~input_o $end
$var wire 1 2 A[0]~input_o $end
$var wire 1 3 inst1|inst2~0_combout $end
$upscope $end
$upscope $end
$enddefinitions $end
#0
$dumpvars
b0 !
b0 "
0#
0%
0$
0&
1'
x(
1)
1*
1+
0,
0-
0.
0/
00
01
02
03
$end
#31250
b1 "
11
#62500
b1 !
b11 "
1#
b10 "
01
1-
12
1.
10
1$
#93750
b11 "
11
13
1%
#125000
b11 !
b10 !
b1 "
0#
b0 "
01
0-
02
1/
0.
03
0%
#156250
b1 "
11
#187500
b11 !
b11 "
1#
b10 "
01
1-
12
1.
#218750
b11 "
11
13
1%
#250000
b1 !
b0 !
b1 "
0#
b0 "
01
0-
02
0/
0.
03
00
0$
0%
#281250
b1 "
11
#312500
b1 !
b11 "
1#
b10 "
01
1-
12
1.
10
1$
#343750
b11 "
11
13
1%
#375000
b11 !
b10 !
b1 "
0#
b0 "
01
0-
02
1/
0.
03
0%
#406250
b1 "
11
#437500
b11 !
b11 "
1#
b10 "
01
1-
12
1.
#468750
b11 "
11
13
1%
#500000
b1 !
b0 !
b1 "
0#
b0 "
01
0-
02
0/
0.
03
00
0$
0%
#531250
b1 "
11
#562500
b1 !
b11 "
1#
b10 "
01
1-
12
1.
10
1$
#593750
b11 "
11
13
1%
#625000
b11 !
b10 !
b1 "
0#
b0 "
01
0-
02
1/
0.
03
0%
#656250
b1 "
11
#687500
b11 !
b11 "
1#
b10 "
01
1-
12
1.
#718750
b11 "
11
13
1%
#750000
b1 !
b0 !
b1 "
0#
b0 "
01
0-
02
0/
0.
03
00
0$
0%
#781250
b1 "
11
#812500
b1 !
b11 "
1#
b10 "
01
1-
12
1.
10
1$
#843750
b11 "
11
13
1%
#875000
b11 !
b10 !
b1 "
0#
b0 "
01
0-
02
1/
0.
03
0%
#906250
b1 "
11
#937500
b11 !
b11 "
1#
b10 "
01
1-
12
1.
#968750
b11 "
11
13
1%
