Projects/Engineering Projects/Computer Architecture and Embedded Systems/Instruction Set Arch/DATAPATH03/regFile16by8bit/simulation/qsim/regFile16by8bit.msim.vcd
$comment
	File created using the following command:
		vcd file regFile16by8bit.msim.vcd -direction
$end
$date
	Thu Oct 13 23:03:54 2022
$end
$version
	ModelSim Version 2020.1
$end
$timescale
	1ps
$end

$scope module regFile16by8bit_vlg_vec_tst $end
$var reg 1 ! CLK $end
$var reg 1 " ENWRT $end
$var reg 4 # RA1 [3:0] $end
$var reg 4 $ RA2 [3:0] $end
$var reg 4 % WA [3:0] $end
$var reg 8 & WD [7:0] $end
$var wire 1 ' RD1 [7] $end
$var wire 1 ( RD1 [6] $end
$var wire 1 ) RD1 [5] $end
$var wire 1 * RD1 [4] $end
$var wire 1 + RD1 [3] $end
$var wire 1 , RD1 [2] $end
$var wire 1 - RD1 [1] $end
$var wire 1 . RD1 [0] $end
$var wire 1 / RD2 [7] $end
$var wire 1 0 RD2 [6] $end
$var wire 1 1 RD2 [5] $end
$var wire 1 2 RD2 [4] $end
$var wire 1 3 RD2 [3] $end
$var wire 1 4 RD2 [2] $end
$var wire 1 5 RD2 [1] $end
$var wire 1 6 RD2 [0] $end

$scope module i1 $end
$var wire 1 7 gnd $end
$var wire 1 8 vcc $end
$var wire 1 9 unknown $end
$var tri1 1 : devclrn $end
$var tri1 1 ; devpor $end
$var tri1 1 < devoe $end
$var wire 1 = RD1[7]~output_o $end
$var wire 1 > RD1[6]~output_o $end
$var wire 1 ? RD1[5]~output_o $end
$var wire 1 @ RD1[4]~output_o $end
$var wire 1 A RD1[3]~output_o $end
$var wire 1 B RD1[2]~output_o $end
$var wire 1 C RD1[1]~output_o $end
$var wire 1 D RD1[0]~output_o $end
$var wire 1 E RD2[7]~output_o $end
$var wire 1 F RD2[6]~output_o $end
$var wire 1 G RD2[5]~output_o $end
$var wire 1 H RD2[4]~output_o $end
$var wire 1 I RD2[3]~output_o $end
$var wire 1 J RD2[2]~output_o $end
$var wire 1 K RD2[1]~output_o $end
$var wire 1 L RD2[0]~output_o $end
$var wire 1 M CLK~input_o $end
$var wire 1 N WD[7]~input_o $end
$var wire 1 O ENWRT~input_o $end
$var wire 1 P WA[2]~input_o $end
$var wire 1 Q WA[0]~input_o $end
$var wire 1 R WA[3]~input_o $end
$var wire 1 S WA[1]~input_o $end
$var wire 1 T inst16|inst19~0_combout $end
$var wire 1 U inst6|inst1|inst3~q $end
$var wire 1 V inst16|inst23~0_combout $end
$var wire 1 W inst7|inst1|inst3~q $end
$var wire 1 X inst16|inst21~0_combout $end
$var wire 1 Y inst14|inst1|inst3~q $end
$var wire 1 Z inst16|inst25~0_combout $end
$var wire 1 [ inst15|inst1|inst3~q $end
$var wire 1 \ RA1[2]~input_o $end
$var wire 1 ] RA1[1]~input_o $end
$var wire 1 ^ inst17|inst11|inst|inst3|inst2~0_combout $end
$var wire 1 _ RA1[3]~input_o $end
$var wire 1 ` RA1[0]~input_o $end
$var wire 1 a inst16|inst11~0_combout $end
$var wire 1 b inst4|inst1|inst3~q $end
$var wire 1 c inst16|inst15~0_combout $end
$var wire 1 d inst5|inst1|inst3~q $end
$var wire 1 e inst16|inst13~0_combout $end
$var wire 1 f inst12|inst1|inst3~q $end
$var wire 1 g inst16|inst17~0_combout $end
$var wire 1 h inst13|inst1|inst3~q $end
$var wire 1 i inst17|inst11|inst|inst3|inst2~1_combout $end
$var wire 1 j inst17|inst11|inst|inst3|inst2~2_combout $end
$var wire 1 k WD[6]~input_o $end
$var wire 1 l inst6|inst1|inst2~q $end
$var wire 1 m inst7|inst1|inst2~q $end
$var wire 1 n inst14|inst1|inst2~q $end
$var wire 1 o inst15|inst1|inst2~q $end
$var wire 1 p inst17|inst11|inst|inst2|inst2~0_combout $end
$var wire 1 q inst4|inst1|inst2~q $end
$var wire 1 r inst5|inst1|inst2~q $end
$var wire 1 s inst12|inst1|inst2~q $end
$var wire 1 t inst13|inst1|inst2~q $end
$var wire 1 u inst17|inst11|inst|inst2|inst2~1_combout $end
$var wire 1 v inst17|inst11|inst|inst2|inst2~2_combout $end
$var wire 1 w WD[5]~input_o $end
$var wire 1 x inst6|inst1|inst1~q $end
$var wire 1 y inst7|inst1|inst1~q $end
$var wire 1 z inst14|inst1|inst1~q $end
$var wire 1 { inst15|inst1|inst1~q $end
$var wire 1 | inst17|inst11|inst|inst1|inst2~0_combout $end
$var wire 1 } inst4|inst1|inst1~q $end
$var wire 1 ~ inst5|inst1|inst1~q $end
$var wire 1 !! inst12|inst1|inst1~q $end
$var wire 1 "! inst13|inst1|inst1~q $end
$var wire 1 #! inst17|inst11|inst|inst1|inst2~1_combout $end
$var wire 1 $! inst17|inst11|inst|inst1|inst2~2_combout $end
$var wire 1 %! WD[4]~input_o $end
$var wire 1 &! inst6|inst1|inst~q $end
$var wire 1 '! inst7|inst1|inst~q $end
$var wire 1 (! inst14|inst1|inst~q $end
$var wire 1 )! inst15|inst1|inst~q $end
$var wire 1 *! inst17|inst11|inst|inst|inst2~0_combout $end
$var wire 1 +! inst4|inst1|inst~q $end
$var wire 1 ,! inst5|inst1|inst~q $end
$var wire 1 -! inst12|inst1|inst~q $end
$var wire 1 .! inst13|inst1|inst~q $end
$var wire 1 /! inst17|inst11|inst|inst|inst2~1_combout $end
$var wire 1 0! inst17|inst11|inst|inst|inst2~2_combout $end
$var wire 1 1! WD[3]~input_o $end
$var wire 1 2! inst6|inst|inst3~q $end
$var wire 1 3! inst7|inst|inst3~q $end
$var wire 1 4! inst14|inst|inst3~q $end
$var wire 1 5! inst15|inst|inst3~q $end
$var wire 1 6! inst17|inst11|inst1|inst3|inst2~0_combout $end
$var wire 1 7! inst4|inst|inst3~q $end
$var wire 1 8! inst5|inst|inst3~q $end
$var wire 1 9! inst12|inst|inst3~q $end
$var wire 1 :! inst13|inst|inst3~q $end
$var wire 1 ;! inst17|inst11|inst1|inst3|inst2~1_combout $end
$var wire 1 <! inst17|inst11|inst1|inst3|inst2~2_combout $end
$var wire 1 =! WD[2]~input_o $end
$var wire 1 >! inst6|inst|inst2~q $end
$var wire 1 ?! inst7|inst|inst2~q $end
$var wire 1 @! inst14|inst|inst2~q $end
$var wire 1 A! inst15|inst|inst2~q $end
$var wire 1 B! inst17|inst11|inst1|inst2|inst2~0_combout $end
$var wire 1 C! inst4|inst|inst2~q $end
$var wire 1 D! inst5|inst|inst2~q $end
$var wire 1 E! inst12|inst|inst2~q $end
$var wire 1 F! inst13|inst|inst2~q $end
$var wire 1 G! inst17|inst11|inst1|inst2|inst2~1_combout $end
$var wire 1 H! inst17|inst11|inst1|inst2|inst2~2_combout $end
$var wire 1 I! WD[1]~input_o $end
$var wire 1 J! inst6|inst|inst1~q $end
$var wire 1 K! inst7|inst|inst1~q $end
$var wire 1 L! inst14|inst|inst1~q $end
$var wire 1 M! inst15|inst|inst1~q $end
$var wire 1 N! inst17|inst11|inst1|inst1|inst2~0_combout $end
$var wire 1 O! inst4|inst|inst1~q $end
$var wire 1 P! inst5|inst|inst1~q $end
$var wire 1 Q! inst12|inst|inst1~q $end
$var wire 1 R! inst13|inst|inst1~q $end
$var wire 1 S! inst17|inst11|inst1|inst1|inst2~1_combout $end
$var wire 1 T! inst17|inst11|inst1|inst1|inst2~2_combout $end
$var wire 1 U! WD[0]~input_o $end
$var wire 1 V! inst6|inst|inst~q $end
$var wire 1 W! inst7|inst|inst~q $end
$var wire 1 X! inst14|inst|inst~q $end
$var wire 1 Y! inst15|inst|inst~q $end
$var wire 1 Z! inst17|inst11|inst1|inst|inst2~0_combout $end
$var wire 1 [! inst4|inst|inst~q $end
$var wire 1 \! inst5|inst|inst~q $end
$var wire 1 ]! inst12|inst|inst~q $end
$var wire 1 ^! inst13|inst|inst~q $end
$var wire 1 _! inst17|inst11|inst1|inst|inst2~1_combout $end
$var wire 1 `! inst17|inst11|inst1|inst|inst2~2_combout $end
$var wire 1 a! RA2[2]~input_o $end
$var wire 1 b! RA2[1]~input_o $end
$var wire 1 c! inst18|inst11|inst|inst3|inst2~0_combout $end
$var wire 1 d! RA2[3]~input_o $end
$var wire 1 e! RA2[0]~input_o $end
$var wire 1 f! inst18|inst11|inst|inst3|inst2~1_combout $end
$var wire 1 g! inst18|inst11|inst|inst3|inst2~2_combout $end
$var wire 1 h! inst18|inst11|inst|inst2|inst2~0_combout $end
$var wire 1 i! inst18|inst11|inst|inst2|inst2~1_combout $end
$var wire 1 j! inst18|inst11|inst|inst2|inst2~2_combout $end
$var wire 1 k! inst18|inst11|inst|inst1|inst2~0_combout $end
$var wire 1 l! inst18|inst11|inst|inst1|inst2~1_combout $end
$var wire 1 m! inst18|inst11|inst|inst1|inst2~2_combout $end
$var wire 1 n! inst18|inst11|inst|inst|inst2~0_combout $end
$var wire 1 o! inst18|inst11|inst|inst|inst2~1_combout $end
$var wire 1 p! inst18|inst11|inst|inst|inst2~2_combout $end
$var wire 1 q! inst18|inst11|inst1|inst3|inst2~0_combout $end
$var wire 1 r! inst18|inst11|inst1|inst3|inst2~1_combout $end
$var wire 1 s! inst18|inst11|inst1|inst3|inst2~2_combout $end
$var wire 1 t! inst18|inst11|inst1|inst2|inst2~0_combout $end
$var wire 1 u! inst18|inst11|inst1|inst2|inst2~1_combout $end
$var wire 1 v! inst18|inst11|inst1|inst2|inst2~2_combout $end
$var wire 1 w! inst18|inst11|inst1|inst1|inst2~0_combout $end
$var wire 1 x! inst18|inst11|inst1|inst1|inst2~1_combout $end
$var wire 1 y! inst18|inst11|inst1|inst1|inst2~2_combout $end
$var wire 1 z! inst18|inst11|inst1|inst|inst2~0_combout $end
$var wire 1 {! inst18|inst11|inst1|inst|inst2~1_combout $end
$var wire 1 |! inst18|inst11|inst1|inst|inst2~2_combout $end
$upscope $end
$upscope $end
$enddefinitions $end
#0
$dumpvars
0!
1"
b0 #
b100 $
b0 %
b0 &
0.
0-
0,
0+
0*
0)
0(
0'
06
05
04
03
02
01
00
0/
07
18
x9
1:
1;
1<
0=
0>
0?
0@
0A
0B
0C
0D
0E
0F
0G
0H
0I
0J
0K
0L
0M
0N
1O
0P
0Q
0R
0S
1T
0U
1V
0W
1X
0Y
1Z
0[
0\
0]
0^
0_
0`
1a
0b
1c
0d
1e
0f
1g
0h
0i
0j
0k
0l
0m
0n
0o
0p
0q
0r
0s
0t
0u
0v
0w
0x
0y
0z
0{
0|
0}
0~
0!!
0"!
0#!
0$!
0%!
0&!
0'!
0(!
0)!
0*!
0+!
0,!
0-!
0.!
0/!
00!
01!
02!
03!
04!
05!
06!
07!
08!
09!
0:!
0;!
0<!
0=!
0>!
0?!
0@!
0A!
0B!
0C!
0D!
0E!
0F!
0G!
0H!
0I!
0J!
0K!
0L!
0M!
0N!
0O!
0P!
0Q!
0R!
0S!
0T!
0U!
0V!
0W!
0X!
0Y!
0Z!
0[!
0\!
0]!
0^!
0_!
0`!
1a!
0b!
0c!
0d!
0e!
0f!
0g!
0h!
0i!
0j!
0k!
0l!
0m!
0n!
0o!
0p!
0q!
0r!
0s!
0t!
0u!
0v!
0w!
0x!
0y!
0z!
0{!
0|!
$end
#5000
1!
1M
#10000
0!
0M
#15000
1!
1M
#20000
0!
0M
#25000
1!
1M
#30000
0!
0M
#31250
b1 #
b101 $
b1 %
b1 &
1Q
1e!
1`
1U!
0a
#35000
1!
1M
1[!
1_!
1`!
1D
1.
#40000
0!
0M
#45000
1!
1M
#50000
0!
0M
#55000
1!
1M
#60000
0!
0M
#62500
b11 #
b111 $
b11 %
b11 &
b10 #
b110 $
b10 %
b10 &
0Q
1S
0e!
1b!
0`
1]
0U!
1I!
0_!
1a
0`!
0D
0.
0[!
#65000
1!
1M
#70000
0!
0M
#75000
1!
1M
#80000
0!
0M
#85000
1!
1M
#90000
0!
0M
#93750
b11 #
b111 $
b11 %
b11 &
1Q
1e!
1`
1U!
0e
#95000
1!
1M
1]!
1Q!
1S!
1_!
1`!
1T!
1C
1D
1.
1-
#100000
0!
0M
#105000
1!
1M
#110000
0!
0M
#115000
1!
1M
#120000
0!
0M
#125000
b111 #
b1111 $
b1011 $
b111 %
b111 &
b101 #
b1001 $
b101 %
b101 &
b100 #
b1000 $
b100 %
b100 &
1!
0Q
0S
1P
0e!
0b!
0a!
1d!
0`
0]
1\
0U!
0I!
1=!
1M
0_!
0S!
1e
0`!
0T!
0C
0D
0.
0-
0]!
0Q!
#130000
0!
0M
#135000
1!
1M
#140000
0!
0M
#145000
1!
1M
#150000
0!
0M
#155000
1!
1M
#156250
b101 #
b1001 $
b101 %
b101 &
1Q
1e!
1`
1U!
0c
#160000
0!
0M
#165000
1!
1M
1\!
1D!
1G!
1_!
1`!
1H!
1B
1D
1.
1,
#170000
0!
0M
#175000
1!
1M
#180000
0!
0M
#185000
1!
1M
#187500
b111 #
b1011 $
b111 %
b111 &
b110 #
b1010 $
b110 %
b110 &
0Q
1S
0e!
1b!
0`
1]
0U!
1I!
0_!
0G!
1c
0`!
0H!
0B
0D
0.
0,
0D!
0\!
#190000
0!
0M
#195000
1!
1M
#200000
0!
0M
#205000
1!
1M
#210000
0!
0M
#215000
1!
1M
#218750
b111 #
b1011 $
b111 %
b111 &
1Q
1e!
1`
1U!
0g
#220000
0!
0M
#225000
1!
1M
1^!
1R!
1F!
1G!
1S!
1_!
1`!
1T!
1H!
1B
1C
1D
1.
1-
1,
#230000
0!
0M
#235000
1!
1M
#240000
0!
0M
#245000
1!
1M
#250000
b1111 #
b1111 %
b1111 &
b1011 #
b1111 $
b1011 %
b1011 &
b1001 #
b1101 $
b1001 %
b1001 &
b1000 #
b1100 $
b1000 %
b1000 &
0!
0e!
0b!
1a!
0Q
0S
0P
1R
0`
0]
0\
1_
0U!
0I!
0=!
11!
0M
0_!
0S!
0G!
1g
0`!
0T!
0H!
0B
0C
0D
0.
0-
0,
0F!
0R!
0^!
#255000
1!
1M
#260000
0!
0M
#265000
1!
1M
#270000
0!
0M
#275000
1!
1M
#280000
0!
0M
#281250
b1001 #
b1101 $
b1001 %
b1001 &
1Q
1e!
1`
1U!
0T
#285000
1!
1M
1V!
12!
16!
1Z!
1`!
1<!
1A
1D
1.
1+
#290000
0!
0M
#295000
1!
1M
#300000
0!
0M
#305000
1!
1M
#310000
0!
0M
#312500
b1011 #
b1111 $
b1011 %
b1011 &
b1010 #
b1110 $
b1010 %
b1010 &
0Q
1S
0e!
1b!
0`
1]
0U!
1I!
0Z!
06!
1T
0`!
0<!
0A
0D
0.
0+
02!
0V!
#315000
1!
1M
#320000
0!
0M
#325000
1!
1M
#330000
0!
0M
#335000
1!
1M
#340000
0!
0M
#343750
b1011 #
b1111 $
b1011 %
b1011 &
1Q
1e!
1`
1U!
0X
#345000
1!
1M
1X!
1L!
14!
16!
1N!
1Z!
1`!
1T!
1<!
1A
1C
1D
1.
1-
1+
#350000
0!
0M
#355000
1!
1M
#360000
0!
0M
#365000
1!
1M
#370000
0!
0M
#375000
b111 $
b1111 #
b11 $
b1111 %
b1111 &
b1101 #
b1 $
b1101 %
b1101 &
b1100 #
b0 $
b1100 %
b1100 &
1!
0Q
0S
1P
0`
0]
1\
0e!
0b!
0a!
0d!
0U!
0I!
1=!
1M
0Z!
0N!
06!
1X
0`!
0T!
0<!
0A
0C
0D
0.
0-
0+
04!
0X!
0L!
#380000
0!
0M
#385000
1!
1M
#390000
0!
0M
#395000
1!
1M
#400000
0!
0M
#405000
1!
1M
#406250
b1101 #
b1 $
b1101 %
b1101 &
1Q
1e!
1`
1U!
0V
#410000
0!
0M
#415000
1!
1M
1W!
1?!
13!
16!
1B!
1Z!
1`!
1H!
1<!
1A
1B
1D
1.
1,
1+
#420000
0!
0M
#425000
1!
1M
#430000
0!
0M
#435000
1!
1M
#437500
b1111 #
b11 $
b1111 %
b1111 &
b1110 #
b10 $
b1110 %
b1110 &
0Q
1S
0e!
1b!
0`
1]
0U!
1I!
0Z!
0B!
06!
1V
0`!
0H!
0<!
0A
0B
0D
0.
0,
0+
03!
0?!
0W!
#440000
0!
0M
#445000
1!
1M
#450000
0!
0M
#455000
1!
1M
#460000
0!
0M
#465000
1!
1M
#468750
b1111 #
b11 $
b1111 %
b1111 &
1Q
1e!
1`
1U!
0Z
#470000
0!
0M
#475000
1!
1M
1Y!
1M!
1A!
15!
16!
1B!
1N!
1Z!
1`!
1T!
1H!
1<!
1A
1B
1C
1D
1.
1-
1,
1+
#480000
0!
0M
#485000
1!
1M
#490000
0!
0M
#495000
1!
1M
#500000
b11111 &
b111 #
b111 %
b10111 &
b11 #
b111 $
b11 %
b10011 &
b1 #
b101 $
b1 %
b10001 &
b0 #
b100 $
b0 %
b10000 &
0!
0e!
0b!
1a!
0Q
0S
0P
0R
0`
0]
0\
0_
0U!
0I!
0=!
01!
1%!
0M
0Z!
0N!
0B!
06!
1Z
0`!
0T!
0H!
0<!
0A
0B
0C
0D
0.
0-
0,
0+
05!
0A!
0M!
0Y!
#505000
1!
1M
#510000
0!
0M
#515000
1!
1M
#520000
0!
0M
#525000
1!
1M
#530000
0!
0M
#531250
b1 #
b101 $
b1 %
b10001 &
1Q
1e!
1`
1U!
0a
#535000
1!
1M
1[!
1+!
1/!
1_!
1`!
10!
1@
1D
1.
1*
#540000
0!
0M
#545000
1!
1M
#550000
0!
0M
#555000
1!
1M
#560000
0!
0M
#562500
b11 #
b111 $
b11 %
b10011 &
b10 #
b110 $
b10 %
b10010 &
0Q
1S
0e!
1b!
0`
1]
0U!
1I!
0_!
0/!
1a
0`!
00!
0@
0D
0.
0*
0+!
0[!
#565000
1!
1M
#570000
0!
0M
#575000
1!
1M
#580000
0!
0M
#585000
1!
1M
#590000
0!
0M
#593750
b11 #
b111 $
b11 %
b10011 &
1Q
1e!
1`
1U!
0e
#595000
1!
1M
1]!
1Q!
1-!
1/!
1S!
1_!
1`!
1T!
10!
1@
1C
1D
1.
1-
1*
#600000
0!
0M
#605000
1!
1M
#610000
0!
0M
#615000
1!
1M
#620000
0!
0M
#625000
b1111 $
b111 #
b1011 $
b111 %
b10111 &
b101 #
b1001 $
b101 %
b10101 &
b100 #
b1000 $
b100 %
b10100 &
1!
0Q
0S
1P
0`
0]
1\
0e!
0b!
0a!
1d!
0U!
0I!
1=!
1M
0_!
0S!
0/!
1e
0`!
0T!
00!
0@
0C
0D
0.
0-
0*
0-!
0]!
0Q!
#630000
0!
0M
#635000
1!
1M
#640000
0!
0M
#645000
1!
1M
#650000
0!
0M
#655000
1!
1M
#656250
b101 #
b1001 $
b101 %
b10101 &
1Q
1e!
1`
1U!
0c
#660000
0!
0M
#665000
1!
1M
1\!
1D!
1,!
1/!
1G!
1_!
1`!
1H!
10!
1@
1B
1D
1.
1,
1*
#670000
0!
0M
#675000
1!
1M
#680000
0!
0M
#685000
1!
1M
#687500
b111 #
b1011 $
b111 %
b10111 &
b110 #
b1010 $
b110 %
b10110 &
0Q
1S
0e!
1b!
0`
1]
0U!
1I!
0_!
0G!
0/!
1c
0`!
0H!
00!
0@
0B
0D
0.
0,
0*
0,!
0D!
0\!
#690000
0!
0M
#695000
1!
1M
#700000
0"
0!
0O
0M
#705000
1!
1M
#710000
0!
0M
#715000
1!
1M
#718750
b111 #
b1011 $
b111 %
b10111 &
1Q
1e!
1`
1U!
#720000
0!
0M
#725000
1!
1M
#730000
0!
0M
#735000
1!
1M
#740000
0!
0M
#745000
1!
1M
#750000
b1111 #
b1111 %
b11111 &
b1011 #
b1111 $
b1011 %
b11011 &
b1001 #
b1101 $
b1001 %
b11001 &
b1000 #
b1100 $
b1000 %
b11000 &
0!
0e!
0b!
1a!
0Q
0S
0P
1R
0`
0]
0\
1_
0U!
0I!
0=!
11!
0M
#755000
1!
1M
#760000
0!
0M
#765000
1!
1M
#770000
0!
0M
#775000
1!
1M
#780000
0!
0M
#781250
b1001 #
b1101 $
b1001 %
b11001 &
1Q
1e!
1`
1U!
#785000
1!
1M
#790000
0!
0M
#795000
1!
1M
#800000
0!
0M
#805000
1!
1M
#810000
0!
0M
#812500
b1011 #
b1111 $
b1011 %
b11011 &
b1010 #
b1110 $
b1010 %
b11010 &
0Q
1S
0e!
1b!
0`
1]
0U!
1I!
#815000
1!
1M
#820000
0!
0M
#825000
1!
1M
#830000
0!
0M
#835000
1!
1M
#840000
0!
0M
#843750
b1011 #
b1111 $
b1011 %
b11011 &
1Q
1e!
1`
1U!
#845000
1!
1M
#850000
0!
0M
#855000
1!
1M
#860000
0!
0M
#865000
1!
1M
#870000
0!
0M
#875000
b111 $
b1111 #
b11 $
b1111 %
b11111 &
b1101 #
b1 $
b1101 %
b11101 &
b1100 #
b0 $
b1100 %
b11100 &
1!
0Q
0S
1P
0`
0]
1\
0e!
0b!
0a!
0d!
0U!
0I!
1=!
1M
#880000
0!
0M
#885000
1!
1M
#890000
0!
0M
#895000
1!
1M
#900000
0!
0M
#905000
1!
1M
#906250
b1101 #
b1 $
b1101 %
b11101 &
1Q
1e!
1`
1U!
#910000
0!
0M
#915000
1!
1M
#920000
0!
0M
#925000
1!
1M
#930000
0!
0M
#935000
1!
1M
#937500
b1111 #
b11 $
b1111 %
b11111 &
b1110 #
b10 $
b1110 %
b11110 &
0Q
1S
0e!
1b!
0`
1]
0U!
1I!
#940000
0!
0M
#945000
1!
1M
#950000
0!
0M
#955000
1!
1M
#960000
0!
0M
#965000
1!
1M
#968750
b1111 #
b11 $
b1111 %
b11111 &
1Q
1e!
1`
1U!
#970000
0!
0M
#975000
1!
1M
#980000
0!
0M
#985000
1!
1M
#990000
0!
0M
#995000
1!
1M
