Projects/Engineering Projects/Computer Architecture and Embedded Systems/Instruction Set Arch/DATAPATH03/DATAPATH01/simulation/qsim/DATAPATH01.msim.vcd
$comment
	File created using the following command:
		vcd file DATAPATH01.msim.vcd -direction
$end
$date
	Thu Oct 13 14:50:43 2022
$end
$version
	ModelSim Version 2020.1
$end
$timescale
	1ps
$end

$scope module DATAPATH01_vlg_vec_tst $end
$var reg 1 ! CLK $end
$var reg 8 " K [7:0] $end
$var wire 1 # aluselect $end
$var wire 1 $ branch $end
$var wire 1 % branchcondition $end
$var wire 1 & branchorjump $end
$var wire 1 ' bselectforalu $end
$var wire 1 ( DATA [7] $end
$var wire 1 ) DATA [6] $end
$var wire 1 * DATA [5] $end
$var wire 1 + DATA [4] $end
$var wire 1 , DATA [3] $end
$var wire 1 - DATA [2] $end
$var wire 1 . DATA [1] $end
$var wire 1 / DATA [0] $end
$var wire 1 0 datawriteenable $end
$var wire 1 1 enableinstructionmemory $end
$var wire 1 2 enableregisterwrite $end
$var wire 1 3 INST_ADD [4] $end
$var wire 1 4 INST_ADD [3] $end
$var wire 1 5 INST_ADD [2] $end
$var wire 1 6 INST_ADD [1] $end
$var wire 1 7 INST_ADD [0] $end
$var wire 1 8 INSTRUCION [19] $end
$var wire 1 9 INSTRUCION [18] $end
$var wire 1 : INSTRUCION [17] $end
$var wire 1 ; INSTRUCION [16] $end
$var wire 1 < INSTRUCION [15] $end
$var wire 1 = INSTRUCION [14] $end
$var wire 1 > INSTRUCION [13] $end
$var wire 1 ? INSTRUCION [12] $end
$var wire 1 @ INSTRUCION [11] $end
$var wire 1 A INSTRUCION [10] $end
$var wire 1 B INSTRUCION [9] $end
$var wire 1 C INSTRUCION [8] $end
$var wire 1 D INSTRUCION [7] $end
$var wire 1 E INSTRUCION [6] $end
$var wire 1 F INSTRUCION [5] $end
$var wire 1 G INSTRUCION [4] $end
$var wire 1 H INSTRUCION [3] $end
$var wire 1 I INSTRUCION [2] $end
$var wire 1 J INSTRUCION [1] $end
$var wire 1 K INSTRUCION [0] $end
$var wire 1 L jump $end
$var wire 1 M pcwrite $end
$var wire 1 N regularorspecial $end
$var wire 1 O selwritedata $end

$scope module i1 $end
$var wire 1 P gnd $end
$var wire 1 Q vcc $end
$var wire 1 R unknown $end
$var tri1 1 S devclrn $end
$var tri1 1 T devpor $end
$var tri1 1 U devoe $end
$var wire 1 V K[7]~input_o $end
$var wire 1 W K[6]~input_o $end
$var wire 1 X K[5]~input_o $end
$var wire 1 Y jump~output_o $end
$var wire 1 Z datawriteenable~output_o $end
$var wire 1 [ enableinstructionmemory~output_o $end
$var wire 1 \ enableregisterwrite~output_o $end
$var wire 1 ] pcwrite~output_o $end
$var wire 1 ^ aluselect~output_o $end
$var wire 1 _ bselectforalu~output_o $end
$var wire 1 ` branch~output_o $end
$var wire 1 a branchcondition~output_o $end
$var wire 1 b branchorjump~output_o $end
$var wire 1 c regularorspecial~output_o $end
$var wire 1 d selwritedata~output_o $end
$var wire 1 e DATA[7]~output_o $end
$var wire 1 f DATA[6]~output_o $end
$var wire 1 g DATA[5]~output_o $end
$var wire 1 h DATA[4]~output_o $end
$var wire 1 i DATA[3]~output_o $end
$var wire 1 j DATA[2]~output_o $end
$var wire 1 k DATA[1]~output_o $end
$var wire 1 l DATA[0]~output_o $end
$var wire 1 m INST_ADD[4]~output_o $end
$var wire 1 n INST_ADD[3]~output_o $end
$var wire 1 o INST_ADD[2]~output_o $end
$var wire 1 p INST_ADD[1]~output_o $end
$var wire 1 q INST_ADD[0]~output_o $end
$var wire 1 r INSTRUCION[19]~output_o $end
$var wire 1 s INSTRUCION[18]~output_o $end
$var wire 1 t INSTRUCION[17]~output_o $end
$var wire 1 u INSTRUCION[16]~output_o $end
$var wire 1 v INSTRUCION[15]~output_o $end
$var wire 1 w INSTRUCION[14]~output_o $end
$var wire 1 x INSTRUCION[13]~output_o $end
$var wire 1 y INSTRUCION[12]~output_o $end
$var wire 1 z INSTRUCION[11]~output_o $end
$var wire 1 { INSTRUCION[10]~output_o $end
$var wire 1 | INSTRUCION[9]~output_o $end
$var wire 1 } INSTRUCION[8]~output_o $end
$var wire 1 ~ INSTRUCION[7]~output_o $end
$var wire 1 !! INSTRUCION[6]~output_o $end
$var wire 1 "! INSTRUCION[5]~output_o $end
$var wire 1 #! INSTRUCION[4]~output_o $end
$var wire 1 $! INSTRUCION[3]~output_o $end
$var wire 1 %! INSTRUCION[2]~output_o $end
$var wire 1 &! INSTRUCION[1]~output_o $end
$var wire 1 '! INSTRUCION[0]~output_o $end
$var wire 1 (! CLK~input_o $end
$var wire 1 )! K[3]~input_o $end
$var wire 1 *! K[4]~input_o $end
$var wire 1 +! K[2]~input_o $end
$var wire 1 ,! K[1]~input_o $end
$var wire 1 -! K[0]~input_o $end
$var wire 1 .! inst12|inst2|inst3~combout $end
$var wire 1 /! inst12|inst4|inst2|inst2~combout $end
$var wire 1 0! inst20|inst|inst1|inst3~combout $end
$var wire 1 1! inst20|inst|inst3|inst3~combout $end
$var wire 1 2! inst7|inst|inst|inst2~1_combout $end
$var wire 1 3! inst|inst|inst1|inst~q $end
$var wire 1 4! inst20|inst|inst3|inst2|inst2~combout $end
$var wire 1 5! inst7|inst1|inst3|inst2~0_combout $end
$var wire 1 6! inst|inst|inst|inst3~q $end
$var wire 1 7! inst12|inst2|inst2|inst2~combout $end
$var wire 1 8! inst7|inst1|inst2|inst2~0_combout $end
$var wire 1 9! inst|inst|inst|inst2~q $end
$var wire 1 :! inst8|inst7~0_combout $end
$var wire 1 ;! inst19|inst1|inst~combout $end
$var wire 1 <! inst16|inst|inst1|inst4~0_combout $end
$var wire 1 =! inst16|inst2|inst1|inst4~0_combout $end
$var wire 1 >! inst9|inst|inst~0_combout $end
$var wire 1 ?! inst9|inst1|inst~combout $end
$var wire 1 @! inst8|inst6~0_combout $end
$var wire 1 A! inst8|inst2~0_combout $end
$var wire 1 B! inst4|inst16|inst23~0_combout $end
$var wire 1 C! inst19|inst|inst~combout $end
$var wire 1 D! inst4|inst7|inst1|inst~q $end
$var wire 1 E! inst4|inst16|inst21~0_combout $end
$var wire 1 F! inst4|inst14|inst1|inst~q $end
$var wire 1 G! inst4|inst16|inst25~0_combout $end
$var wire 1 H! inst4|inst15|inst1|inst~q $end
$var wire 1 I! inst5|inst|inst|inst2~0_combout $end
$var wire 1 J! inst4|inst16|inst11~0_combout $end
$var wire 1 K! inst4|inst4|inst1|inst~q $end
$var wire 1 L! inst4|inst16|inst15~0_combout $end
$var wire 1 M! inst4|inst5|inst1|inst~q $end
$var wire 1 N! inst4|inst16|inst13~0_combout $end
$var wire 1 O! inst4|inst12|inst1|inst~q $end
$var wire 1 P! inst4|inst16|inst17~0_combout $end
$var wire 1 Q! inst4|inst13|inst1|inst~q $end
$var wire 1 R! inst5|inst|inst|inst2~1_combout $end
$var wire 1 S! inst5|inst|inst|inst2~2_combout $end
$var wire 1 T! inst1|inst|inst4|inst|inst2~combout $end
$var wire 1 U! inst16|inst|inst2|inst4~0_combout $end
$var wire 1 V! inst4|inst7|inst|inst2~q $end
$var wire 1 W! inst4|inst14|inst|inst2~q $end
$var wire 1 X! inst4|inst15|inst|inst2~q $end
$var wire 1 Y! inst5|inst1|inst2|inst2~0_combout $end
$var wire 1 Z! inst4|inst4|inst|inst2~q $end
$var wire 1 [! inst4|inst5|inst|inst2~q $end
$var wire 1 \! inst4|inst12|inst|inst2~q $end
$var wire 1 ]! inst4|inst13|inst|inst2~q $end
$var wire 1 ^! inst5|inst1|inst2|inst2~1_combout $end
$var wire 1 _! inst5|inst1|inst2|inst2~2_combout $end
$var wire 1 `! inst1|inst|inst2|inst|inst2~combout $end
$var wire 1 a! inst4|inst7|inst|inst~q $end
$var wire 1 b! inst4|inst14|inst|inst~q $end
$var wire 1 c! inst4|inst15|inst|inst~q $end
$var wire 1 d! inst5|inst1|inst|inst2~0_combout $end
$var wire 1 e! inst4|inst4|inst|inst~q $end
$var wire 1 f! inst4|inst5|inst|inst~q $end
$var wire 1 g! inst4|inst12|inst|inst~q $end
$var wire 1 h! inst4|inst13|inst|inst~q $end
$var wire 1 i! inst5|inst1|inst|inst2~1_combout $end
$var wire 1 j! inst5|inst1|inst|inst2~2_combout $end
$var wire 1 k! inst16|inst|inst|inst4~1_combout $end
$var wire 1 l! inst4|inst17|inst11|inst1|inst2|inst2~1_combout $end
$var wire 1 m! inst1|inst5|inst|inst|inst4~0_combout $end
$var wire 1 n! inst4|inst7|inst|inst1~q $end
$var wire 1 o! inst4|inst14|inst|inst1~q $end
$var wire 1 p! inst4|inst15|inst|inst1~q $end
$var wire 1 q! inst5|inst1|inst1|inst2~0_combout $end
$var wire 1 r! inst4|inst4|inst|inst1~q $end
$var wire 1 s! inst4|inst5|inst|inst1~q $end
$var wire 1 t! inst4|inst12|inst|inst1~q $end
$var wire 1 u! inst4|inst13|inst|inst1~q $end
$var wire 1 v! inst5|inst1|inst1|inst2~1_combout $end
$var wire 1 w! inst5|inst1|inst1|inst2~2_combout $end
$var wire 1 x! inst1|inst5|inst|inst|inst4~1_combout $end
$var wire 1 y! inst1|inst5|inst|inst1|inst4~0_combout $end
$var wire 1 z! inst8|inst10~0_combout $end
$var wire 1 {! inst1|inst5|inst|inst1|inst4~1_combout $end
$var wire 1 |! inst1|inst5|inst|inst1|inst4~2_combout $end
$var wire 1 }! inst1|inst5|inst|inst|inst4~2_combout $end
$var wire 1 ~! inst16|inst|inst3|inst4~1_combout $end
$var wire 1 !" inst4|inst7|inst|inst3~q $end
$var wire 1 "" inst4|inst14|inst|inst3~q $end
$var wire 1 #" inst4|inst15|inst|inst3~q $end
$var wire 1 $" inst5|inst1|inst3|inst2~0_combout $end
$var wire 1 %" inst4|inst4|inst|inst3~q $end
$var wire 1 &" inst4|inst5|inst|inst3~q $end
$var wire 1 '" inst4|inst12|inst|inst3~q $end
$var wire 1 (" inst4|inst13|inst|inst3~q $end
$var wire 1 )" inst5|inst1|inst3|inst2~1_combout $end
$var wire 1 *" inst5|inst1|inst3|inst2~2_combout $end
$var wire 1 +" inst4|inst17|inst11|inst1|inst3|inst2~1_combout $end
$var wire 1 ," inst4|inst17|inst11|inst1|inst3|inst2~2_combout $end
$var wire 1 -" inst1|inst|inst3|inst|inst2~combout $end
$var wire 1 ." inst1|inst8|inst5~combout $end
$var wire 1 /" inst4|inst17|inst11|inst|inst|inst2~1_combout $end
$var wire 1 0" inst1|inst5|inst|inst3|inst4~0_combout $end
$var wire 1 1" inst1|inst5|inst|inst3|inst4~1_combout $end
$var wire 1 2" inst16|inst2|inst|inst4~0_combout $end
$var wire 1 3" inst4|inst4|inst1|inst1~q $end
$var wire 1 4" inst4|inst5|inst1|inst1~q $end
$var wire 1 5" inst4|inst12|inst1|inst1~q $end
$var wire 1 6" inst4|inst13|inst1|inst1~q $end
$var wire 1 7" inst4|inst17|inst11|inst|inst1|inst2~1_combout $end
$var wire 1 8" inst4|inst17|inst11|inst|inst1|inst2~2_combout $end
$var wire 1 9" inst16|inst2|inst2|inst4~0_combout $end
$var wire 1 :" inst4|inst7|inst1|inst1~q $end
$var wire 1 ;" inst4|inst14|inst1|inst1~q $end
$var wire 1 <" inst4|inst15|inst1|inst1~q $end
$var wire 1 =" inst5|inst|inst1|inst2~0_combout $end
$var wire 1 >" inst5|inst|inst1|inst2~1_combout $end
$var wire 1 ?" inst5|inst|inst1|inst2~2_combout $end
$var wire 1 @" inst1|inst8|inst2~combout $end
$var wire 1 A" inst1|inst8|inst4~combout $end
$var wire 1 B" inst1|inst|inst4|inst2|inst~combout $end
$var wire 1 C" inst1|inst|inst4|inst|inst~combout $end
$var wire 1 D" inst16|inst2|inst|inst4~1_combout $end
$var wire 1 E" inst16|inst2|inst|inst4~2_combout $end
$var wire 1 F" inst4|inst16|inst19~0_combout $end
$var wire 1 G" inst4|inst6|inst1|inst1~q $end
$var wire 1 H" inst4|inst17|inst11|inst|inst1|inst2~0_combout $end
$var wire 1 I" inst1|inst5|inst2|inst1|inst4~0_combout $end
$var wire 1 J" inst1|inst5|inst2|inst1|inst4~1_combout $end
$var wire 1 K" inst16|inst|inst3|inst4~2_combout $end
$var wire 1 L" inst4|inst6|inst|inst3~q $end
$var wire 1 M" inst4|inst17|inst11|inst1|inst3|inst2~0_combout $end
$var wire 1 N" inst1|inst5|inst|inst2|inst4~0_combout $end
$var wire 1 O" inst1|inst5|inst|inst2|inst4~1_combout $end
$var wire 1 P" inst16|inst|inst|inst4~2_combout $end
$var wire 1 Q" inst4|inst6|inst|inst1~q $end
$var wire 1 R" inst4|inst17|inst11|inst1|inst1|inst2~0_combout $end
$var wire 1 S" inst4|inst17|inst11|inst1|inst1|inst2~1_combout $end
$var wire 1 T" inst4|inst17|inst11|inst1|inst1|inst2~2_combout $end
$var wire 1 U" inst1|inst|inst1|inst3~combout $end
$var wire 1 V" inst16|inst|inst2|inst4~1_combout $end
$var wire 1 W" inst4|inst6|inst|inst2~q $end
$var wire 1 X" inst4|inst17|inst11|inst1|inst2|inst2~0_combout $end
$var wire 1 Y" inst4|inst17|inst11|inst1|inst2|inst2~2_combout $end
$var wire 1 Z" inst1|inst|inst3|inst3~combout $end
$var wire 1 [" inst16|inst2|inst1|inst4~1_combout $end
$var wire 1 \" inst4|inst6|inst1|inst~q $end
$var wire 1 ]" inst4|inst17|inst11|inst|inst|inst2~0_combout $end
$var wire 1 ^" inst4|inst17|inst11|inst|inst|inst2~2_combout $end
$var wire 1 _" inst16|inst2|inst2|inst4~1_combout $end
$var wire 1 `" inst4|inst7|inst1|inst2~q $end
$var wire 1 a" inst4|inst14|inst1|inst2~q $end
$var wire 1 b" inst4|inst15|inst1|inst2~q $end
$var wire 1 c" inst4|inst18|inst11|inst|inst2|inst2~0_combout $end
$var wire 1 d" inst4|inst4|inst1|inst2~q $end
$var wire 1 e" inst4|inst5|inst1|inst2~q $end
$var wire 1 f" inst4|inst12|inst1|inst2~q $end
$var wire 1 g" inst4|inst13|inst1|inst2~q $end
$var wire 1 h" inst4|inst18|inst11|inst|inst2|inst2~1_combout $end
$var wire 1 i" inst1|inst8|inst1~combout $end
$var wire 1 j" inst1|inst|inst6|inst|inst2~combout $end
$var wire 1 k" inst1|inst|inst5|inst3~combout $end
$var wire 1 l" inst16|inst2|inst2|inst4~2_combout $end
$var wire 1 m" inst16|inst2|inst2|inst4~4_combout $end
$var wire 1 n" inst4|inst6|inst1|inst2~q $end
$var wire 1 o" inst4|inst17|inst11|inst|inst2|inst2~0_combout $end
$var wire 1 p" inst4|inst17|inst11|inst|inst2|inst2~1_combout $end
$var wire 1 q" inst4|inst17|inst11|inst|inst2|inst2~2_combout $end
$var wire 1 r" inst5|inst|inst2|inst2~combout $end
$var wire 1 s" inst16|inst2|inst3|inst4~0_combout $end
$var wire 1 t" inst16|inst2|inst3|inst4~1_combout $end
$var wire 1 u" inst16|inst2|inst3|inst4~2_combout $end
$var wire 1 v" inst4|inst7|inst1|inst3~q $end
$var wire 1 w" inst4|inst14|inst1|inst3~q $end
$var wire 1 x" inst4|inst15|inst1|inst3~q $end
$var wire 1 y" inst4|inst18|inst11|inst|inst3|inst2~0_combout $end
$var wire 1 z" inst4|inst4|inst1|inst3~q $end
$var wire 1 {" inst4|inst5|inst1|inst3~q $end
$var wire 1 |" inst4|inst12|inst1|inst3~q $end
$var wire 1 }" inst4|inst13|inst1|inst3~q $end
$var wire 1 ~" inst4|inst18|inst11|inst|inst3|inst2~1_combout $end
$var wire 1 !# inst5|inst|inst3|inst2~combout $end
$var wire 1 "# inst16|inst2|inst3|inst4~3_combout $end
$var wire 1 ## inst16|inst2|inst3|inst4~4_combout $end
$var wire 1 $# inst16|inst2|inst3|inst4~6_combout $end
$var wire 1 %# inst4|inst6|inst1|inst3~q $end
$var wire 1 &# inst4|inst17|inst11|inst|inst3|inst2~0_combout $end
$var wire 1 '# inst4|inst17|inst11|inst|inst3|inst2~1_combout $end
$var wire 1 (# inst4|inst17|inst11|inst|inst3|inst2~2_combout $end
$var wire 1 )# inst1|inst2|inst|inst8~combout $end
$var wire 1 *# inst1|inst2|inst1|inst8~combout $end
$var wire 1 +# inst1|inst2|inst4~1_combout $end
$var wire 1 ,# inst1|inst2|inst6~0_combout $end
$var wire 1 -# inst1|inst2|inst4~2_combout $end
$var wire 1 .# inst16|inst|inst1|inst4~1_combout $end
$var wire 1 /# inst4|inst6|inst|inst~q $end
$var wire 1 0# inst4|inst17|inst11|inst1|inst|inst2~0_combout $end
$var wire 1 1# inst4|inst17|inst11|inst1|inst|inst2~1_combout $end
$var wire 1 2# inst4|inst17|inst11|inst1|inst|inst2~2_combout $end
$var wire 1 3# inst1|inst2|inst|inst3|inst30~0_combout $end
$var wire 1 4# inst1|inst2|inst1|inst11~0_combout $end
$var wire 1 5# inst1|inst2|inst4~0_combout $end
$var wire 1 6# inst8|inst32~1_combout $end
$var wire 1 7# inst14~combout $end
$var wire 1 8# inst12|inst1|inst2|inst2~combout $end
$var wire 1 9# inst7|inst1|inst1|inst2~0_combout $end
$var wire 1 :# inst|inst|inst|inst1~q $end
$var wire 1 ;# inst7|inst1|inst|inst2~0_combout $end
$var wire 1 <# inst|inst|inst|inst~q $end
$var wire 1 =# inst8|inst32~0_combout $end
$var wire 1 ># inst8|inst13~0_combout $end
$var wire 1 ?# inst7|inst|inst|inst2~0_combout $end
$var wire 1 @# inst16|inst2|inst3|inst4~5_combout $end
$var wire 1 A# inst16|inst2|inst2|inst4~3_combout $end
$var wire 1 B# inst16|inst2|inst|inst4~3_combout $end
$var wire 1 C# inst16|inst2|inst1|inst4~2_combout $end
$var wire 1 D# inst16|inst|inst3|inst4~0_combout $end
$var wire 1 E# inst16|inst|inst2|inst4~2_combout $end
$var wire 1 F# inst16|inst|inst|inst4~0_combout $end
$var wire 1 G# inst16|inst|inst1|inst4~2_combout $end
$var wire 1 H# inst2|srom|rom_block|auto_generated|q_a [19] $end
$var wire 1 I# inst2|srom|rom_block|auto_generated|q_a [18] $end
$var wire 1 J# inst2|srom|rom_block|auto_generated|q_a [17] $end
$var wire 1 K# inst2|srom|rom_block|auto_generated|q_a [16] $end
$var wire 1 L# inst2|srom|rom_block|auto_generated|q_a [15] $end
$var wire 1 M# inst2|srom|rom_block|auto_generated|q_a [14] $end
$var wire 1 N# inst2|srom|rom_block|auto_generated|q_a [13] $end
$var wire 1 O# inst2|srom|rom_block|auto_generated|q_a [12] $end
$var wire 1 P# inst2|srom|rom_block|auto_generated|q_a [11] $end
$var wire 1 Q# inst2|srom|rom_block|auto_generated|q_a [10] $end
$var wire 1 R# inst2|srom|rom_block|auto_generated|q_a [9] $end
$var wire 1 S# inst2|srom|rom_block|auto_generated|q_a [8] $end
$var wire 1 T# inst2|srom|rom_block|auto_generated|q_a [7] $end
$var wire 1 U# inst2|srom|rom_block|auto_generated|q_a [6] $end
$var wire 1 V# inst2|srom|rom_block|auto_generated|q_a [5] $end
$var wire 1 W# inst2|srom|rom_block|auto_generated|q_a [4] $end
$var wire 1 X# inst2|srom|rom_block|auto_generated|q_a [3] $end
$var wire 1 Y# inst2|srom|rom_block|auto_generated|q_a [2] $end
$var wire 1 Z# inst2|srom|rom_block|auto_generated|q_a [1] $end
$var wire 1 [# inst2|srom|rom_block|auto_generated|q_a [0] $end
$var wire 1 \# inst3|srom|rom_block|auto_generated|q_a [7] $end
$var wire 1 ]# inst3|srom|rom_block|auto_generated|q_a [6] $end
$var wire 1 ^# inst3|srom|rom_block|auto_generated|q_a [5] $end
$var wire 1 _# inst3|srom|rom_block|auto_generated|q_a [4] $end
$var wire 1 `# inst3|srom|rom_block|auto_generated|q_a [3] $end
$var wire 1 a# inst3|srom|rom_block|auto_generated|q_a [2] $end
$var wire 1 b# inst3|srom|rom_block|auto_generated|q_a [1] $end
$var wire 1 c# inst3|srom|rom_block|auto_generated|q_a [0] $end
$var wire 1 d# inst2|srom|rom_block|auto_generated|ram_block1a1_PORTADATAOUT_bus [0] $end
$var wire 1 e# inst2|srom|rom_block|auto_generated|ram_block1a3_PORTADATAOUT_bus [0] $end
$var wire 1 f# inst2|srom|rom_block|auto_generated|ram_block1a0_PORTADATAOUT_bus [0] $end
$var wire 1 g# inst2|srom|rom_block|auto_generated|ram_block1a2_PORTADATAOUT_bus [0] $end
$var wire 1 h# inst2|srom|rom_block|auto_generated|ram_block1a12_PORTADATAOUT_bus [0] $end
$var wire 1 i# inst2|srom|rom_block|auto_generated|ram_block1a11_PORTADATAOUT_bus [0] $end
$var wire 1 j# inst2|srom|rom_block|auto_generated|ram_block1a10_PORTADATAOUT_bus [0] $end
$var wire 1 k# inst2|srom|rom_block|auto_generated|ram_block1a13_PORTADATAOUT_bus [0] $end
$var wire 1 l# inst2|srom|rom_block|auto_generated|ram_block1a4_PORTADATAOUT_bus [0] $end
$var wire 1 m# inst2|srom|rom_block|auto_generated|ram_block1a17_PORTADATAOUT_bus [0] $end
$var wire 1 n# inst2|srom|rom_block|auto_generated|ram_block1a16_PORTADATAOUT_bus [0] $end
$var wire 1 o# inst2|srom|rom_block|auto_generated|ram_block1a15_PORTADATAOUT_bus [0] $end
$var wire 1 p# inst2|srom|rom_block|auto_generated|ram_block1a14_PORTADATAOUT_bus [0] $end
$var wire 1 q# inst2|srom|rom_block|auto_generated|ram_block1a18_PORTADATAOUT_bus [0] $end
$var wire 1 r# inst2|srom|rom_block|auto_generated|ram_block1a19_PORTADATAOUT_bus [0] $end
$var wire 1 s# inst2|srom|rom_block|auto_generated|ram_block1a6_PORTADATAOUT_bus [0] $end
$var wire 1 t# inst2|srom|rom_block|auto_generated|ram_block1a5_PORTADATAOUT_bus [0] $end
$var wire 1 u# inst2|srom|rom_block|auto_generated|ram_block1a7_PORTADATAOUT_bus [0] $end
$var wire 1 v# inst2|srom|rom_block|auto_generated|ram_block1a8_PORTADATAOUT_bus [0] $end
$var wire 1 w# inst2|srom|rom_block|auto_generated|ram_block1a9_PORTADATAOUT_bus [0] $end
$var wire 1 x# inst3|srom|rom_block|auto_generated|ram_block1a7_PORTADATAOUT_bus [0] $end
$var wire 1 y# inst3|srom|rom_block|auto_generated|ram_block1a6_PORTADATAOUT_bus [0] $end
$var wire 1 z# inst3|srom|rom_block|auto_generated|ram_block1a5_PORTADATAOUT_bus [0] $end
$var wire 1 {# inst3|srom|rom_block|auto_generated|ram_block1a4_PORTADATAOUT_bus [0] $end
$var wire 1 |# inst3|srom|rom_block|auto_generated|ram_block1a3_PORTADATAOUT_bus [0] $end
$var wire 1 }# inst3|srom|rom_block|auto_generated|ram_block1a2_PORTADATAOUT_bus [0] $end
$var wire 1 ~# inst3|srom|rom_block|auto_generated|ram_block1a1_PORTADATAOUT_bus [0] $end
$var wire 1 !$ inst3|srom|rom_block|auto_generated|ram_block1a0_PORTADATAOUT_bus [0] $end
$upscope $end
$upscope $end
$enddefinitions $end
#0
$dumpvars
0!
b1 "
1#
0$
0%
0&
1'
0/
0.
0-
0,
0+
0*
0)
0(
10
11
12
07
06
05
04
03
0K
0J
0I
0H
0G
0F
0E
0D
0C
0B
0A
0@
0?
0>
0=
0<
0;
0:
09
08
0L
1M
0N
1O
0P
1Q
xR
1S
1T
1U
0V
0W
0X
0Y
1Z
1[
1\
1]
1^
1_
0`
0a
0b
0c
1d
0e
0f
0g
0h
0i
0j
0k
0l
0m
0n
0o
0p
0q
0r
0s
0t
0u
0v
0w
0x
0y
0z
0{
0|
0}
0~
0!!
0"!
0#!
0$!
0%!
0&!
0'!
0(!
0)!
0*!
0+!
0,!
1-!
0.!
0/!
00!
01!
02!
03!
04!
05!
06!
07!
08!
09!
1:!
0;!
0<!
0=!
0>!
0?!
1@!
1A!
1B!
1C!
0D!
1E!
0F!
1G!
0H!
0I!
1J!
0K!
1L!
0M!
1N!
0O!
1P!
0Q!
0R!
0S!
0T!
0U!
0V!
0W!
0X!
0Y!
0Z!
0[!
0\!
0]!
0^!
0_!
0`!
0a!
0b!
0c!
0d!
0e!
0f!
0g!
0h!
0i!
0j!
0k!
0l!
0m!
0n!
0o!
0p!
0q!
0r!
0s!
0t!
0u!
0v!
0w!
0x!
0y!
1z!
0{!
0|!
0}!
0~!
0!"
0""
0#"
0$"
0%"
0&"
0'"
0("
0)"
0*"
0+"
0,"
0-"
0."
0/"
00"
01"
02"
03"
04"
05"
06"
07"
08"
09"
0:"
0;"
0<"
0="
0>"
0?"
0@"
0A"
0B"
0C"
0D"
0E"
1F"
0G"
0H"
0I"
0J"
0K"
0L"
0M"
0N"
0O"
0P"
0Q"
0R"
0S"
0T"
0U"
0V"
0W"
0X"
0Y"
0Z"
0["
0\"
0]"
0^"
0_"
0`"
0a"
0b"
0c"
0d"
0e"
0f"
0g"
0h"
1i"
1j"
1k"
0l"
0m"
0n"
0o"
0p"
0q"
0r"
0s"
0t"
1u"
0v"
0w"
0x"
0y"
0z"
0{"
0|"
0}"
0~"
0!#
0"#
0##
0$#
0%#
0&#
0'#
0(#
0)#
1*#
0+#
1,#
1-#
0.#
0/#
00#
01#
02#
03#
04#
05#
06#
07#
18#
19#
0:#
0;#
0<#
0=#
1>#
1?#
0@#
0A#
0B#
0C#
0D#
0E#
0F#
0G#
0[#
0Z#
0Y#
0X#
0W#
0V#
0U#
0T#
0S#
0R#
0Q#
0P#
0O#
0N#
0M#
0L#
0K#
0J#
0I#
0H#
0c#
0b#
0a#
0`#
0_#
0^#
0]#
0\#
0d#
0e#
0f#
0g#
0h#
0i#
0j#
0k#
0l#
0m#
0n#
0o#
0p#
0q#
0r#
0s#
0t#
0u#
0v#
0w#
0x#
0y#
0z#
0{#
0|#
0}#
0~#
0!$
$end
#500000
1!
1(!
1:#
1p
08#
17!
16
18!
09#
#500001
1!$
1c#
1.#
1G#
1l
1/
#1000000
0!
0(!
#1500000
1!
1(!
0:#
19!
1o
0p
18#
06
15
19#
#1500001
1v#
1t#
1e#
1f#
1w#
1h#
1d#
1S#
1V#
1X#
1[#
1R#
1O#
1Z#
1&!
1y
1|
1'!
1$!
1"!
1}
0C!
1w!
19"
1;!
1C
1F
1H
1K
1B
1?
1J
0>#
0z!
0@!
0:!
1U!
0d
0_
0^
0Z
0.#
1##
1m"
0*#
1x!
09"
1C!
0;!
1!#
1r"
0i"
0w!
00
0#
0'
0O
0U!
0G#
1E#
1j
0l
1*#
0x!
0j"
1)#
0##
1.#
0m"
1}!
1$#
0/
1-
1U!
0E#
1@#
1e
0j
0$#
0-#
0}!
0-
1(
1G#
0@#
0e
1l
1/
0(
#2000000
0!
0(!
#2500000
1!
1(!
1:#
1p
08#
07!
10!
1.!
16
14!
15!
08!
09#
#2500001
0v#
1j#
0e#
1g#
1k#
0w#
1i#
1l#
0d#
0S#
1Q#
0X#
1Y#
1N#
0R#
1P#
1W#
0Z#
0&!
1#!
1z
0|
1x
1%!
0$!
1{
0}
0N!
0C
1A
0H
1I
1>
0B
1@
1G
0J
1@!
1:!
1k!
1~!
1<!
1d
1_
0!#
0r"
1i"
1w!
1j!
1'
1O
0,#
1{!
1x!
0*#
1j"
0)#
1-#
1}!
1|!
#3000000
0!
0(!
#3500000
1!
1(!
1g!
0:#
09!
16!
1n
0o
0p
1/!
0.!
18#
00!
06
05
14
05!
0/!
19#
15!
12!
02!
#3500001
1v#
0t#
1s#
1p#
1}#
1a#
1S#
0V#
1U#
1M#
1w
1!!
0"!
1}
1V"
0w!
1_!
1N!
0L!
19"
1;!
1C
0F
1E
1=
1=!
0~!
0k!
0V"
1P"
1##
1m"
1."
1`!
0x!
1F#
0U!
0=!
0<!
1A#
1E#
1j
1f
1k
0P"
0}!
1V"
1O"
1$#
1.
1)
1-
0F#
1@#
0E#
0j
1e
0k
0.
1(
0-
1E#
1j
1-
0g!
#4000000
0!
0(!
#4500000
1!
1(!
1{"
1e"
1f!
1[!
1:#
1p
08#
17!
16
18!
09#
#4500001
0v#
1t#
0j#
0f#
0g#
0k#
1w#
1|#
1~#
0!$
0l#
1d#
0c#
1b#
1`#
0S#
1V#
0Q#
0[#
0Y#
0N#
1R#
0W#
1Z#
1&!
0#!
1|
0x
0%!
0'!
0{
1"!
0}
0j!
1L!
10!
0C!
1w!
09"
0;!
0C
1F
0A
0K
0I
0>
1B
0G
1J
1>#
1k!
1Z
0.#
1P"
1K"
0##
0m"
1x!
04!
11!
1,#
0{!
10
1F#
1U!
1=!
0A#
0G#
0E#
0@#
0e
0j
0l
0f
1k
0|!
1}!
0$#
1.
0)
0/
0-
0(
1C#
1E#
1j
1h
1+
1-
0[!
0f!
0e"
0{"
#5000000
0!
0(!
#5500000
1!
1(!
0:#
19!
1o
0p
18#
00!
06
15
19#
