Projects/Engineering Projects/Computer Architecture and Embedded Systems/Instruction Set Arch/DATAPATH03/DEMUX1I_2O/simulation/qsim/DEMUX1I_2O.msim.vcd
$comment
	File created using the following command:
		vcd file DEMUX1I_2O.msim.vcd -direction
$end
$date
	Tue Oct 11 10:45:55 2022
$end
$version
	ModelSim Version 10.5b
$end
$timescale
	1ps
$end

$scope module DEMUX1I_2O_vlg_vec_tst $end
$var reg 1 ! C $end
$var reg 1 " SEL $end
$var wire 1 # A $end
$var wire 1 $ B $end

$scope module i1 $end
$var wire 1 % gnd $end
$var wire 1 & vcc $end
$var wire 1 ' unknown $end
$var tri1 1 ( devclrn $end
$var tri1 1 ) devpor $end
$var tri1 1 * devoe $end
$var wire 1 + ~QUARTUS_CREATED_GND~I_combout $end
$var wire 1 , SEL~input_o $end
$var wire 1 - C~input_o $end
$var wire 1 . inst1~combout $end
$var wire 1 / inst~combout $end
$upscope $end
$upscope $end
$enddefinitions $end
#0
$dumpvars
1!
0"
1#
0$
0%
1&
x'
1(
1)
1*
0+
0,
1-
1.
0/
$end
#125000
1"
1,
1/
0.
0#
1$
#250000
0"
0,
0/
1.
1#
0$
#375000
1"
1,
1/
0.
0#
1$
#500000
0"
0,
0/
1.
1#
0$
#625000
1"
1,
1/
0.
0#
1$
#750000
0"
0,
0/
1.
1#
0$
#875000
1"
1,
1/
0.
0#
1$
