Projects/Engineering Projects/Computer Architecture and Embedded Systems/DATAPATH03/DATAPATH02/simulation/qsim/DATAPATH02.msim.vcd
$comment
	File created using the following command:
		vcd file DATAPATH02.msim.vcd -direction
$end
$date
	Thu Oct 13 15:51:23 2022
$end
$version
	ModelSim Version 2020.1
$end
$timescale
	1ps
$end

$scope module DATAPATH02_vlg_vec_tst $end
$var reg 5 ! Addr [4:0] $end
$var reg 1 " CLK $end
$var wire 1 # INSTR [19] $end
$var wire 1 $ INSTR [18] $end
$var wire 1 % INSTR [17] $end
$var wire 1 & INSTR [16] $end
$var wire 1 ' INSTR [15] $end
$var wire 1 ( INSTR [14] $end
$var wire 1 ) INSTR [13] $end
$var wire 1 * INSTR [12] $end
$var wire 1 + INSTR [11] $end
$var wire 1 , INSTR [10] $end
$var wire 1 - INSTR [9] $end
$var wire 1 . INSTR [8] $end
$var wire 1 / INSTR [7] $end
$var wire 1 0 INSTR [6] $end
$var wire 1 1 INSTR [5] $end
$var wire 1 2 INSTR [4] $end
$var wire 1 3 INSTR [3] $end
$var wire 1 4 INSTR [2] $end
$var wire 1 5 INSTR [1] $end
$var wire 1 6 INSTR [0] $end

$scope module i1 $end
$var wire 1 7 gnd $end
$var wire 1 8 vcc $end
$var wire 1 9 unknown $end
$var tri1 1 : devclrn $end
$var tri1 1 ; devpor $end
$var tri1 1 < devoe $end
$var wire 1 = INSTR[19]~output_o $end
$var wire 1 > INSTR[18]~output_o $end
$var wire 1 ? INSTR[17]~output_o $end
$var wire 1 @ INSTR[16]~output_o $end
$var wire 1 A INSTR[15]~output_o $end
$var wire 1 B INSTR[14]~output_o $end
$var wire 1 C INSTR[13]~output_o $end
$var wire 1 D INSTR[12]~output_o $end
$var wire 1 E INSTR[11]~output_o $end
$var wire 1 F INSTR[10]~output_o $end
$var wire 1 G INSTR[9]~output_o $end
$var wire 1 H INSTR[8]~output_o $end
$var wire 1 I INSTR[7]~output_o $end
$var wire 1 J INSTR[6]~output_o $end
$var wire 1 K INSTR[5]~output_o $end
$var wire 1 L INSTR[4]~output_o $end
$var wire 1 M INSTR[3]~output_o $end
$var wire 1 N INSTR[2]~output_o $end
$var wire 1 O INSTR[1]~output_o $end
$var wire 1 P INSTR[0]~output_o $end
$var wire 1 Q CLK~input_o $end
$var wire 1 R Addr[0]~input_o $end
$var wire 1 S Addr[1]~input_o $end
$var wire 1 T Addr[2]~input_o $end
$var wire 1 U Addr[3]~input_o $end
$var wire 1 V Addr[4]~input_o $end
$var wire 1 W inst2|srom|rom_block|auto_generated|q_a [19] $end
$var wire 1 X inst2|srom|rom_block|auto_generated|q_a [18] $end
$var wire 1 Y inst2|srom|rom_block|auto_generated|q_a [17] $end
$var wire 1 Z inst2|srom|rom_block|auto_generated|q_a [16] $end
$var wire 1 [ inst2|srom|rom_block|auto_generated|q_a [15] $end
$var wire 1 \ inst2|srom|rom_block|auto_generated|q_a [14] $end
$var wire 1 ] inst2|srom|rom_block|auto_generated|q_a [13] $end
$var wire 1 ^ inst2|srom|rom_block|auto_generated|q_a [12] $end
$var wire 1 _ inst2|srom|rom_block|auto_generated|q_a [11] $end
$var wire 1 ` inst2|srom|rom_block|auto_generated|q_a [10] $end
$var wire 1 a inst2|srom|rom_block|auto_generated|q_a [9] $end
$var wire 1 b inst2|srom|rom_block|auto_generated|q_a [8] $end
$var wire 1 c inst2|srom|rom_block|auto_generated|q_a [7] $end
$var wire 1 d inst2|srom|rom_block|auto_generated|q_a [6] $end
$var wire 1 e inst2|srom|rom_block|auto_generated|q_a [5] $end
$var wire 1 f inst2|srom|rom_block|auto_generated|q_a [4] $end
$var wire 1 g inst2|srom|rom_block|auto_generated|q_a [3] $end
$var wire 1 h inst2|srom|rom_block|auto_generated|q_a [2] $end
$var wire 1 i inst2|srom|rom_block|auto_generated|q_a [1] $end
$var wire 1 j inst2|srom|rom_block|auto_generated|q_a [0] $end
$var wire 1 k inst2|srom|rom_block|auto_generated|ram_block1a19_PORTADATAOUT_bus [0] $end
$var wire 1 l inst2|srom|rom_block|auto_generated|ram_block1a18_PORTADATAOUT_bus [0] $end
$var wire 1 m inst2|srom|rom_block|auto_generated|ram_block1a17_PORTADATAOUT_bus [0] $end
$var wire 1 n inst2|srom|rom_block|auto_generated|ram_block1a16_PORTADATAOUT_bus [0] $end
$var wire 1 o inst2|srom|rom_block|auto_generated|ram_block1a15_PORTADATAOUT_bus [0] $end
$var wire 1 p inst2|srom|rom_block|auto_generated|ram_block1a14_PORTADATAOUT_bus [0] $end
$var wire 1 q inst2|srom|rom_block|auto_generated|ram_block1a13_PORTADATAOUT_bus [0] $end
$var wire 1 r inst2|srom|rom_block|auto_generated|ram_block1a12_PORTADATAOUT_bus [0] $end
$var wire 1 s inst2|srom|rom_block|auto_generated|ram_block1a11_PORTADATAOUT_bus [0] $end
$var wire 1 t inst2|srom|rom_block|auto_generated|ram_block1a10_PORTADATAOUT_bus [0] $end
$var wire 1 u inst2|srom|rom_block|auto_generated|ram_block1a9_PORTADATAOUT_bus [0] $end
$var wire 1 v inst2|srom|rom_block|auto_generated|ram_block1a8_PORTADATAOUT_bus [0] $end
$var wire 1 w inst2|srom|rom_block|auto_generated|ram_block1a7_PORTADATAOUT_bus [0] $end
$var wire 1 x inst2|srom|rom_block|auto_generated|ram_block1a6_PORTADATAOUT_bus [0] $end
$var wire 1 y inst2|srom|rom_block|auto_generated|ram_block1a5_PORTADATAOUT_bus [0] $end
$var wire 1 z inst2|srom|rom_block|auto_generated|ram_block1a4_PORTADATAOUT_bus [0] $end
$var wire 1 { inst2|srom|rom_block|auto_generated|ram_block1a3_PORTADATAOUT_bus [0] $end
$var wire 1 | inst2|srom|rom_block|auto_generated|ram_block1a2_PORTADATAOUT_bus [0] $end
$var wire 1 } inst2|srom|rom_block|auto_generated|ram_block1a1_PORTADATAOUT_bus [0] $end
$var wire 1 ~ inst2|srom|rom_block|auto_generated|ram_block1a0_PORTADATAOUT_bus [0] $end
$upscope $end
$upscope $end
$enddefinitions $end
#0
$dumpvars
b0 !
1"
z6
z5
z4
z3
z2
z1
z0
z/
z.
z-
z,
z+
z*
z)
z(
z'
z&
z%
z$
z#
07
18
x9
1:
1;
1<
z=
z>
z?
z@
zA
zB
zC
zD
zE
zF
zG
zH
zI
zJ
zK
zL
zM
zN
zO
zP
1Q
0R
0S
0T
0U
0V
0j
0i
0h
0g
0f
0e
0d
0c
0b
0a
0`
0_
0^
0]
0\
0[
0Z
0Y
0X
0W
0k
0l
0m
0n
0o
0p
0q
0r
0s
0t
0u
0v
0w
0x
0y
0z
0{
0|
0}
0~
$end
#500
0"
0Q
#8313
1"
1Q
#8314
1{
1}
1~
1g
1i
1j
#16125
0"
0Q
#23938
1"
1Q
#31750
0"
0Q
#39563
1"
1Q
#47375
0"
0Q
#55188
1"
1Q
#62500
b1 !
1R
#63000
0"
0Q
#70813
1"
1Q
#70814
1q
1z
1]
1f
#78625
0"
0Q
#86438
1"
1Q
#94250
0"
0Q
#102063
1"
1Q
#109875
0"
0Q
#117688
1"
1Q
#125000
b11 !
b10 !
0R
1S
#125500
0"
0Q
#133313
1"
1Q
#133314
1p
1r
1t
1u
1v
1y
0z
1\
1^
1`
1a
1b
1e
0f
#141125
0"
0Q
#148938
1"
1Q
#156750
0"
0Q
#164563
1"
1Q
#172375
0"
0Q
#180188
1"
1Q
#187500
b11 !
1R
#188000
0"
0Q
#195813
1"
1Q
#195814
0p
0q
0r
0t
0u
0v
1w
1x
1z
0\
0]
0^
0`
0a
0b
1c
1d
1f
#203625
0"
0Q
#211438
1"
1Q
#219250
0"
0Q
#227063
1"
1Q
#234875
0"
0Q
#242688
1"
1Q
#250000
b111 !
b101 !
b100 !
0R
0S
1T
#250500
0"
0Q
#258313
1"
1Q
#258314
1q
1r
1s
1t
0w
0x
0{
1|
0}
0~
1]
1^
1_
1`
0c
0d
0g
1h
0i
0j
#266125
0"
0Q
#273938
1"
1Q
#281750
0"
0Q
#289563
1"
1Q
#297375
0"
0Q
#305188
1"
1Q
#312500
b101 !
1R
#313000
0"
0Q
#320813
1"
1Q
#320814
1p
0q
0r
0s
1v
1x
0y
0z
1{
0|
1\
0]
0^
0_
1b
1d
0e
0f
1g
0h
#328625
0"
0Q
#336438
1"
1Q
#344250
0"
0Q
#352063
1"
1Q
#359875
0"
0Q
#367688
1"
1Q
#375000
b111 !
b110 !
0R
1S
#375500
0"
0Q
#383313
1"
1Q
#383314
1q
1r
1s
1z
1]
1^
1_
1f
#391125
0"
0Q
#398938
1"
1Q
#406750
0"
0Q
#414563
1"
1Q
#422375
0"
0Q
#430188
1"
1Q
#437500
b111 !
1R
#438000
0"
0Q
#445813
1"
1Q
#445814
1o
0q
0s
0t
0v
1y
0z
0{
1[
0]
0_
0`
0b
1e
0f
0g
#453625
0"
0Q
#461438
1"
1Q
#469250
0"
0Q
#477063
1"
1Q
#484875
0"
0Q
#492688
1"
1Q
#500000
b1111 !
b1011 !
b1001 !
b1000 !
0R
0S
0T
1U
#500500
0"
0Q
#508313
1"
1Q
#508314
0o
1s
1u
1{
1|
0[
1_
1a
1g
1h
#516125
0"
0Q
#523938
1"
1Q
#531750
0"
0Q
#539563
1"
1Q
#547375
0"
0Q
#555188
1"
1Q
#562500
b1001 !
1R
#563000
0"
0Q
#570813
1"
1Q
#570814
0p
0u
1z
0{
0|
1~
0\
0a
1f
0g
0h
1j
#578625
0"
0Q
#586438
1"
1Q
#594250
0"
0Q
#602063
1"
1Q
#609875
0"
0Q
#617688
1"
1Q
#625000
b1011 !
b1010 !
0R
1S
#625500
0"
0Q
#633313
1"
1Q
#633314
1o
1t
0x
1|
1[
1`
0d
1h
#641125
0"
0Q
#648938
1"
1Q
#656750
0"
0Q
#664563
1"
1Q
#672375
0"
0Q
#680188
1"
1Q
#687500
b1011 !
1R
#688000
0"
0Q
#695813
1"
1Q
#695814
0o
1p
0t
0~
0[
1\
0`
0j
#703625
0"
0Q
#711438
1"
1Q
#719250
0"
0Q
#727063
1"
1Q
#734875
0"
0Q
#742688
1"
1Q
#750000
b1111 !
b1101 !
b1100 !
0R
0S
1T
#750500
0"
0Q
#758313
1"
1Q
#758314
0p
0r
0s
1v
0|
1}
1~
0\
0^
0_
1b
0h
1i
1j
#766125
0"
0Q
#773938
1"
1Q
#781750
0"
0Q
#789563
1"
1Q
#797375
0"
0Q
#805188
1"
1Q
#812500
b1101 !
1R
#813000
0"
0Q
#820813
1"
1Q
#820814
1n
1o
1p
1s
0v
1|
0}
1Z
1[
1\
1_
0b
1h
0i
#828625
0"
0Q
#836438
1"
1Q
#844250
0"
0Q
#852063
1"
1Q
#859875
0"
0Q
#867688
1"
1Q
#875000
b1111 !
b1110 !
0R
1S
#875500
0"
0Q
#883313
1"
1Q
#883314
0n
0o
1r
1v
1x
0y
0z
0~
0Z
0[
1^
1b
1d
0e
0f
0j
#891125
0"
0Q
#898938
1"
1Q
#906750
0"
0Q
#914563
1"
1Q
#922375
0"
0Q
#930188
1"
1Q
#937500
b1111 !
1R
#938000
0"
0Q
#945813
1"
1Q
#945814
0p
0r
0s
0x
1y
1z
0|
1}
1~
0\
0^
0_
0d
1e
1f
0h
1i
1j
#953625
0"
0Q
#961438
1"
1Q
#969250
0"
0Q
#977063
1"
1Q
#984875
0"
0Q
#992688
1"
1Q
