Projects/Engineering Projects/Computer Architecture and Embedded Systems/Instruction Set Arch/DATAPATH03/reg4bit/simulation/qsim/reg4bit.msim.vcd
$comment
	File created using the following command:
		vcd file reg4bit.msim.vcd -direction
$end
$date
	Fri Sep 23 21:02:29 2022
$end
$version
	ModelSim Version 10.5b
$end
$timescale
	1ps
$end

$scope module reg4bit_vlg_vec_tst $end
$var reg 1 ! CLK $end
$var reg 4 " D [3:0] $end
$var reg 1 # EN $end
$var wire 1 $ Q [3] $end
$var wire 1 % Q [2] $end
$var wire 1 & Q [1] $end
$var wire 1 ' Q [0] $end

$scope module i1 $end
$var wire 1 ( gnd $end
$var wire 1 ) vcc $end
$var wire 1 * unknown $end
$var tri1 1 + devclrn $end
$var tri1 1 , devpor $end
$var tri1 1 - devoe $end
$var wire 1 . ~QUARTUS_CREATED_GND~I_combout $end
$var wire 1 / CLK~input_o $end
$var wire 1 0 CLK~inputCLKENA0_outclk $end
$var wire 1 1 D[3]~input_o $end
$var wire 1 2 inst3~feeder_combout $end
$var wire 1 3 EN~input_o $end
$var wire 1 4 inst3~q $end
$var wire 1 5 D[2]~input_o $end
$var wire 1 6 inst2~q $end
$var wire 1 7 D[1]~input_o $end
$var wire 1 8 inst1~q $end
$var wire 1 9 D[0]~input_o $end
$var wire 1 : inst~feeder_combout $end
$var wire 1 ; inst~q $end
$upscope $end
$upscope $end
$enddefinitions $end
#0
$dumpvars
0!
b0 "
1#
0'
0&
0%
0$
0(
1)
x*
1+
1,
1-
0.
0/
00
01
02
13
04
05
06
07
08
09
0:
0;
$end
#5000
1!
1/
10
#10000
0!
0/
00
#15000
1!
1/
10
#20000
0!
0/
00
#25000
1!
1/
10
#30000
0!
0/
00
#35000
1!
1/
10
#40000
0!
0/
00
#45000
1!
1/
10
#50000
0!
0/
00
#55000
1!
1/
10
#60000
0!
0/
00
#62500
b1 "
19
1:
#65000
1!
1/
10
1;
1'
#70000
0!
0/
00
#75000
1!
1/
10
#80000
0!
0/
00
#85000
1!
1/
10
#90000
0!
0/
00
#95000
1!
1/
10
#100000
0!
0/
00
#105000
1!
1/
10
#110000
0!
0/
00
#115000
1!
1/
10
#120000
0!
0/
00
#125000
b11 "
b10 "
1!
09
17
1/
10
0:
18
1&
#130000
0!
0/
00
#135000
1!
1/
10
0;
0'
#140000
0!
0/
00
#145000
1!
1/
10
#150000
0!
0/
00
#155000
1!
1/
10
#160000
0!
0/
00
#165000
1!
1/
10
#170000
0!
0/
00
#175000
1!
1/
10
#180000
0!
0/
00
#185000
1!
1/
10
#187500
b11 "
19
1:
#190000
0!
0/
00
#195000
1!
1/
10
1;
1'
#200000
0!
0/
00
#205000
1!
1/
10
#210000
0!
0/
00
#215000
1!
1/
10
#220000
0!
0/
00
#225000
1!
1/
10
#230000
0!
0/
00
#235000
1!
1/
10
#240000
0!
0/
00
#245000
1!
1/
10
#250000
b111 "
b101 "
b100 "
0!
09
07
15
0/
00
0:
#255000
1!
1/
10
0;
08
16
1%
0&
0'
#260000
0!
0/
00
#265000
1!
1/
10
#270000
0!
0/
00
#275000
1!
1/
10
#280000
0!
0/
00
#285000
1!
1/
10
#290000
0!
0/
00
#295000
1!
1/
10
#300000
0!
0/
00
#305000
1!
1/
10
#310000
0!
0/
00
#312500
b101 "
19
1:
#315000
1!
1/
10
1;
1'
#320000
0!
0/
00
#325000
1!
1/
10
#330000
0!
0/
00
#335000
1!
1/
10
#340000
0!
0/
00
#345000
1!
1/
10
#350000
0!
0/
00
#355000
1!
1/
10
#360000
0!
0/
00
#365000
1!
1/
10
#370000
0!
0/
00
#375000
b111 "
b110 "
1!
09
17
1/
10
0:
18
1&
#380000
0!
0/
00
#385000
1!
1/
10
0;
0'
#390000
0!
0/
00
#395000
1!
1/
10
#400000
0!
0/
00
#405000
1!
1/
10
#410000
0!
0/
00
#415000
1!
1/
10
#420000
0!
0/
00
#425000
1!
1/
10
#430000
0!
0/
00
#435000
1!
1/
10
#437500
b111 "
19
1:
#440000
0!
0/
00
#445000
1!
1/
10
1;
1'
#450000
0!
0/
00
#455000
1!
1/
10
#460000
0!
0/
00
#465000
1!
1/
10
#470000
0!
0/
00
#475000
1!
1/
10
#480000
0!
0/
00
#485000
1!
1/
10
#490000
0!
0/
00
#495000
1!
1/
10
#500000
b1111 "
0#
b1011 "
b1001 "
b1000 "
0!
09
07
05
11
03
0/
00
12
0:
06
08
0;
0'
0&
0%
#505000
1!
1/
10
#510000
0!
0/
00
#515000
1!
1/
10
#520000
0!
0/
00
#525000
1!
1/
10
#530000
0!
0/
00
#535000
1!
1/
10
#540000
0!
0/
00
#545000
1!
1/
10
#550000
0!
0/
00
#555000
1!
1/
10
#560000
0!
0/
00
#562500
b1001 "
19
1:
#565000
1!
1/
10
#570000
0!
0/
00
#575000
1!
1/
10
#580000
0!
0/
00
#585000
1!
1/
10
#590000
0!
0/
00
#595000
1!
1/
10
#600000
0!
0/
00
#605000
1!
1/
10
#610000
0!
0/
00
#615000
1!
1/
10
#620000
0!
0/
00
#625000
b1011 "
b1010 "
1!
09
17
1/
10
0:
#630000
0!
0/
00
#635000
1!
1/
10
#640000
0!
0/
00
#645000
1!
1/
10
#650000
0!
0/
00
#655000
1!
1/
10
#660000
0!
0/
00
#665000
1!
1/
10
#670000
0!
0/
00
#675000
1!
1/
10
#680000
0!
0/
00
#685000
1!
1/
10
#687500
b1011 "
19
1:
#690000
0!
0/
00
#695000
1!
1/
10
#700000
0!
0/
00
#705000
1!
1/
10
#710000
0!
0/
00
#715000
1!
1/
10
#720000
0!
0/
00
#725000
1!
1/
10
#730000
0!
0/
00
#735000
1!
1/
10
#740000
0!
0/
00
#745000
1!
1/
10
#750000
b1111 "
b1101 "
b1100 "
0!
09
07
15
0/
00
0:
#755000
1!
1/
10
#760000
0!
0/
00
#765000
1!
1/
10
#770000
0!
0/
00
#775000
1!
1/
10
#780000
0!
0/
00
#785000
1!
1/
10
#790000
0!
0/
00
#795000
1!
1/
10
#800000
0!
0/
00
#805000
1!
1/
10
#810000
0!
0/
00
#812500
b1101 "
19
1:
#815000
1!
1/
10
#820000
0!
0/
00
#825000
1!
1/
10
#830000
0!
0/
00
#835000
1!
1/
10
#840000
0!
0/
00
#845000
1!
1/
10
#850000
0!
0/
00
#855000
1!
1/
10
#860000
0!
0/
00
#865000
1!
1/
10
#870000
0!
0/
00
#875000
b1111 "
b1110 "
1!
09
17
1/
10
0:
#880000
0!
0/
00
#885000
1!
1/
10
#890000
0!
0/
00
#895000
1!
1/
10
#900000
0!
0/
00
#905000
1!
1/
10
#910000
0!
0/
00
#915000
1!
1/
10
#920000
0!
0/
00
#925000
1!
1/
10
#930000
0!
0/
00
#935000
1!
1/
10
#937500
b1111 "
19
1:
#940000
0!
0/
00
#945000
1!
1/
10
#950000
0!
0/
00
#955000
1!
1/
10
#960000
0!
0/
00
#965000
1!
1/
10
#970000
0!
0/
00
#975000
1!
1/
10
#980000
0!
0/
00
#985000
1!
1/
10
#990000
0!
0/
00
#995000
1!
1/
10
