Projects/Engineering Projects/Computer Architecture and Embedded Systems/DATAPATH03/SixteenByEightRF/simulation/qsim/SixteenByEightRF.msim.vcd
$comment
	File created using the following command:
		vcd file SixteenByEightRF.msim.vcd -direction
$end
$date
	Fri Oct 14 09:17:05 2022
$end
$version
	ModelSim Version 2020.1
$end
$timescale
	1ps
$end

$scope module SixteenByEightRF_vlg_vec_tst $end
$var reg 1 ! CLK $end
$var reg 8 " IN [7:0] $end
$var reg 4 # RA1 [3:0] $end
$var reg 4 $ RA2 [3:0] $end
$var reg 1 % RegWrit $end
$var reg 4 & WA [3:0] $end
$var wire 1 ' RD1 [7] $end
$var wire 1 ( RD1 [6] $end
$var wire 1 ) RD1 [5] $end
$var wire 1 * RD1 [4] $end
$var wire 1 + RD1 [3] $end
$var wire 1 , RD1 [2] $end
$var wire 1 - RD1 [1] $end
$var wire 1 . RD1 [0] $end
$var wire 1 / RD2 [7] $end
$var wire 1 0 RD2 [6] $end
$var wire 1 1 RD2 [5] $end
$var wire 1 2 RD2 [4] $end
$var wire 1 3 RD2 [3] $end
$var wire 1 4 RD2 [2] $end
$var wire 1 5 RD2 [1] $end
$var wire 1 6 RD2 [0] $end

$scope module i1 $end
$var wire 1 7 gnd $end
$var wire 1 8 vcc $end
$var wire 1 9 unknown $end
$var tri1 1 : devclrn $end
$var tri1 1 ; devpor $end
$var tri1 1 < devoe $end
$var wire 1 = RD1[7]~output_o $end
$var wire 1 > RD1[6]~output_o $end
$var wire 1 ? RD1[5]~output_o $end
$var wire 1 @ RD1[4]~output_o $end
$var wire 1 A RD1[3]~output_o $end
$var wire 1 B RD1[2]~output_o $end
$var wire 1 C RD1[1]~output_o $end
$var wire 1 D RD1[0]~output_o $end
$var wire 1 E RD2[7]~output_o $end
$var wire 1 F RD2[6]~output_o $end
$var wire 1 G RD2[5]~output_o $end
$var wire 1 H RD2[4]~output_o $end
$var wire 1 I RD2[3]~output_o $end
$var wire 1 J RD2[2]~output_o $end
$var wire 1 K RD2[1]~output_o $end
$var wire 1 L RD2[0]~output_o $end
$var wire 1 M RA1[3]~input_o $end
$var wire 1 N RA1[1]~input_o $end
$var wire 1 O RA1[0]~input_o $end
$var wire 1 P RA1[2]~input_o $end
$var wire 1 Q CLK~input_o $end
$var wire 1 R IN[7]~input_o $end
$var wire 1 S WA[2]~input_o $end
$var wire 1 T WA[1]~input_o $end
$var wire 1 U WA[0]~input_o $end
$var wire 1 V RegWrit~input_o $end
$var wire 1 W WA[3]~input_o $end
$var wire 1 X inst59~0_combout $end
$var wire 1 Y inst78|inst~q $end
$var wire 1 Z inst63~0_combout $end
$var wire 1 [ inst83|inst~q $end
$var wire 1 \ inst61|inst9|inst22~2_combout $end
$var wire 1 ] inst57~0_combout $end
$var wire 1 ^ inst76|inst~q $end
$var wire 1 _ inst600~0_combout $end
$var wire 1 ` inst80|inst~q $end
$var wire 1 a inst61|inst9|inst22~1_combout $end
$var wire 1 b inst602~0_combout $end
$var wire 1 c inst81|inst~q $end
$var wire 1 d inst61|inst5|inst63~0_combout $end
$var wire 1 e inst56~0_combout $end
$var wire 1 f inst75|inst~q $end
$var wire 1 g inst60~0_combout $end
$var wire 1 h inst79|inst~q $end
$var wire 1 i inst61|inst9|inst22~0_combout $end
$var wire 1 j inst58~0_combout $end
$var wire 1 k inst77|inst~q $end
$var wire 1 l inst61|inst9|inst22~10_combout $end
$var wire 1 m inst49~0_combout $end
$var wire 1 n inst66|inst~q $end
$var wire 1 o inst53~0_combout $end
$var wire 1 p inst70|inst~q $end
$var wire 1 q inst61|inst9|inst22~3_combout $end
$var wire 1 r inst501~0_combout $end
$var wire 1 s inst68|inst~q $end
$var wire 1 t inst55~0_combout $end
$var wire 1 u inst73|inst~q $end
$var wire 1 v inst61|inst9|inst22~4_combout $end
$var wire 1 w inst52~0_combout $end
$var wire 1 x inst69|inst~q $end
$var wire 1 y inst54~0_combout $end
$var wire 1 z inst71|inst~q $end
$var wire 1 { inst50~0_combout $end
$var wire 1 | inst67|inst~q $end
$var wire 1 } inst48~0_combout $end
$var wire 1 ~ inst|inst~q $end
$var wire 1 !! inst61|inst9|inst22~6_combout $end
$var wire 1 "! inst61|inst9|inst22~5_combout $end
$var wire 1 #! IN[6]~input_o $end
$var wire 1 $! inst78|inst1~q $end
$var wire 1 %! inst83|inst1~q $end
$var wire 1 &! inst61|inst8|inst22~2_combout $end
$var wire 1 '! inst76|inst1~q $end
$var wire 1 (! inst80|inst1~q $end
$var wire 1 )! inst61|inst8|inst22~1_combout $end
$var wire 1 *! inst81|inst1~q $end
$var wire 1 +! inst75|inst1~q $end
$var wire 1 ,! inst79|inst1~q $end
$var wire 1 -! inst61|inst8|inst22~0_combout $end
$var wire 1 .! inst77|inst1~q $end
$var wire 1 /! inst61|inst8|inst22~10_combout $end
$var wire 1 0! inst66|inst1~q $end
$var wire 1 1! inst70|inst1~q $end
$var wire 1 2! inst61|inst8|inst22~3_combout $end
$var wire 1 3! inst68|inst1~q $end
$var wire 1 4! inst73|inst1~q $end
$var wire 1 5! inst61|inst8|inst22~4_combout $end
$var wire 1 6! inst69|inst1~q $end
$var wire 1 7! inst71|inst1~q $end
$var wire 1 8! inst67|inst1~q $end
$var wire 1 9! inst|inst1~q $end
$var wire 1 :! inst61|inst8|inst22~6_combout $end
$var wire 1 ;! inst61|inst8|inst22~5_combout $end
$var wire 1 <! IN[5]~input_o $end
$var wire 1 =! inst78|inst2~q $end
$var wire 1 >! inst83|inst2~q $end
$var wire 1 ?! inst61|inst7|inst22~2_combout $end
$var wire 1 @! inst76|inst2~q $end
$var wire 1 A! inst80|inst2~q $end
$var wire 1 B! inst61|inst7|inst22~1_combout $end
$var wire 1 C! inst81|inst2~q $end
$var wire 1 D! inst75|inst2~q $end
$var wire 1 E! inst79|inst2~q $end
$var wire 1 F! inst61|inst7|inst22~0_combout $end
$var wire 1 G! inst77|inst2~q $end
$var wire 1 H! inst61|inst7|inst22~10_combout $end
$var wire 1 I! inst66|inst2~q $end
$var wire 1 J! inst70|inst2~q $end
$var wire 1 K! inst61|inst7|inst22~3_combout $end
$var wire 1 L! inst68|inst2~q $end
$var wire 1 M! inst73|inst2~q $end
$var wire 1 N! inst61|inst7|inst22~4_combout $end
$var wire 1 O! inst69|inst2~q $end
$var wire 1 P! inst71|inst2~q $end
$var wire 1 Q! inst67|inst2~q $end
$var wire 1 R! inst|inst2~q $end
$var wire 1 S! inst61|inst7|inst22~6_combout $end
$var wire 1 T! inst61|inst7|inst22~5_combout $end
$var wire 1 U! IN[4]~input_o $end
$var wire 1 V! inst78|inst3~q $end
$var wire 1 W! inst83|inst3~q $end
$var wire 1 X! inst61|inst6|inst22~2_combout $end
$var wire 1 Y! inst76|inst3~q $end
$var wire 1 Z! inst80|inst3~q $end
$var wire 1 [! inst61|inst6|inst22~1_combout $end
$var wire 1 \! inst81|inst3~q $end
$var wire 1 ]! inst75|inst3~q $end
$var wire 1 ^! inst79|inst3~q $end
$var wire 1 _! inst61|inst6|inst22~0_combout $end
$var wire 1 `! inst77|inst3~q $end
$var wire 1 a! inst61|inst6|inst22~10_combout $end
$var wire 1 b! inst66|inst3~q $end
$var wire 1 c! inst70|inst3~q $end
$var wire 1 d! inst61|inst6|inst22~3_combout $end
$var wire 1 e! inst68|inst3~q $end
$var wire 1 f! inst73|inst3~q $end
$var wire 1 g! inst61|inst6|inst22~4_combout $end
$var wire 1 h! inst69|inst3~q $end
$var wire 1 i! inst71|inst3~q $end
$var wire 1 j! inst67|inst3~q $end
$var wire 1 k! inst|inst3~q $end
$var wire 1 l! inst61|inst6|inst22~6_combout $end
$var wire 1 m! inst61|inst6|inst22~5_combout $end
$var wire 1 n! IN[3]~input_o $end
$var wire 1 o! inst78|inst6~q $end
$var wire 1 p! inst83|inst6~q $end
$var wire 1 q! inst61|inst5|inst22~2_combout $end
$var wire 1 r! inst76|inst6~q $end
$var wire 1 s! inst80|inst6~q $end
$var wire 1 t! inst61|inst5|inst22~1_combout $end
$var wire 1 u! inst81|inst6~q $end
$var wire 1 v! inst75|inst6~q $end
$var wire 1 w! inst79|inst6~q $end
$var wire 1 x! inst61|inst5|inst22~0_combout $end
$var wire 1 y! inst77|inst6~q $end
$var wire 1 z! inst61|inst5|inst22~10_combout $end
$var wire 1 {! inst66|inst6~q $end
$var wire 1 |! inst70|inst6~q $end
$var wire 1 }! inst61|inst5|inst22~3_combout $end
$var wire 1 ~! inst68|inst6~q $end
$var wire 1 !" inst73|inst6~q $end
$var wire 1 "" inst61|inst5|inst22~4_combout $end
$var wire 1 #" inst69|inst6~q $end
$var wire 1 $" inst71|inst6~q $end
$var wire 1 %" inst67|inst6~q $end
$var wire 1 &" inst|inst6~q $end
$var wire 1 '" inst61|inst5|inst22~6_combout $end
$var wire 1 (" inst61|inst5|inst22~5_combout $end
$var wire 1 )" IN[2]~input_o $end
$var wire 1 *" inst78|inst4~q $end
$var wire 1 +" inst83|inst4~q $end
$var wire 1 ," inst61|inst4|inst22~2_combout $end
$var wire 1 -" inst76|inst4~q $end
$var wire 1 ." inst80|inst4~q $end
$var wire 1 /" inst61|inst4|inst22~1_combout $end
$var wire 1 0" inst81|inst4~q $end
$var wire 1 1" inst75|inst4~q $end
$var wire 1 2" inst79|inst4~q $end
$var wire 1 3" inst61|inst4|inst22~0_combout $end
$var wire 1 4" inst77|inst4~q $end
$var wire 1 5" inst61|inst4|inst22~10_combout $end
$var wire 1 6" inst66|inst4~q $end
$var wire 1 7" inst70|inst4~q $end
$var wire 1 8" inst61|inst4|inst22~3_combout $end
$var wire 1 9" inst68|inst4~q $end
$var wire 1 :" inst73|inst4~q $end
$var wire 1 ;" inst61|inst4|inst22~4_combout $end
$var wire 1 <" inst69|inst4~q $end
$var wire 1 =" inst71|inst4~q $end
$var wire 1 >" inst67|inst4~q $end
$var wire 1 ?" inst|inst4~q $end
$var wire 1 @" inst61|inst4|inst22~6_combout $end
$var wire 1 A" inst61|inst4|inst22~5_combout $end
$var wire 1 B" IN[1]~input_o $end
$var wire 1 C" inst78|inst5~q $end
$var wire 1 D" inst83|inst5~q $end
$var wire 1 E" inst61|inst3|inst22~2_combout $end
$var wire 1 F" inst76|inst5~q $end
$var wire 1 G" inst80|inst5~q $end
$var wire 1 H" inst61|inst3|inst22~1_combout $end
$var wire 1 I" inst81|inst5~q $end
$var wire 1 J" inst75|inst5~q $end
$var wire 1 K" inst79|inst5~q $end
$var wire 1 L" inst61|inst3|inst22~0_combout $end
$var wire 1 M" inst77|inst5~q $end
$var wire 1 N" inst61|inst3|inst22~10_combout $end
$var wire 1 O" inst66|inst5~q $end
$var wire 1 P" inst70|inst5~q $end
$var wire 1 Q" inst61|inst3|inst22~3_combout $end
$var wire 1 R" inst68|inst5~q $end
$var wire 1 S" inst73|inst5~q $end
$var wire 1 T" inst61|inst3|inst22~4_combout $end
$var wire 1 U" inst69|inst5~q $end
$var wire 1 V" inst71|inst5~q $end
$var wire 1 W" inst67|inst5~q $end
$var wire 1 X" inst|inst5~q $end
$var wire 1 Y" inst61|inst3|inst22~6_combout $end
$var wire 1 Z" inst61|inst3|inst22~5_combout $end
$var wire 1 [" IN[0]~input_o $end
$var wire 1 \" inst78|inst7~q $end
$var wire 1 ]" inst83|inst7~q $end
$var wire 1 ^" inst61|inst|inst22~2_combout $end
$var wire 1 _" inst76|inst7~q $end
$var wire 1 `" inst80|inst7~q $end
$var wire 1 a" inst61|inst|inst22~1_combout $end
$var wire 1 b" inst81|inst7~q $end
$var wire 1 c" inst75|inst7~q $end
$var wire 1 d" inst79|inst7~q $end
$var wire 1 e" inst61|inst|inst22~0_combout $end
$var wire 1 f" inst77|inst7~q $end
$var wire 1 g" inst61|inst|inst22~10_combout $end
$var wire 1 h" inst66|inst7~q $end
$var wire 1 i" inst70|inst7~q $end
$var wire 1 j" inst61|inst|inst22~3_combout $end
$var wire 1 k" inst68|inst7~q $end
$var wire 1 l" inst73|inst7~q $end
$var wire 1 m" inst61|inst|inst22~4_combout $end
$var wire 1 n" inst69|inst7~q $end
$var wire 1 o" inst71|inst7~q $end
$var wire 1 p" inst67|inst7~q $end
$var wire 1 q" inst|inst7~q $end
$var wire 1 r" inst61|inst|inst22~6_combout $end
$var wire 1 s" inst61|inst|inst22~5_combout $end
$var wire 1 t" RA2[3]~input_o $end
$var wire 1 u" RA2[1]~input_o $end
$var wire 1 v" RA2[0]~input_o $end
$var wire 1 w" RA2[2]~input_o $end
$var wire 1 x" inst62|inst9|inst22~2_combout $end
$var wire 1 y" inst62|inst9|inst22~1_combout $end
$var wire 1 z" inst62|inst9|inst51~0_combout $end
$var wire 1 {" inst62|inst9|inst22~0_combout $end
$var wire 1 |" inst62|inst9|inst22~10_combout $end
$var wire 1 }" inst62|inst9|inst22~3_combout $end
$var wire 1 ~" inst62|inst9|inst22~4_combout $end
$var wire 1 !# inst62|inst9|inst22~6_combout $end
$var wire 1 "# inst62|inst9|inst22~5_combout $end
$var wire 1 ## inst62|inst8|inst22~2_combout $end
$var wire 1 $# inst62|inst8|inst22~1_combout $end
$var wire 1 %# inst62|inst8|inst22~0_combout $end
$var wire 1 &# inst62|inst8|inst22~10_combout $end
$var wire 1 '# inst62|inst8|inst22~3_combout $end
$var wire 1 (# inst62|inst8|inst22~4_combout $end
$var wire 1 )# inst62|inst8|inst22~6_combout $end
$var wire 1 *# inst62|inst8|inst22~5_combout $end
$var wire 1 +# inst62|inst7|inst22~2_combout $end
$var wire 1 ,# inst62|inst7|inst22~1_combout $end
$var wire 1 -# inst62|inst7|inst22~0_combout $end
$var wire 1 .# inst62|inst7|inst22~10_combout $end
$var wire 1 /# inst62|inst7|inst22~3_combout $end
$var wire 1 0# inst62|inst7|inst22~4_combout $end
$var wire 1 1# inst62|inst7|inst22~6_combout $end
$var wire 1 2# inst62|inst7|inst22~5_combout $end
$var wire 1 3# inst62|inst6|inst22~2_combout $end
$var wire 1 4# inst62|inst6|inst22~1_combout $end
$var wire 1 5# inst62|inst6|inst22~0_combout $end
$var wire 1 6# inst62|inst6|inst22~10_combout $end
$var wire 1 7# inst62|inst6|inst22~3_combout $end
$var wire 1 8# inst62|inst6|inst22~4_combout $end
$var wire 1 9# inst62|inst6|inst22~6_combout $end
$var wire 1 :# inst62|inst6|inst22~5_combout $end
$var wire 1 ;# inst62|inst5|inst22~2_combout $end
$var wire 1 <# inst62|inst5|inst22~1_combout $end
$var wire 1 =# inst62|inst5|inst22~0_combout $end
$var wire 1 ># inst62|inst5|inst22~10_combout $end
$var wire 1 ?# inst62|inst5|inst22~3_combout $end
$var wire 1 @# inst62|inst5|inst22~4_combout $end
$var wire 1 A# inst62|inst5|inst22~6_combout $end
$var wire 1 B# inst62|inst5|inst22~5_combout $end
$var wire 1 C# inst62|inst4|inst22~2_combout $end
$var wire 1 D# inst62|inst4|inst22~1_combout $end
$var wire 1 E# inst62|inst4|inst22~0_combout $end
$var wire 1 F# inst62|inst4|inst22~10_combout $end
$var wire 1 G# inst62|inst4|inst22~3_combout $end
$var wire 1 H# inst62|inst4|inst22~4_combout $end
$var wire 1 I# inst62|inst4|inst22~6_combout $end
$var wire 1 J# inst62|inst4|inst22~5_combout $end
$var wire 1 K# inst62|inst3|inst22~2_combout $end
$var wire 1 L# inst62|inst3|inst22~1_combout $end
$var wire 1 M# inst62|inst3|inst22~0_combout $end
$var wire 1 N# inst62|inst3|inst22~10_combout $end
$var wire 1 O# inst62|inst3|inst22~3_combout $end
$var wire 1 P# inst62|inst3|inst22~4_combout $end
$var wire 1 Q# inst62|inst3|inst22~6_combout $end
$var wire 1 R# inst62|inst3|inst22~5_combout $end
$var wire 1 S# inst62|inst|inst22~2_combout $end
$var wire 1 T# inst62|inst|inst22~1_combout $end
$var wire 1 U# inst62|inst|inst22~0_combout $end
$var wire 1 V# inst62|inst|inst22~10_combout $end
$var wire 1 W# inst62|inst|inst22~3_combout $end
$var wire 1 X# inst62|inst|inst22~4_combout $end
$var wire 1 Y# inst62|inst|inst22~6_combout $end
$var wire 1 Z# inst62|inst|inst22~5_combout $end
$upscope $end
$upscope $end
$enddefinitions $end
#0
$dumpvars
1!
b0 "
b0 #
b0 $
1%
b0 &
0.
0-
0,
0+
0*
0)
0(
0'
06
05
04
03
02
01
00
0/
07
18
x9
1:
1;
1<
0=
0>
0?
0@
0A
0B
0C
0D
0E
0F
0G
0H
0I
0J
0K
0L
0M
0N
0O
0P
1Q
0R
0S
0T
0U
1V
0W
0X
0Y
0Z
0[
0\
0]
0^
0_
0`
0a
0b
0c
0d
0e
0f
0g
0h
0i
0j
0k
0l
0m
0n
0o
0p
0q
0r
0s
0t
0u
0v
0w
0x
0y
0z
0{
0|
1}
0~
0!!
0"!
0#!
0$!
0%!
0&!
0'!
0(!
0)!
0*!
0+!
0,!
0-!
0.!
0/!
00!
01!
02!
03!
04!
05!
06!
07!
08!
09!
0:!
0;!
0<!
0=!
0>!
0?!
0@!
0A!
0B!
0C!
0D!
0E!
0F!
0G!
0H!
0I!
0J!
0K!
0L!
0M!
0N!
0O!
0P!
0Q!
0R!
0S!
0T!
0U!
0V!
0W!
0X!
0Y!
0Z!
0[!
0\!
0]!
0^!
0_!
0`!
0a!
0b!
0c!
0d!
0e!
0f!
0g!
0h!
0i!
0j!
0k!
0l!
0m!
0n!
0o!
0p!
0q!
0r!
0s!
0t!
0u!
0v!
0w!
0x!
0y!
0z!
0{!
0|!
0}!
0~!
0!"
0""
0#"
0$"
0%"
0&"
0'"
0("
0)"
0*"
0+"
0,"
0-"
0."
0/"
00"
01"
02"
03"
04"
05"
06"
07"
08"
09"
0:"
0;"
0<"
0="
0>"
0?"
0@"
0A"
0B"
0C"
0D"
0E"
0F"
0G"
0H"
0I"
0J"
0K"
0L"
0M"
0N"
0O"
0P"
0Q"
0R"
0S"
0T"
0U"
0V"
0W"
0X"
0Y"
0Z"
0["
0\"
0]"
0^"
0_"
0`"
0a"
0b"
0c"
0d"
0e"
0f"
0g"
0h"
0i"
0j"
0k"
0l"
0m"
0n"
0o"
0p"
0q"
0r"
0s"
0t"
0u"
0v"
0w"
0x"
0y"
0z"
0{"
0|"
0}"
0~"
0!#
0"#
0##
0$#
0%#
0&#
0'#
0(#
0)#
0*#
0+#
0,#
0-#
0.#
0/#
00#
01#
02#
03#
04#
05#
06#
07#
08#
09#
0:#
0;#
0<#
0=#
0>#
0?#
0@#
0A#
0B#
0C#
0D#
0E#
0F#
0G#
0H#
0I#
0J#
0K#
0L#
0M#
0N#
0O#
0P#
0Q#
0R#
0S#
0T#
0U#
0V#
0W#
0X#
0Y#
0Z#
$end
#500
0!
0Q
#500500
1!
1Q
#1000000
b1 "
b1 #
b1 $
b1 &
1U
1v"
1O
1["
0}
1m
#1000500
0!
0Q
#1500500
1!
1Q
1h"
1W#
1j"
1s"
1Z#
1L
1D
1.
16
#2000000
b11 "
b11 #
b11 $
b11 &
b10 "
b10 #
b10 $
b10 &
0U
1T
0v"
1u"
0O
1N
0["
1B"
0j"
1d
0W#
1z"
1{
0m
0Z#
0s"
0D
0L
06
0.
#2000500
0!
0Q
#2500500
1!
1Q
1W"
1Q#
1Y"
1Z"
1R#
1K
1C
1-
15
#3000000
b11 "
b11 #
b11 $
b11 &
1U
1v"
1O
1["
0Y"
0d
0Q#
0z"
0{
1r
0R#
0Z"
0C
0K
05
0-
#3000500
0!
0Q
#3500500
1!
1Q
1k"
1R"
1P#
1T"
1X#
1m"
1s"
1Z#
1Z"
1R#
1K
1C
1L
1D
1.
16
1-
15
#4000000
b111 "
b111 #
b111 $
b111 &
b101 "
b101 #
b101 $
b101 &
b100 "
b100 #
b100 $
b100 &
0U
0T
1S
0v"
0u"
1w"
0O
0N
1P
0["
0B"
1)"
0m"
0T"
0X#
0P#
1w
0r
0R#
0Z#
0Z"
0s"
0D
0C
0L
0K
05
06
0-
0.
#4000500
0!
0Q
#4500500
1!
1Q
1<"
1I#
1@"
1A"
1J#
1J
1B
1,
14
#5000000
b101 "
b101 #
b101 $
b101 &
1U
1v"
1O
1["
0@"
0I#
0w
1o
0J#
0A"
0B
0J
04
0,
#5000500
0!
0Q
#5500500
1!
1Q
1i"
17"
1G#
18"
1W#
1j"
1s"
1Z#
1A"
1J#
1J
1B
1L
1D
1.
16
1,
14
#6000000
b111 "
b111 #
b111 $
b111 &
b110 "
b110 #
b110 $
b110 &
0U
1T
0v"
1u"
0O
1N
0["
1B"
0j"
08"
1d
0W#
0G#
1z"
1y
0o
0J#
0Z#
0A"
0s"
0D
0B
0L
0J
04
06
0,
0.
#6000500
0!
0Q
#6500500
1!
1Q
1V"
1="
1I#
1@"
1Q#
1Y"
1Z"
1R#
1A"
1J#
1J
1B
1K
1C
1-
15
1,
14
#7000000
b111 "
b111 #
b111 $
b111 &
1U
1v"
1O
1["
0Y"
0@"
0d
0Q#
0I#
0z"
0y
1t
0J#
0R#
0A"
0Z"
0C
0B
0K
0J
04
05
0,
0-
#7000500
0!
0Q
#7500500
1!
1Q
1l"
1S"
1:"
1H#
1;"
1P#
1T"
1X#
1m"
1s"
1Z#
1Z"
1R#
1A"
1J#
1J
1B
1K
1C
1L
1D
1.
16
1-
15
1,
14
#8000000
b1111 "
b1111 #
b1111 $
b1111 &
b1011 "
b1011 #
b1011 $
b1011 &
b1001 "
b1001 #
b1001 $
b1001 &
b1000 "
b1000 #
b1000 $
b1000 &
0U
0T
0S
1W
0v"
0u"
0w"
1t"
0O
0N
0P
1M
0["
0B"
0)"
1n!
0m"
0T"
0;"
0X#
0P#
0H#
0t
1e
0s"
0Z"
0A"
0Z#
0R#
0J#
0J
0K
0L
0B
0C
0D
0.
0-
0,
06
05
04
#8000500
0!
0Q
#8500500
1!
1Q
1v!
1=#
1x!
1z!
1>#
1B#
1("
1A
1I
13
1+
#9000000
b1001 "
b1001 #
b1001 $
b1001 &
1U
1v"
1O
1["
1j"
0x!
1W#
0=#
0e
1]
0>#
0z!
0("
0B#
0I
0A
0+
03
#9000500
0!
0Q
#9500500
1!
1Q
1_"
1r!
1<#
1t!
1T#
1a"
1g"
1V#
1z!
1>#
1B#
1("
1Z#
1s"
1D
1L
1A
1I
13
1+
16
1.
#10000000
b1011 "
b1011 #
b1011 $
b1011 &
b1010 "
b1010 #
b1010 $
b1010 &
0U
1T
0v"
1u"
0O
1N
0["
1B"
0j"
0a"
1Y"
0t!
1d
0W#
0T#
1Q#
0<#
1z"
1j
0]
0V#
0>#
0g"
0z!
0("
0s"
0B#
0Z#
0L
0I
0D
0A
0+
0.
03
06
#10000500
0!
0Q
#10500500
1!
1Q
1M"
1y!
1>#
1z!
1N#
1N"
1Z"
1R#
1("
1B#
1I
1A
1K
1C
1-
15
1+
13
#11000000
b1011 "
b1011 #
b1011 $
b1011 &
1U
1v"
1O
1["
1m"
0Y"
1T"
0d
1X#
0Q#
1P#
0z"
0j
1X
0N#
0>#
0N"
0z!
0("
0Z"
0B#
0R#
0K
0I
0C
0A
0+
0-
03
05
#11000500
0!
0Q
#11500500
1!
1Q
1\"
1C"
1o!
1;#
1q!
1K#
1E"
1S#
1^"
1g"
1V#
1N"
1N#
1z!
1>#
1B#
1("
1R#
1Z"
1Z#
1s"
1D
1L
1C
1K
1A
1I
13
1+
15
1-
16
1.
#12000000
b1111 "
b1111 #
b1111 $
b1111 &
b1101 "
b1101 #
b1101 $
b1101 &
b1100 "
b1100 #
b1100 $
b1100 &
0U
0T
1S
0v"
0u"
1w"
0O
0N
1P
0["
0B"
1)"
0m"
0^"
0T"
0E"
1@"
0q!
0X#
0S#
0P#
0K#
1I#
0;#
1g
0X
0>#
0N#
0V#
0z!
0N"
0g"
0s"
0Z"
0("
0Z#
0R#
0B#
0I
0K
0L
0A
0C
0D
0.
0-
0+
06
05
03
#12000500
0!
0Q
#12500500
1!
1Q
12"
1w!
1=#
1x!
1E#
13"
15"
1F#
1z!
1>#
1B#
1("
1J#
1A"
1B
1J
1A
1I
13
1+
14
1,
#13000000
b1101 "
b1101 #
b1101 $
b1101 &
1U
1v"
1O
1["
1j"
0@"
18"
03"
0x!
1W#
0I#
1G#
0E#
0=#
0g
1_
0>#
0F#
0z!
05"
0A"
0("
0J#
0B#
0I
0J
0A
0B
0,
0+
04
03
#13000500
0!
0Q
#13500500
1!
1Q
1`"
1."
1s!
1<#
1t!
1D#
1/"
1T#
1a"
1g"
1V#
15"
1F#
1z!
1>#
1B#
1("
1J#
1A"
1Z#
1s"
1D
1L
1B
1J
1A
1I
13
1+
14
1,
16
1.
#14000000
b1111 "
b1111 #
b1111 $
b1111 &
b1110 "
b1110 #
b1110 $
b1110 &
0U
1T
0v"
1u"
0O
1N
0["
1B"
0j"
0a"
1Y"
1@"
08"
0/"
0t!
1d
0W#
0T#
1Q#
1I#
0G#
0D#
0<#
1z"
1b
0_
0V#
0F#
0>#
0g"
05"
0z!
0("
0A"
0s"
0B#
0J#
0Z#
0L
0J
0I
0D
0B
0A
0+
0,
0.
03
04
06
#14000500
0!
0Q
#14500500
1!
1Q
1I"
10"
1u!
1>#
1z!
1F#
15"
1N#
1N"
1Z"
1R#
1A"
1J#
1("
1B#
1I
1A
1J
1B
1K
1C
1-
15
1,
14
1+
13
#15000000
b1111 "
b1111 #
b1111 $
b1111 &
1U
1v"
1O
1["
1m"
0Y"
1T"
0@"
1;"
0d
1X#
0Q#
1P#
0I#
1H#
0z"
0b
1Z
0N#
0F#
0>#
0N"
05"
0z!
0("
0A"
0Z"
0B#
0J#
0R#
0K
0J
0I
0C
0B
0A
0+
0,
0-
03
04
05
#15000500
0!
0Q
#15500500
1!
1Q
1]"
1D"
1+"
1p!
1;#
1q!
1C#
1,"
1K#
1E"
1S#
1^"
1g"
1V#
1N"
1N#
15"
1F#
1z!
1>#
1B#
1("
1J#
1A"
1R#
1Z"
1Z#
1s"
1D
1L
1C
1K
1B
1J
1A
1I
13
1+
14
1,
15
1-
16
1.
#16000000
b11111 "
b10111 "
b111 #
b111 $
b111 &
b10011 "
b11 #
b11 $
b11 &
b10001 "
b1 #
b1 $
b1 &
b10000 "
b0 #
b0 $
b0 &
0U
0T
0S
0W
0v"
0u"
0w"
0t"
0O
0N
0P
0M
0["
0B"
0)"
0n!
1U!
0m"
0^"
0T"
0E"
0;"
0,"
1x!
0q!
0X#
0S#
0P#
0K#
0H#
0C#
1=#
0;#
1}
0Z
0("
0B#
0I
0A
0F#
0N#
0V#
05"
0N"
0g"
0+
03
0J#
0R#
0Z#
0A"
0Z"
0s"
0D
0C
0B
0L
0K
0J
04
05
06
0,
0-
0.
#16000500
0!
0Q
#16500500
1!
1Q
1k!
19#
1l!
1m!
1:#
1H
1@
1*
12
#17000000
b10001 "
b1 #
b1 $
b1 &
1U
1v"
1O
1["
1j"
1a"
0x!
1t!
0l!
1W#
1T#
0=#
1<#
09#
0}
1m
1V#
1g"
0:#
1Z#
0m!
1s"
1D
0@
1L
0H
02
16
0*
1.
#17000500
0!
0Q
#17500500
1!
1Q
1b!
17#
1d!
1m!
1:#
1H
1@
1*
12
#18000000
b10011 "
b11 #
b11 $
b11 &
b10010 "
b10 #
b10 $
b10 &
0U
1T
0v"
1u"
0O
1N
0["
1B"
0j"
0a"
1Y"
0t!
0d!
1d
0W#
0T#
1Q#
0<#
07#
1z"
1{
0m
0V#
1N#
0g"
1N"
0:#
1R#
0Z#
0m!
1Z"
0s"
0D
1C
0@
0L
1K
0H
02
15
06
0*
1-
0.
#18000500
0!
0Q
#18500500
1!
1Q
1j!
19#
1l!
1m!
1:#
1H
1@
1*
12
#19000000
b10011 "
b11 #
b11 $
b11 &
1U
1v"
1O
1["
1m"
1^"
0Y"
1T"
1E"
1q!
0l!
0d
1X#
1S#
0Q#
1P#
1K#
1;#
09#
0z"
0{
1r
1V#
1g"
0:#
1Z#
0m!
1s"
1D
0@
1L
0H
02
16
0*
1.
#19000500
0!
0Q
#19500500
1!
1Q
1e!
18#
1g!
1m!
1:#
1H
1@
1*
12
#20000000
b10111 "
b111 #
b111 $
b111 &
b10101 "
b101 #
b101 $
b101 &
b10100 "
b100 #
b100 $
b100 &
0U
0T
1S
0v"
0u"
1w"
0O
0N
1P
0["
0B"
1)"
0m"
0^"
0T"
0E"
1@"
13"
1x!
0q!
0g!
0X#
0S#
0P#
0K#
1I#
1E#
1=#
0;#
08#
1w
0r
1F#
0N#
0V#
15"
0N"
0g"
0:#
1J#
0R#
0Z#
0m!
1A"
0Z"
0s"
0D
0C
1B
0@
0L
0K
1J
0H
02
14
05
06
0*
1,
0-
0.
#20000500
0!
0Q
#20500500
1!
1Q
1h!
19#
1l!
1m!
1:#
1H
1@
1*
12
#21000000
b10101 "
b101 #
b101 $
b101 &
1U
1v"
1O
1["
1j"
1a"
0@"
18"
03"
1/"
0x!
1t!
0l!
1W#
1T#
0I#
1G#
0E#
1D#
0=#
1<#
09#
0w
1o
1V#
1g"
0:#
1Z#
0m!
1s"
1D
0@
1L
0H
02
16
0*
1.
#21000500
0!
0Q
#21500500
1!
1Q
1c!
17#
1d!
1m!
1:#
1H
1@
1*
12
#22000000
b10111 "
b111 #
b111 $
b111 &
b10110 "
b110 #
b110 $
b110 &
0U
1T
0v"
1u"
0O
1N
0["
1B"
0j"
0a"
1Y"
1@"
08"
0/"
0t!
0d!
1d
0W#
0T#
1Q#
1I#
0G#
0D#
0<#
07#
1z"
1y
0o
0V#
1N#
0g"
1N"
0:#
1R#
0Z#
0m!
1Z"
0s"
0D
1C
0@
0L
1K
0H
02
15
06
0*
1-
0.
#22000500
0!
0Q
#22500500
1!
1Q
1i!
19#
1l!
1m!
1:#
1H
1@
1*
12
