Projects/Engineering Projects/Computer Architecture and Embedded Systems/Instruction Set Arch/DATAPATH03/SixteenWay8BitMUX/simulation/qsim/SixteenWay8BitMUX.msim.vcd
$comment
	File created using the following command:
		vcd file SixteenWay8BitMUX.msim.vcd -direction
$end
$date
	Fri Oct 14 07:11:58 2022
$end
$version
	ModelSim Version 2020.1
$end
$timescale
	1ps
$end

$scope module SixteenWay8BitMUX_vlg_vec_tst $end
$var reg 8 ! A [7:0] $end
$var reg 8 " B [7:0] $end
$var reg 8 # C [7:0] $end
$var reg 8 $ D [7:0] $end
$var reg 8 % E [7:0] $end
$var reg 8 & F [7:0] $end
$var reg 8 ' G [7:0] $end
$var reg 8 ( H [7:0] $end
$var reg 8 ) I [7:0] $end
$var reg 8 * J [7:0] $end
$var reg 8 + K [7:0] $end
$var reg 8 , L [7:0] $end
$var reg 8 - M [7:0] $end
$var reg 8 . N [7:0] $end
$var reg 8 / O [7:0] $end
$var reg 8 0 P [7:0] $end
$var reg 4 1 S [3:0] $end
$var wire 1 2 Q [7] $end
$var wire 1 3 Q [6] $end
$var wire 1 4 Q [5] $end
$var wire 1 5 Q [4] $end
$var wire 1 6 Q [3] $end
$var wire 1 7 Q [2] $end
$var wire 1 8 Q [1] $end
$var wire 1 9 Q [0] $end

$scope module i1 $end
$var wire 1 : gnd $end
$var wire 1 ; vcc $end
$var wire 1 < unknown $end
$var tri1 1 = devclrn $end
$var tri1 1 > devpor $end
$var tri1 1 ? devoe $end
$var wire 1 @ Q[7]~output_o $end
$var wire 1 A Q[6]~output_o $end
$var wire 1 B Q[5]~output_o $end
$var wire 1 C Q[4]~output_o $end
$var wire 1 D Q[3]~output_o $end
$var wire 1 E Q[2]~output_o $end
$var wire 1 F Q[1]~output_o $end
$var wire 1 G Q[0]~output_o $end
$var wire 1 H S[3]~input_o $end
$var wire 1 I S[1]~input_o $end
$var wire 1 J S[0]~input_o $end
$var wire 1 K S[2]~input_o $end
$var wire 1 L L[7]~input_o $end
$var wire 1 M P[7]~input_o $end
$var wire 1 N inst9|inst22~2_combout $end
$var wire 1 O J[7]~input_o $end
$var wire 1 P N[7]~input_o $end
$var wire 1 Q inst9|inst22~1_combout $end
$var wire 1 R O[7]~input_o $end
$var wire 1 S inst9|inst39~0_combout $end
$var wire 1 T I[7]~input_o $end
$var wire 1 U M[7]~input_o $end
$var wire 1 V inst9|inst22~0_combout $end
$var wire 1 W K[7]~input_o $end
$var wire 1 X inst9|inst22~10_combout $end
$var wire 1 Y B[7]~input_o $end
$var wire 1 Z F[7]~input_o $end
$var wire 1 [ inst9|inst22~3_combout $end
$var wire 1 \ D[7]~input_o $end
$var wire 1 ] H[7]~input_o $end
$var wire 1 ^ inst9|inst22~4_combout $end
$var wire 1 _ E[7]~input_o $end
$var wire 1 ` G[7]~input_o $end
$var wire 1 a C[7]~input_o $end
$var wire 1 b A[7]~input_o $end
$var wire 1 c inst9|inst22~6_combout $end
$var wire 1 d inst9|inst22~5_combout $end
$var wire 1 e L[6]~input_o $end
$var wire 1 f P[6]~input_o $end
$var wire 1 g inst8|inst22~2_combout $end
$var wire 1 h J[6]~input_o $end
$var wire 1 i N[6]~input_o $end
$var wire 1 j inst8|inst22~1_combout $end
$var wire 1 k O[6]~input_o $end
$var wire 1 l I[6]~input_o $end
$var wire 1 m M[6]~input_o $end
$var wire 1 n inst8|inst22~0_combout $end
$var wire 1 o K[6]~input_o $end
$var wire 1 p inst8|inst22~10_combout $end
$var wire 1 q B[6]~input_o $end
$var wire 1 r F[6]~input_o $end
$var wire 1 s inst8|inst22~3_combout $end
$var wire 1 t D[6]~input_o $end
$var wire 1 u H[6]~input_o $end
$var wire 1 v inst8|inst22~4_combout $end
$var wire 1 w E[6]~input_o $end
$var wire 1 x G[6]~input_o $end
$var wire 1 y C[6]~input_o $end
$var wire 1 z A[6]~input_o $end
$var wire 1 { inst8|inst22~6_combout $end
$var wire 1 | inst8|inst22~5_combout $end
$var wire 1 } L[5]~input_o $end
$var wire 1 ~ P[5]~input_o $end
$var wire 1 !! inst7|inst22~2_combout $end
$var wire 1 "! J[5]~input_o $end
$var wire 1 #! N[5]~input_o $end
$var wire 1 $! inst7|inst22~1_combout $end
$var wire 1 %! O[5]~input_o $end
$var wire 1 &! I[5]~input_o $end
$var wire 1 '! M[5]~input_o $end
$var wire 1 (! inst7|inst22~0_combout $end
$var wire 1 )! K[5]~input_o $end
$var wire 1 *! inst7|inst22~10_combout $end
$var wire 1 +! B[5]~input_o $end
$var wire 1 ,! F[5]~input_o $end
$var wire 1 -! inst7|inst22~3_combout $end
$var wire 1 .! D[5]~input_o $end
$var wire 1 /! H[5]~input_o $end
$var wire 1 0! inst7|inst22~4_combout $end
$var wire 1 1! E[5]~input_o $end
$var wire 1 2! G[5]~input_o $end
$var wire 1 3! C[5]~input_o $end
$var wire 1 4! A[5]~input_o $end
$var wire 1 5! inst7|inst22~6_combout $end
$var wire 1 6! inst7|inst22~5_combout $end
$var wire 1 7! L[4]~input_o $end
$var wire 1 8! P[4]~input_o $end
$var wire 1 9! inst6|inst22~2_combout $end
$var wire 1 :! J[4]~input_o $end
$var wire 1 ;! N[4]~input_o $end
$var wire 1 <! inst6|inst22~1_combout $end
$var wire 1 =! O[4]~input_o $end
$var wire 1 >! I[4]~input_o $end
$var wire 1 ?! M[4]~input_o $end
$var wire 1 @! inst6|inst22~0_combout $end
$var wire 1 A! K[4]~input_o $end
$var wire 1 B! inst6|inst22~10_combout $end
$var wire 1 C! B[4]~input_o $end
$var wire 1 D! F[4]~input_o $end
$var wire 1 E! inst6|inst22~3_combout $end
$var wire 1 F! D[4]~input_o $end
$var wire 1 G! H[4]~input_o $end
$var wire 1 H! inst6|inst22~4_combout $end
$var wire 1 I! E[4]~input_o $end
$var wire 1 J! G[4]~input_o $end
$var wire 1 K! C[4]~input_o $end
$var wire 1 L! A[4]~input_o $end
$var wire 1 M! inst6|inst22~6_combout $end
$var wire 1 N! inst6|inst22~5_combout $end
$var wire 1 O! L[3]~input_o $end
$var wire 1 P! P[3]~input_o $end
$var wire 1 Q! inst5|inst22~2_combout $end
$var wire 1 R! J[3]~input_o $end
$var wire 1 S! N[3]~input_o $end
$var wire 1 T! inst5|inst22~1_combout $end
$var wire 1 U! O[3]~input_o $end
$var wire 1 V! I[3]~input_o $end
$var wire 1 W! M[3]~input_o $end
$var wire 1 X! inst5|inst22~0_combout $end
$var wire 1 Y! K[3]~input_o $end
$var wire 1 Z! inst5|inst22~10_combout $end
$var wire 1 [! B[3]~input_o $end
$var wire 1 \! F[3]~input_o $end
$var wire 1 ]! inst5|inst22~3_combout $end
$var wire 1 ^! D[3]~input_o $end
$var wire 1 _! H[3]~input_o $end
$var wire 1 `! inst5|inst22~4_combout $end
$var wire 1 a! E[3]~input_o $end
$var wire 1 b! G[3]~input_o $end
$var wire 1 c! C[3]~input_o $end
$var wire 1 d! A[3]~input_o $end
$var wire 1 e! inst5|inst22~6_combout $end
$var wire 1 f! inst5|inst22~5_combout $end
$var wire 1 g! L[2]~input_o $end
$var wire 1 h! P[2]~input_o $end
$var wire 1 i! inst4|inst22~2_combout $end
$var wire 1 j! J[2]~input_o $end
$var wire 1 k! N[2]~input_o $end
$var wire 1 l! inst4|inst22~1_combout $end
$var wire 1 m! O[2]~input_o $end
$var wire 1 n! I[2]~input_o $end
$var wire 1 o! M[2]~input_o $end
$var wire 1 p! inst4|inst22~0_combout $end
$var wire 1 q! K[2]~input_o $end
$var wire 1 r! inst4|inst22~10_combout $end
$var wire 1 s! B[2]~input_o $end
$var wire 1 t! F[2]~input_o $end
$var wire 1 u! inst4|inst22~3_combout $end
$var wire 1 v! D[2]~input_o $end
$var wire 1 w! H[2]~input_o $end
$var wire 1 x! inst4|inst22~4_combout $end
$var wire 1 y! E[2]~input_o $end
$var wire 1 z! G[2]~input_o $end
$var wire 1 {! C[2]~input_o $end
$var wire 1 |! A[2]~input_o $end
$var wire 1 }! inst4|inst22~6_combout $end
$var wire 1 ~! inst4|inst22~5_combout $end
$var wire 1 !" L[1]~input_o $end
$var wire 1 "" P[1]~input_o $end
$var wire 1 #" inst3|inst22~2_combout $end
$var wire 1 $" J[1]~input_o $end
$var wire 1 %" N[1]~input_o $end
$var wire 1 &" inst3|inst22~1_combout $end
$var wire 1 '" O[1]~input_o $end
$var wire 1 (" I[1]~input_o $end
$var wire 1 )" M[1]~input_o $end
$var wire 1 *" inst3|inst22~0_combout $end
$var wire 1 +" K[1]~input_o $end
$var wire 1 ," inst3|inst22~10_combout $end
$var wire 1 -" B[1]~input_o $end
$var wire 1 ." F[1]~input_o $end
$var wire 1 /" inst3|inst22~3_combout $end
$var wire 1 0" D[1]~input_o $end
$var wire 1 1" H[1]~input_o $end
$var wire 1 2" inst3|inst22~4_combout $end
$var wire 1 3" E[1]~input_o $end
$var wire 1 4" G[1]~input_o $end
$var wire 1 5" C[1]~input_o $end
$var wire 1 6" A[1]~input_o $end
$var wire 1 7" inst3|inst22~6_combout $end
$var wire 1 8" inst3|inst22~5_combout $end
$var wire 1 9" L[0]~input_o $end
$var wire 1 :" P[0]~input_o $end
$var wire 1 ;" inst|inst22~2_combout $end
$var wire 1 <" J[0]~input_o $end
$var wire 1 =" N[0]~input_o $end
$var wire 1 >" inst|inst22~1_combout $end
$var wire 1 ?" O[0]~input_o $end
$var wire 1 @" I[0]~input_o $end
$var wire 1 A" M[0]~input_o $end
$var wire 1 B" inst|inst22~0_combout $end
$var wire 1 C" K[0]~input_o $end
$var wire 1 D" inst|inst22~10_combout $end
$var wire 1 E" B[0]~input_o $end
$var wire 1 F" F[0]~input_o $end
$var wire 1 G" inst|inst22~3_combout $end
$var wire 1 H" D[0]~input_o $end
$var wire 1 I" H[0]~input_o $end
$var wire 1 J" inst|inst22~4_combout $end
$var wire 1 K" E[0]~input_o $end
$var wire 1 L" G[0]~input_o $end
$var wire 1 M" C[0]~input_o $end
$var wire 1 N" A[0]~input_o $end
$var wire 1 O" inst|inst22~6_combout $end
$var wire 1 P" inst|inst22~5_combout $end
$upscope $end
$upscope $end
$enddefinitions $end
#0
$dumpvars
b1 !
b10 "
b11 #
b100 $
b101 %
b110 &
b111 '
b1000 (
b1001 )
b1010 *
b1011 +
b1100 ,
b1101 -
b1110 .
b11111 /
b10000000 0
b0 1
19
08
07
06
05
04
03
02
0:
1;
x<
1=
1>
1?
0@
0A
0B
0C
0D
0E
0F
1G
0H
0I
0J
0K
0L
1M
0N
0O
0P
0Q
0R
0S
0T
0U
0V
0W
0X
0Y
0Z
0[
0\
0]
0^
0_
0`
0a
0b
0c
0d
0e
0f
0g
0h
0i
0j
0k
0l
0m
0n
0o
0p
0q
0r
0s
0t
0u
0v
0w
0x
0y
0z
0{
0|
0}
0~
0!!
0"!
0#!
0$!
0%!
0&!
0'!
0(!
0)!
0*!
0+!
0,!
0-!
0.!
0/!
00!
01!
02!
03!
04!
05!
06!
07!
08!
09!
0:!
0;!
0<!
1=!
0>!
0?!
0@!
0A!
0B!
0C!
0D!
0E!
0F!
0G!
0H!
0I!
0J!
0K!
0L!
0M!
0N!
1O!
0P!
0Q!
1R!
1S!
0T!
1U!
1V!
1W!
1X!
1Y!
1Z!
0[!
0\!
0]!
0^!
1_!
0`!
0a!
0b!
0c!
0d!
0e!
0f!
1g!
0h!
0i!
0j!
1k!
0l!
1m!
0n!
1o!
0p!
0q!
0r!
0s!
1t!
0u!
1v!
0w!
0x!
1y!
1z!
0{!
0|!
0}!
0~!
0!"
0""
0#"
1$"
1%"
0&"
1'"
0("
0)"
0*"
1+"
0,"
1-"
1."
0/"
00"
01"
02"
03"
14"
15"
06"
07"
08"
09"
0:"
0;"
0<"
0="
0>"
1?"
1@"
1A"
1B"
1C"
1D"
0E"
0F"
0G"
0H"
0I"
0J"
1K"
1L"
1M"
1N"
1O"
1P"
$end
#1000000
b1 1
1J
0O"
0B"
1/"
1&"
0X!
1T!
1,"
0D"
18"
0P"
0G
1F
18
09
#2000000
b11 1
b10 1
0J
1I
1O"
17"
0/"
0&"
0T!
1S
1D"
1P"
1G
19
#3000000
b11 1
1J
0O"
07"
1x!
1i!
1Q!
0S
0D"
0,"
1r!
1~!
08"
0P"
0G
0F
1E
17
08
09
#4000000
b111 1
b101 1
b100 1
0J
0I
1K
1O"
1B"
1}!
0x!
1p!
0i!
1X!
0Q!
1D"
1P"
1G
19
#5000000
b101 1
1J
0O"
0B"
1/"
1&"
0}!
1u!
0p!
1l!
0X!
1T!
1,"
0D"
18"
0P"
0G
1F
18
09
#6000000
b111 1
b110 1
0J
1I
1O"
17"
0/"
0&"
1}!
0u!
0l!
0T!
1S
1D"
1B!
1P"
1G
19
#7000000
b111 1
1J
0O"
07"
0}!
1`!
0S
1N
1X
0D"
0,"
0r!
0Z!
0B!
1f!
0~!
08"
0P"
0G
0F
0E
1D
16
07
08
09
#8000000
b1111 1
b1011 1
b1001 1
b1000 1
0J
0I
0K
1H
1O"
1B"
0`!
1X!
0N
0f!
1d
1@
0D
0X
1Z!
1D"
06
12
1P"
1f!
0d
0@
1D
1G
19
16
02
#9000000
b1001 1
1J
0O"
0B"
1/"
1&"
0X!
1T!
1,"
0D"
0P"
18"
1F
0G
09
18
#10000000
b1011 1
b1010 1
0J
1I
1O"
17"
0/"
0&"
0T!
1S
1D"
1P"
1G
19
#11000000
b1011 1
1J
0O"
07"
1x!
1i!
1Q!
0S
0D"
0,"
1r!
1~!
08"
0P"
0G
0F
1E
17
08
09
#12000000
b1111 1
b1101 1
b1100 1
0J
0I
1K
1O"
1B"
1}!
0x!
1p!
0i!
1X!
0Q!
1D"
1P"
1G
19
#13000000
b1101 1
1J
0O"
0B"
1/"
1&"
0}!
1u!
0p!
1l!
0X!
1T!
1,"
0D"
0P"
18"
1F
0G
09
18
#14000000
b1111 1
b1110 1
0J
1I
1O"
17"
0/"
0&"
1}!
0u!
0l!
0T!
1S
1D"
1B!
1N!
1P"
1G
1C
15
19
#15000000
b1111 1
1J
0O"
07"
0}!
1`!
0S
1N
1X
0D"
0,"
0r!
0Z!
0B!
0N!
0f!
0~!
08"
0P"
1d
1@
0G
0F
0E
0D
0C
05
06
07
08
09
12
