Projects/Engineering Projects/Computer Architecture and Embedded Systems/DATAPATH03/MUX_bus/simulation/qsim/MUX_bus.msim.vcd
$comment
	File created using the following command:
		vcd file MUX_bus.msim.vcd -direction
$end
$date
	Fri Sep 23 14:30:16 2022
$end
$version
	ModelSim Version 10.5b
$end
$timescale
	1ps
$end

$scope module MUX_bus_vlg_vec_tst $end
$var reg 4 ! A [3:0] $end
$var reg 4 " B [3:0] $end
$var reg 1 # SEL $end
$var wire 1 $ C [3] $end
$var wire 1 % C [2] $end
$var wire 1 & C [1] $end
$var wire 1 ' C [0] $end

$scope module i1 $end
$var wire 1 ( gnd $end
$var wire 1 ) vcc $end
$var wire 1 * unknown $end
$var tri1 1 + devclrn $end
$var tri1 1 , devpor $end
$var tri1 1 - devoe $end
$var wire 1 . ~QUARTUS_CREATED_GND~I_combout $end
$var wire 1 / A[3]~input_o $end
$var wire 1 0 SEL~input_o $end
$var wire 1 1 B[3]~input_o $end
$var wire 1 2 inst4|inst2~0_combout $end
$var wire 1 3 A[2]~input_o $end
$var wire 1 4 B[2]~input_o $end
$var wire 1 5 inst5|inst2~0_combout $end
$var wire 1 6 B[1]~input_o $end
$var wire 1 7 A[1]~input_o $end
$var wire 1 8 inst1|inst2~0_combout $end
$var wire 1 9 A[0]~input_o $end
$var wire 1 : B[0]~input_o $end
$var wire 1 ; inst2|inst2~0_combout $end
$upscope $end
$upscope $end
$enddefinitions $end
#0
$dumpvars
b0 !
b0 "
0#
0'
0&
0%
0$
0(
1)
x*
1+
1,
1-
0.
0/
00
01
02
03
04
05
06
07
08
09
0:
0;
$end
#31250
b1 "
1:
#62500
b1 !
b11 "
1#
b10 "
0:
16
19
10
18
1&
#93750
b11 "
1:
1;
1'
#125000
b11 !
b111 "
b10 !
b101 "
0#
b100 "
0:
06
14
09
17
00
0;
0'
#156250
b101 "
1:
#187500
b11 !
b111 "
1#
b110 "
0:
16
19
10
15
1%
#218750
b111 "
1:
1;
1'
#250000
b111 !
b1111 "
b101 !
b1011 "
b100 !
b1001 "
0#
b1000 "
0:
06
04
11
09
07
13
00
0;
08
0&
0'
#281250
b1001 "
1:
#312500
b101 !
b1011 "
1#
b1010 "
0:
16
19
10
18
05
12
1$
0%
1&
#343750
b1011 "
1:
1;
1'
#375000
b111 !
b1111 "
b110 !
b1101 "
0#
b1100 "
0:
06
14
09
17
00
0;
15
02
0$
1%
0'
#406250
b1101 "
1:
#437500
b111 !
b1111 "
1#
b1110 "
0:
16
19
10
12
1$
#468750
b1111 "
1:
1;
1'
#500000
b1111 !
b1011 !
b111 "
b1001 !
b11 "
b1000 !
b1 "
0#
b0 "
0:
06
04
01
09
07
03
1/
00
0;
08
05
0%
0&
0'
#531250
b1 "
1:
#562500
b1001 !
b11 "
1#
b10 "
0:
16
19
10
18
02
0$
1&
#593750
b11 "
1:
1;
1'
#625000
b1011 !
b111 "
b1010 !
b101 "
0#
b100 "
0:
06
14
09
17
00
0;
12
1$
0'
#656250
b101 "
1:
#687500
b1011 !
b111 "
1#
b110 "
0:
16
19
10
15
02
0$
1%
#718750
b111 "
1:
1;
1'
#750000
b1111 !
b1111 "
b1101 !
b1011 "
b1100 !
b1001 "
0#
b1000 "
0:
06
04
11
09
07
13
00
0;
08
12
1$
0&
0'
#781250
b1001 "
1:
#812500
b1101 !
b1011 "
1#
b1010 "
0:
16
19
10
18
05
0%
1&
#843750
b1011 "
1:
1;
1'
#875000
b1111 !
b1111 "
b1110 !
b1101 "
0#
b1100 "
0:
06
14
09
17
00
0;
15
1%
0'
#906250
b1101 "
1:
#937500
b1111 !
b1111 "
1#
b1110 "
0:
16
19
10
#968750
b1111 "
1:
1;
1'
