Projects/Engineering Projects/Computer Architecture and Embedded Systems/Instruction Set Arch/DATAPATH03/DEMUX8BIT2WAY/simulation/qsim/DEMUX8BIT2WAY.msim.vcd
$comment
	File created using the following command:
		vcd file DEMUX8BIT2WAY.msim.vcd -direction
$end
$date
	Sat Oct 08 08:42:35 2022
$end
$version
	ModelSim Version 10.5b
$end
$timescale
	1ps
$end

$scope module DEMUX8BIT2WAY_vlg_vec_tst $end
$var reg 1 ! pin_name1 $end
$var reg 8 " WD [7:0] $end
$var wire 1 # A [7] $end
$var wire 1 $ A [6] $end
$var wire 1 % A [5] $end
$var wire 1 & A [4] $end
$var wire 1 ' A [3] $end
$var wire 1 ( A [2] $end
$var wire 1 ) A [1] $end
$var wire 1 * A [0] $end
$var wire 1 + B [7] $end
$var wire 1 , B [6] $end
$var wire 1 - B [5] $end
$var wire 1 . B [4] $end
$var wire 1 / B [3] $end
$var wire 1 0 B [2] $end
$var wire 1 1 B [1] $end
$var wire 1 2 B [0] $end

$scope module i1 $end
$var wire 1 3 gnd $end
$var wire 1 4 vcc $end
$var wire 1 5 unknown $end
$var tri1 1 6 devclrn $end
$var tri1 1 7 devpor $end
$var tri1 1 8 devoe $end
$var wire 1 9 ~QUARTUS_CREATED_GND~I_combout $end
$var wire 1 : pin_name1~input_o $end
$var wire 1 ; WD[7]~input_o $end
$var wire 1 < inst|inst3|inst1~combout $end
$var wire 1 = WD[6]~input_o $end
$var wire 1 > inst|inst2|inst1~combout $end
$var wire 1 ? WD[5]~input_o $end
$var wire 1 @ inst|inst1|inst1~combout $end
$var wire 1 A WD[4]~input_o $end
$var wire 1 B inst|inst|inst1~combout $end
$var wire 1 C WD[3]~input_o $end
$var wire 1 D inst1|inst3|inst1~combout $end
$var wire 1 E WD[2]~input_o $end
$var wire 1 F inst1|inst2|inst1~combout $end
$var wire 1 G WD[1]~input_o $end
$var wire 1 H inst1|inst1|inst1~combout $end
$var wire 1 I WD[0]~input_o $end
$var wire 1 J inst1|inst|inst1~combout $end
$var wire 1 K inst|inst3|inst~combout $end
$var wire 1 L inst|inst2|inst~combout $end
$var wire 1 M inst|inst1|inst~combout $end
$var wire 1 N inst|inst|inst~combout $end
$var wire 1 O inst1|inst3|inst~combout $end
$var wire 1 P inst1|inst2|inst~combout $end
$var wire 1 Q inst1|inst1|inst~combout $end
$var wire 1 R inst1|inst|inst~combout $end
$upscope $end
$upscope $end
$enddefinitions $end
#0
$dumpvars
0!
b0 "
0*
0)
0(
0'
0&
0%
0$
0#
02
01
00
0/
0.
0-
0,
0+
03
14
x5
16
17
18
09
0:
0;
0<
0=
0>
0?
0@
0A
0B
0C
0D
0E
0F
0G
0H
0I
0J
0K
0L
0M
0N
0O
0P
0Q
0R
$end
#31250
b1 "
1I
1J
1*
#62500
b11 "
b10 "
0I
1G
1H
0J
0*
1)
#93750
b11 "
1I
1J
1*
#125000
b111 "
b101 "
b100 "
0I
0G
1E
1F
0H
0J
0*
0)
1(
#156250
b101 "
1I
1J
1*
#187500
b111 "
b110 "
0I
1G
1H
0J
0*
1)
#218750
b111 "
1I
1J
1*
#250000
b1111 "
b1011 "
b1001 "
b1000 "
0I
0G
0E
1C
1D
0F
0H
0J
0*
0)
0(
1'
#281250
b1001 "
1I
1J
1*
#312500
b1011 "
b1010 "
0I
1G
1H
0J
0*
1)
#343750
b1011 "
1I
1J
1*
#375000
b1111 "
b1101 "
b1100 "
0I
0G
1E
1F
0H
0J
0*
0)
1(
#406250
b1101 "
1I
1J
1*
#437500
b1111 "
b1110 "
0I
1G
1H
0J
0*
1)
#468750
b1111 "
1I
1J
1*
#500000
b11111 "
b10111 "
b10011 "
b10001 "
b10000 "
0I
0G
0E
0C
1A
1B
0D
0F
0H
0J
0*
0)
0(
0'
1&
#531250
b10001 "
1I
1J
1*
#562500
b10011 "
b10010 "
0I
1G
1H
0J
0*
1)
#593750
b10011 "
1I
1J
1*
#625000
b10111 "
b10101 "
b10100 "
0I
0G
1E
1F
0H
0J
0*
0)
1(
#656250
b10101 "
1I
1J
1*
#687500
b10111 "
b10110 "
0I
1G
1H
0J
0*
1)
#718750
b10111 "
1I
1J
1*
#750000
b11111 "
b11011 "
b11001 "
b11000 "
0I
0G
0E
1C
1D
0F
0H
0J
0*
0)
0(
1'
#781250
b11001 "
1I
1J
1*
#812500
b11011 "
b11010 "
0I
1G
1H
0J
0*
1)
#843750
b11011 "
1I
1J
1*
#875000
b11111 "
b11101 "
b11100 "
0I
0G
1E
1F
0H
0J
0*
0)
1(
#906250
b11101 "
1I
1J
1*
#937500
b11111 "
b11110 "
0I
1G
1H
0J
0*
1)
#968750
b11111 "
1I
1J
1*
