Projects/Engineering Projects/Computer Architecture and Embedded Systems/Instruction Set Arch/DATAPATH03/MUX16/simulation/qsim/MUX16.msim.vcd
$comment
	File created using the following command:
		vcd file MUX16.msim.vcd -direction
$end
$date
	Fri Oct 07 22:53:49 2022
$end
$version
	ModelSim Version 10.5b
$end
$timescale
	1ps
$end

$scope module MUX16_vlg_vec_tst $end
$var reg 8 ! A0000 [7:0] $end
$var reg 8 " B0001 [7:0] $end
$var reg 8 # C0010 [7:0] $end
$var reg 8 $ D0011 [7:0] $end
$var reg 8 % E0100 [7:0] $end
$var reg 8 & F0101 [7:0] $end
$var reg 8 ' G0110 [7:0] $end
$var reg 8 ( H0111 [7:0] $end
$var reg 8 ) I1000 [7:0] $end
$var reg 8 * J1100 [7:0] $end
$var reg 8 + K1010 [7:0] $end
$var reg 8 , L1011 [7:0] $end
$var reg 8 - M1001 [7:0] $end
$var reg 8 . N1101 [7:0] $end
$var reg 8 / O1110 [7:0] $end
$var reg 8 0 P1111 [7:0] $end
$var reg 4 1 SEL [3:0] $end
$var wire 1 2 RD [7] $end
$var wire 1 3 RD [6] $end
$var wire 1 4 RD [5] $end
$var wire 1 5 RD [4] $end
$var wire 1 6 RD [3] $end
$var wire 1 7 RD [2] $end
$var wire 1 8 RD [1] $end
$var wire 1 9 RD [0] $end

$scope module i1 $end
$var wire 1 : gnd $end
$var wire 1 ; vcc $end
$var wire 1 < unknown $end
$var tri1 1 = devclrn $end
$var tri1 1 > devpor $end
$var tri1 1 ? devoe $end
$var wire 1 @ ~QUARTUS_CREATED_GND~I_combout $end
$var wire 1 A C0010[7]~input_o $end
$var wire 1 B G0110[7]~input_o $end
$var wire 1 C A0000[7]~input_o $end
$var wire 1 D E0100[7]~input_o $end
$var wire 1 E SEL[1]~input_o $end
$var wire 1 F SEL[2]~input_o $end
$var wire 1 G inst11|inst|inst3|inst2~0_combout $end
$var wire 1 H I1000[7]~input_o $end
$var wire 1 I K1010[7]~input_o $end
$var wire 1 J O1110[7]~input_o $end
$var wire 1 K J1100[7]~input_o $end
$var wire 1 L inst11|inst|inst3|inst2~2_combout $end
$var wire 1 M N1101[7]~input_o $end
$var wire 1 N L1011[7]~input_o $end
$var wire 1 O M1001[7]~input_o $end
$var wire 1 P P1111[7]~input_o $end
$var wire 1 Q inst11|inst|inst3|inst2~3_combout $end
$var wire 1 R SEL[3]~input_o $end
$var wire 1 S F0101[7]~input_o $end
$var wire 1 T H0111[7]~input_o $end
$var wire 1 U D0011[7]~input_o $end
$var wire 1 V B0001[7]~input_o $end
$var wire 1 W inst11|inst|inst3|inst2~1_combout $end
$var wire 1 X SEL[0]~input_o $end
$var wire 1 Y inst11|inst|inst3|inst2~4_combout $end
$var wire 1 Z F0101[6]~input_o $end
$var wire 1 [ N1101[6]~input_o $end
$var wire 1 \ E0100[6]~input_o $end
$var wire 1 ] J1100[6]~input_o $end
$var wire 1 ^ inst11|inst|inst2|inst2~1_combout $end
$var wire 1 _ G0110[6]~input_o $end
$var wire 1 ` O1110[6]~input_o $end
$var wire 1 a P1111[6]~input_o $end
$var wire 1 b H0111[6]~input_o $end
$var wire 1 c inst11|inst|inst2|inst2~3_combout $end
$var wire 1 d A0000[6]~input_o $end
$var wire 1 e I1000[6]~input_o $end
$var wire 1 f M1001[6]~input_o $end
$var wire 1 g B0001[6]~input_o $end
$var wire 1 h inst11|inst|inst2|inst2~0_combout $end
$var wire 1 i C0010[6]~input_o $end
$var wire 1 j K1010[6]~input_o $end
$var wire 1 k D0011[6]~input_o $end
$var wire 1 l L1011[6]~input_o $end
$var wire 1 m inst11|inst|inst2|inst2~2_combout $end
$var wire 1 n inst11|inst|inst2|inst2~4_combout $end
$var wire 1 o E0100[5]~input_o $end
$var wire 1 p A0000[5]~input_o $end
$var wire 1 q C0010[5]~input_o $end
$var wire 1 r G0110[5]~input_o $end
$var wire 1 s inst11|inst|inst1|inst2~0_combout $end
$var wire 1 t M1001[5]~input_o $end
$var wire 1 u L1011[5]~input_o $end
$var wire 1 v P1111[5]~input_o $end
$var wire 1 w N1101[5]~input_o $end
$var wire 1 x inst11|inst|inst1|inst2~3_combout $end
$var wire 1 y H0111[5]~input_o $end
$var wire 1 z B0001[5]~input_o $end
$var wire 1 { F0101[5]~input_o $end
$var wire 1 | D0011[5]~input_o $end
$var wire 1 } inst11|inst|inst1|inst2~1_combout $end
$var wire 1 ~ J1100[5]~input_o $end
$var wire 1 !! O1110[5]~input_o $end
$var wire 1 "! I1000[5]~input_o $end
$var wire 1 #! K1010[5]~input_o $end
$var wire 1 $! inst11|inst|inst1|inst2~2_combout $end
$var wire 1 %! inst11|inst|inst1|inst2~4_combout $end
$var wire 1 &! F0101[4]~input_o $end
$var wire 1 '! N1101[4]~input_o $end
$var wire 1 (! E0100[4]~input_o $end
$var wire 1 )! J1100[4]~input_o $end
$var wire 1 *! inst11|inst|inst|inst2~1_combout $end
$var wire 1 +! P1111[4]~input_o $end
$var wire 1 ,! G0110[4]~input_o $end
$var wire 1 -! O1110[4]~input_o $end
$var wire 1 .! H0111[4]~input_o $end
$var wire 1 /! inst11|inst|inst|inst2~3_combout $end
$var wire 1 0! K1010[4]~input_o $end
$var wire 1 1! D0011[4]~input_o $end
$var wire 1 2! C0010[4]~input_o $end
$var wire 1 3! L1011[4]~input_o $end
$var wire 1 4! inst11|inst|inst|inst2~2_combout $end
$var wire 1 5! A0000[4]~input_o $end
$var wire 1 6! M1001[4]~input_o $end
$var wire 1 7! I1000[4]~input_o $end
$var wire 1 8! B0001[4]~input_o $end
$var wire 1 9! inst11|inst|inst|inst2~0_combout $end
$var wire 1 :! inst11|inst|inst|inst2~4_combout $end
$var wire 1 ;! J1100[3]~input_o $end
$var wire 1 <! O1110[3]~input_o $end
$var wire 1 =! K1010[3]~input_o $end
$var wire 1 >! I1000[3]~input_o $end
$var wire 1 ?! inst11|inst1|inst3|inst2~2_combout $end
$var wire 1 @! M1001[3]~input_o $end
$var wire 1 A! P1111[3]~input_o $end
$var wire 1 B! L1011[3]~input_o $end
$var wire 1 C! N1101[3]~input_o $end
$var wire 1 D! inst11|inst1|inst3|inst2~3_combout $end
$var wire 1 E! A0000[3]~input_o $end
$var wire 1 F! E0100[3]~input_o $end
$var wire 1 G! G0110[3]~input_o $end
$var wire 1 H! C0010[3]~input_o $end
$var wire 1 I! inst11|inst1|inst3|inst2~0_combout $end
$var wire 1 J! H0111[3]~input_o $end
$var wire 1 K! D0011[3]~input_o $end
$var wire 1 L! B0001[3]~input_o $end
$var wire 1 M! F0101[3]~input_o $end
$var wire 1 N! inst11|inst1|inst3|inst2~1_combout $end
$var wire 1 O! inst11|inst1|inst3|inst2~4_combout $end
$var wire 1 P! J1100[2]~input_o $end
$var wire 1 Q! N1101[2]~input_o $end
$var wire 1 R! F0101[2]~input_o $end
$var wire 1 S! E0100[2]~input_o $end
$var wire 1 T! inst11|inst1|inst2|inst2~1_combout $end
$var wire 1 U! H0111[2]~input_o $end
$var wire 1 V! O1110[2]~input_o $end
$var wire 1 W! G0110[2]~input_o $end
$var wire 1 X! P1111[2]~input_o $end
$var wire 1 Y! inst11|inst1|inst2|inst2~3_combout $end
$var wire 1 Z! D0011[2]~input_o $end
$var wire 1 [! C0010[2]~input_o $end
$var wire 1 \! K1010[2]~input_o $end
$var wire 1 ]! L1011[2]~input_o $end
$var wire 1 ^! inst11|inst1|inst2|inst2~2_combout $end
$var wire 1 _! A0000[2]~input_o $end
$var wire 1 `! M1001[2]~input_o $end
$var wire 1 a! I1000[2]~input_o $end
$var wire 1 b! B0001[2]~input_o $end
$var wire 1 c! inst11|inst1|inst2|inst2~0_combout $end
$var wire 1 d! inst11|inst1|inst2|inst2~4_combout $end
$var wire 1 e! H0111[1]~input_o $end
$var wire 1 f! B0001[1]~input_o $end
$var wire 1 g! D0011[1]~input_o $end
$var wire 1 h! F0101[1]~input_o $end
$var wire 1 i! inst11|inst1|inst1|inst2~1_combout $end
$var wire 1 j! P1111[1]~input_o $end
$var wire 1 k! L1011[1]~input_o $end
$var wire 1 l! M1001[1]~input_o $end
$var wire 1 m! N1101[1]~input_o $end
$var wire 1 n! inst11|inst1|inst1|inst2~3_combout $end
$var wire 1 o! K1010[1]~input_o $end
$var wire 1 p! O1110[1]~input_o $end
$var wire 1 q! I1000[1]~input_o $end
$var wire 1 r! J1100[1]~input_o $end
$var wire 1 s! inst11|inst1|inst1|inst2~2_combout $end
$var wire 1 t! C0010[1]~input_o $end
$var wire 1 u! G0110[1]~input_o $end
$var wire 1 v! A0000[1]~input_o $end
$var wire 1 w! E0100[1]~input_o $end
$var wire 1 x! inst11|inst1|inst1|inst2~0_combout $end
$var wire 1 y! inst11|inst1|inst1|inst2~4_combout $end
$var wire 1 z! G0110[0]~input_o $end
$var wire 1 {! O1110[0]~input_o $end
$var wire 1 |! P1111[0]~input_o $end
$var wire 1 }! H0111[0]~input_o $end
$var wire 1 ~! inst11|inst1|inst|inst2~3_combout $end
$var wire 1 !" D0011[0]~input_o $end
$var wire 1 "" L1011[0]~input_o $end
$var wire 1 #" K1010[0]~input_o $end
$var wire 1 $" C0010[0]~input_o $end
$var wire 1 %" inst11|inst1|inst|inst2~2_combout $end
$var wire 1 &" J1100[0]~input_o $end
$var wire 1 '" F0101[0]~input_o $end
$var wire 1 (" N1101[0]~input_o $end
$var wire 1 )" E0100[0]~input_o $end
$var wire 1 *" inst11|inst1|inst|inst2~1_combout $end
$var wire 1 +" M1001[0]~input_o $end
$var wire 1 ," I1000[0]~input_o $end
$var wire 1 -" A0000[0]~input_o $end
$var wire 1 ." B0001[0]~input_o $end
$var wire 1 /" inst11|inst1|inst|inst2~0_combout $end
$var wire 1 0" inst11|inst1|inst|inst2~4_combout $end
$upscope $end
$upscope $end
$enddefinitions $end
#0
$dumpvars
b0 !
b100 "
b1000 #
b10000 $
b100000 %
b1000000 &
b10000000 '
b10000001 (
b1 )
b10 *
b11 +
b100 ,
b101 -
b110 .
b111 /
b1000 0
b0 1
09
08
07
06
05
04
03
02
0:
1;
x<
1=
1>
1?
0@
0A
1B
0C
0D
0E
0F
0G
0H
0I
0J
0K
0L
0M
0N
0O
0P
0Q
0R
0S
1T
0U
0V
0W
0X
0Y
1Z
0[
0\
0]
0^
0_
0`
0a
0b
0c
0d
0e
0f
0g
0h
0i
0j
0k
0l
0m
0n
1o
0p
0q
0r
0s
0t
0u
0v
0w
0x
0y
0z
0{
0|
0}
0~
0!!
0"!
0#!
0$!
0%!
0&!
0'!
0(!
0)!
0*!
0+!
0,!
0-!
0.!
0/!
00!
11!
02!
03!
04!
05!
06!
07!
08!
09!
0:!
0;!
0<!
0=!
0>!
0?!
0@!
1A!
0B!
0C!
0D!
0E!
0F!
0G!
1H!
0I!
0J!
0K!
0L!
0M!
0N!
0O!
0P!
1Q!
0R!
0S!
0T!
0U!
1V!
0W!
0X!
0Y!
0Z!
0[!
0\!
1]!
0^!
0_!
1`!
0a!
1b!
0c!
0d!
0e!
0f!
0g!
0h!
0i!
0j!
0k!
0l!
1m!
0n!
1o!
1p!
0q!
1r!
0s!
0t!
0u!
0v!
0w!
0x!
0y!
0z!
1{!
0|!
1}!
0~!
0!"
0""
1#"
0$"
0%"
0&"
0'"
0("
0)"
0*"
1+"
1,"
0-"
0."
0/"
00"
$end
#62500
b1 !
b101 "
b1001 #
b10001 $
b100001 %
b1000001 &
b10000001 '
b10000011 (
b10000010 (
b11 )
b10 )
b11 *
b111 +
b101 +
b100 +
b101 ,
b111 -
b110 -
b111 .
b1111 /
b1011 /
b1001 /
b1000 /
b1001 0
b1 1
1X
1|!
0{!
0p!
0V!
1<!
1("
0+"
1l!
1""
0#"
0o!
1\!
1&"
0,"
1q!
0}!
1e!
1z!
1'"
1)"
1!"
1$"
1."
1-"
1/"
1%"
1*"
1s!
1n!
1c!
14!
1^
1d!
10"
19
17
#125000
b11 !
b111 "
b1011 #
b10011 $
b100011 %
b1000011 &
b10000011 '
b111 *
b101 *
b111 ,
b1111 .
b1011 .
b1001 .
b1011 0
b11 1
b10 !
b110 "
b1010 #
b10010 $
b100010 %
b1000010 &
b10000010 '
b10000011 (
b11 )
b100 *
b101 +
b110 ,
b111 -
b1000 .
b1001 /
b1010 0
b10 1
1{!
1+"
1#"
1,"
1}!
0X
1E
0|!
1j!
0("
0m!
0Q!
1C!
0""
1k!
0&"
0r!
1P!
0z!
1u!
0'"
1h!
0)"
1w!
0!"
1g!
0$"
1t!
0."
1f!
0-"
1v!
1x!
0/"
1i!
0%"
0*"
0s!
1I!
0c!
04!
0^
0d!
1:!
15
07
0:!
1O!
1y!
00"
09
18
16
05
#187500
b10000111 (
b111 )
b1111 -
b1011 -
b10000101 (
b101 )
b111 +
b1001 -
b1011 /
b11 !
b111 "
b1011 #
b10011 $
b100011 %
b1000011 &
b10000011 '
b10000100 (
b100 )
b101 *
b110 +
b111 ,
b1000 -
b1001 .
b1010 /
b1011 0
b11 1
1X
1|!
1("
1""
1&"
1z!
1'"
1)"
1!"
1$"
1."
1-"
0{!
1p!
0#"
1o!
0+"
0l!
0`!
1@!
0,"
0q!
1a!
0}!
0e!
1U!
1Y!
1c!
1s!
1/"
1%"
1*"
14!
1^
0O!
06
1:!
10"
19
15
#250000
b111 !
b1111 "
b1011 "
b1111 #
b10111 $
b100111 %
b1000111 &
b10000111 '
b1111 ,
b1011 ,
b1111 0
b111 1
b101 !
b1001 "
b1101 #
b10101 $
b100101 %
b1000101 &
b10000101 '
b111 *
b1001 ,
b1011 .
b1101 0
b101 1
b100 !
b1000 "
b1100 #
b10100 $
b100100 %
b1000100 &
b10000100 '
b10000101 (
b101 )
b110 *
b111 +
b1000 ,
b1001 -
b1010 .
b1011 /
b1100 0
b100 1
1{!
1+"
1#"
1,"
1}!
0("
1m!
0&"
1r!
0X
0E
1F
0|!
0j!
1X!
0""
0k!
0]!
1B!
0z!
0u!
1W!
0'"
0h!
1R!
0)"
0w!
1S!
0!"
0g!
1Z!
0$"
0t!
1[!
0."
0f!
0b!
1L!
0-"
0v!
1_!
0x!
0/"
0i!
1^!
0%"
1T!
0*"
1D!
0I!
1s
04!
0^
0:!
1n
1O!
16
13
05
0n
1%!
0O!
00"
1d!
0y!
08
17
09
06
14
03
#312500
b1111 +
b1011 +
b1111 /
b10000111 (
b111 )
b1001 +
b1011 -
b1101 /
b101 !
b1001 "
b1101 #
b10101 $
b100101 %
b1000101 &
b10000101 '
b10000110 (
b110 )
b111 *
b1000 +
b1001 ,
b1010 -
b1011 .
b1100 /
b1101 0
b101 1
1X
1|!
1("
1""
1&"
1z!
1'"
1)"
1!"
1$"
1."
1-"
0+"
1l!
0,"
1q!
0}!
1e!
0{!
0p!
1V!
0#"
0o!
0\!
1=!
1%"
1/"
1*"
0c!
14!
1^
0%!
04
1n
10"
19
13
#375000
b1111 *
b1011 *
b1111 .
b111 !
b1011 "
b1111 #
b10111 $
b100111 %
b1000111 &
b10000111 '
b1001 *
b1011 ,
b1101 .
b1111 0
b111 1
b110 !
b1010 "
b1110 #
b10110 $
b100110 %
b1000110 &
b10000110 '
b10000111 (
b111 )
b1000 *
b1001 +
b1010 ,
b1011 -
b1100 .
b1101 /
b1110 0
b110 1
1{!
1+"
1#"
1,"
1}!
0X
1E
0|!
1j!
0""
1k!
0z!
1u!
0'"
1h!
0)"
1w!
0!"
1g!
0$"
1t!
0."
1f!
0-"
1v!
0("
0m!
1Q!
0&"
0r!
0P!
1;!
1?!
0s!
0*"
1x!
0/"
1i!
0%"
0s
1W
1G
1c!
04!
0^
00"
0n
1%!
14
03
09
1Y
0%!
1y!
18
04
12
#437500
b10001111 (
b1111 )
b10001011 (
b1011 )
b1111 -
b10001001 (
b1001 )
b1011 +
b1101 -
b1111 /
b111 !
b1011 "
b1111 #
b10111 $
b100111 %
b1000111 &
b10000111 '
b10001000 (
b1000 )
b1001 *
b1010 +
b1011 ,
b1100 -
b1101 .
b1110 /
b1111 0
b111 1
1X
1|!
1("
1""
1&"
1z!
1'"
1)"
1!"
1$"
1."
1-"
0{!
1p!
0#"
1o!
0+"
0l!
1`!
0,"
0q!
0a!
1>!
0}!
0e!
0U!
1J!
1N!
0Y!
0i!
0c!
1s!
1/"
1%"
1*"
14!
1^
0y!
0d!
1O!
16
07
08
#500000
b1111 !
b11111 #
b10111 #
b11111 $
b101111 %
b1001111 &
b10001111 '
b11111 0
b10111 0
b1111 1
b1011 !
b1111 "
b10011 #
b11011 $
b101011 %
b1001011 &
b10001011 '
b1111 ,
b10011 0
b1011 1
b1001 !
b1101 "
b10001 #
b11001 $
b101001 %
b1001001 &
b10001001 '
b1011 *
b1101 ,
b1111 .
b10001 0
b1001 1
b1000 !
b1100 "
b10000 #
b11000 $
b101000 %
b1001000 &
b10001000 '
b10001001 (
b1001 )
b1010 *
b1011 +
b1100 ,
b1101 -
b1110 .
b1111 /
b10000 0
b1000 1
1{!
1+"
1#"
1,"
1}!
0("
1m!
0&"
1r!
0""
0k!
1]!
0."
0f!
1b!
0X
0E
0F
1R
0|!
0j!
0X!
0A!
1+!
0z!
0u!
0W!
1G!
0'"
0h!
0R!
1M!
0)"
0w!
0S!
1F!
0!"
0g!
0Z!
1K!
0$"
0t!
0[!
0H!
12!
0-"
0v!
0_!
1E!
1I!
0x!
04!
0^!
0T!
0*"
1Y!
1~!
0n!
0^
0s!
0W
0G
1y!
0Y
10"
19
02
18
0y!
08
#562500
b11111 /
b10111 /
b1111 +
b10011 /
b10001011 (
b1011 )
b1101 +
b1111 -
b10001 /
b1001 !
b1101 "
b10001 #
b11001 $
b101001 %
b1001001 &
b10001001 '
b10001010 (
b1010 )
b1011 *
b1100 +
b1101 ,
b1110 -
b1111 .
b10000 /
b10001 0
b1001 1
1X
1|!
1("
1""
1&"
1z!
1'"
1)"
1!"
1$"
1."
1-"
0+"
1l!
0,"
1q!
0}!
1e!
0#"
0o!
1\!
0{!
0p!
0V!
0<!
1-!
1/!
0Y!
1s!
1^!
0/"
1n!
1*"
1c!
1T!
1d!
00"
1y!
18
09
17
#625000
b11111 .
b10111 .
b1111 *
b10011 .
b1011 !
b1111 "
b10011 #
b11011 $
b101011 %
b1001011 &
b10001011 '
b1101 *
b1111 ,
b10001 .
b10011 0
b1011 1
b1010 !
b1110 "
b10010 #
b11010 $
b101010 %
b1001010 &
b10001010 '
b10001011 (
b1011 )
b1100 *
b1101 +
b1110 ,
b1111 -
b10000 .
b10001 /
b10010 0
b1010 1
1{!
1+"
1#"
1,"
1}!
0X
1E
0|!
1j!
0""
1k!
0z!
1u!
0'"
1h!
0)"
1w!
0!"
1g!
0$"
1t!
0."
1f!
0-"
1v!
0&"
0r!
1P!
0("
0m!
0Q!
0C!
1'!
0*"
0s!
1x!
1/"
1i!
0I!
0c!
10"
19
0y!
08
#687500
b11111 -
b10111 -
b10001111 (
b1111 )
b10011 -
b10001101 (
b1101 )
b1111 +
b10001 -
b10011 /
b1011 !
b1111 "
b10011 #
b11011 $
b101011 %
b1001011 &
b10001011 '
b10001100 (
b1100 )
b1101 *
b1110 +
b1111 ,
b10000 -
b10001 .
b10010 /
b10011 0
b1011 1
1X
1|!
1("
1""
1&"
1z!
1'"
1)"
1!"
1$"
1."
1-"
0{!
1p!
0#"
1o!
0,"
0q!
1a!
0}!
0e!
1U!
0+"
0l!
0`!
0@!
16!
19!
0/"
1s!
1*"
0T!
1*!
1y!
18
#750000
b11111 "
b11111 ,
b10111 "
b10111 ,
b1111 !
b10011 "
b10111 #
b11111 $
b101111 %
b1001111 &
b10001111 '
b10011 ,
b10111 0
b1111 1
b1101 !
b10001 "
b10101 #
b11101 $
b101101 %
b1001101 &
b10001101 '
b1111 *
b10001 ,
b10011 .
b10101 0
b1101 1
b1100 !
b10000 "
b10100 #
b11100 $
b101100 %
b1001100 &
b10001100 '
b10001101 (
b1101 )
b1110 *
b1111 +
b10000 ,
b10001 -
b10010 .
b10011 /
b10100 0
b1100 1
1{!
1+"
1#"
1,"
1}!
0("
1m!
0&"
1r!
0X
0E
1F
0|!
0j!
1X!
0z!
0u!
1W!
0'"
0h!
1R!
0)"
0w!
1S!
0!"
0g!
1Z!
0$"
0t!
1[!
0-"
0v!
1_!
0""
0k!
0]!
0B!
13!
0."
0f!
0b!
0L!
18!
09!
1c!
0i!
1/"
0D!
0x!
1T!
0*"
1I!
1s
0*!
0d!
1:!
15
07
0:!
00"
1d!
17
09
05
#812500
b11111 +
b10111 +
b10011 +
b10111 /
b10001111 (
b1111 )
b10001 +
b10011 -
b10101 /
b1101 !
b10001 "
b10101 #
b11101 $
b101101 %
b1001101 &
b10001101 '
b10001110 (
b1110 )
b1111 *
b10000 +
b10001 ,
b10010 -
b10011 .
b10100 /
b10101 0
b1101 1
1X
1|!
1("
1""
1&"
1z!
1'"
1)"
1!"
1$"
1."
1-"
0+"
1l!
0,"
1q!
0}!
1e!
0{!
0p!
1V!
0#"
0o!
0\!
0=!
10!
14!
0^!
1Y!
0/"
1*"
0c!
0T!
19!
1*!
0O!
06
1:!
0d!
10"
19
07
15
#875000
b11111 *
b10111 *
b10011 *
b10111 .
b1111 !
b10011 "
b10111 #
b11111 $
b101111 %
b1001111 &
b10001111 '
b10001 *
b10011 ,
b10101 .
b10111 0
b1111 1
b1110 !
b10010 "
b10110 #
b11110 $
b101110 %
b1001110 &
b10001110 '
b10001111 (
b1111 )
b10000 *
b10001 +
b10010 ,
b10011 -
b10100 .
b10101 /
b10110 0
b1110 1
1{!
1+"
1#"
1,"
1}!
0X
1E
0|!
1j!
0""
1k!
0z!
1u!
0'"
1h!
0)"
1w!
0!"
1g!
0$"
1t!
0."
1f!
0-"
1v!
0("
0m!
1Q!
0&"
0r!
0P!
0;!
1)!
0?!
0s!
0*"
1x!
1/"
1i!
0s
1W
1G
1c!
09!
1d!
1O!
16
17
0y!
0O!
06
08
#937500
b10011111 (
b11111 )
b10010111 (
b10111 )
b10010011 (
b10011 )
b10111 -
b10010001 (
b10001 )
b10011 +
b10101 -
b10111 /
b1111 !
b10011 "
b10111 #
b11111 $
b101111 %
b1001111 &
b10001111 '
b10010000 (
b10000 )
b10001 *
b10010 +
b10011 ,
b10100 -
b10101 .
b10110 /
b10111 0
b1111 1
1X
1|!
1("
1""
1&"
1z!
1'"
1)"
1!"
1$"
1."
1-"
0{!
1p!
0#"
1o!
0+"
0l!
1`!
0,"
0q!
0a!
0>!
17!
0}!
0e!
0U!
0J!
1.!
0N!
0i!
19!
1s!
0/"
1*"
1T!
1y!
18
