Projects/Engineering Projects/Computer Architecture and Embedded Systems/Instruction Set Arch/DATAPATH03/Lab2FullAdder/simulation/qsim/fullAdder.msim.vcd
$comment
	File created using the following command:
		vcd file fullAdder.msim.vcd -direction
$end
$date
	Thu Sep 22 12:11:11 2022
$end
$version
	ModelSim Version 2020.1
$end
$timescale
	1ps
$end

$scope module fullAdder_vlg_vec_tst $end
$var reg 1 ! A $end
$var reg 1 " B $end
$var reg 1 # Cin $end
$var wire 1 $ C $end
$var wire 1 % S $end

$scope module i1 $end
$var wire 1 & gnd $end
$var wire 1 ' vcc $end
$var wire 1 ( unknown $end
$var tri1 1 ) devclrn $end
$var tri1 1 * devpor $end
$var tri1 1 + devoe $end
$var wire 1 , ~QUARTUS_CREATED_GND~I_combout $end
$var wire 1 - A~input_o $end
$var wire 1 . B~input_o $end
$var wire 1 / Cin~input_o $end
$var wire 1 0 inst2|inst2~combout $end
$var wire 1 1 inst3~combout $end
$upscope $end
$upscope $end
$enddefinitions $end
#0
$dumpvars
0!
0"
0#
0$
0%
0&
1'
x(
1)
1*
1+
0,
0-
0.
0/
00
01
$end
#125000
1"
1.
10
1%
#250000
1!
0"
1-
0.
#375000
1"
1.
11
00
0%
1$
#500000
0!
0"
0-
0.
01
0$
#625000
1"
1.
10
1%
#750000
1!
0"
1-
0.
#875000
1"
1.
11
00
0%
1$
