Projects/Engineering Projects/Computer Architecture and Embedded Systems/DATAPATH03/MUX8bit4way/simulation/qsim/MUX8bit4way.msim.vcd
$comment
	File created using the following command:
		vcd file MUX8bit4way.msim.vcd -direction
$end
$date
	Thu Oct 06 15:18:57 2022
$end
$version
	ModelSim Version 10.5b
$end
$timescale
	1ps
$end

$scope module MUX8bit4way_vlg_vec_tst $end
$var reg 8 ! A0000 [7:0] $end
$var reg 8 " B0001 [7:0] $end
$var reg 8 # C0010 [7:0] $end
$var reg 8 $ D0011 [7:0] $end
$var reg 8 % E0100 [7:0] $end
$var reg 8 & F0101 [7:0] $end
$var reg 8 ' G0110 [7:0] $end
$var reg 8 ( H0111 [7:0] $end
$var reg 1 ) sel1 $end
$var reg 1 * sel2 $end
$var reg 1 + sel3 $end
$var wire 1 , Q [7] $end
$var wire 1 - Q [6] $end
$var wire 1 . Q [5] $end
$var wire 1 / Q [4] $end
$var wire 1 0 Q [3] $end
$var wire 1 1 Q [2] $end
$var wire 1 2 Q [1] $end
$var wire 1 3 Q [0] $end

$scope module i1 $end
$var wire 1 4 gnd $end
$var wire 1 5 vcc $end
$var wire 1 6 unknown $end
$var tri1 1 7 devclrn $end
$var tri1 1 8 devpor $end
$var tri1 1 9 devoe $end
$var wire 1 : ~QUARTUS_CREATED_GND~I_combout $end
$var wire 1 ; H0111[7]~input_o $end
$var wire 1 < D0011[7]~input_o $end
$var wire 1 = F0101[7]~input_o $end
$var wire 1 > sel1~input_o $end
$var wire 1 ? B0001[7]~input_o $end
$var wire 1 @ sel2~input_o $end
$var wire 1 A inst5|inst|inst3|inst2~0_combout $end
$var wire 1 B sel3~input_o $end
$var wire 1 C E0100[7]~input_o $end
$var wire 1 D C0010[7]~input_o $end
$var wire 1 E G0110[7]~input_o $end
$var wire 1 F A0000[7]~input_o $end
$var wire 1 G inst5|inst|inst3|inst2~1_combout $end
$var wire 1 H inst5|inst|inst3|inst2~2_combout $end
$var wire 1 I H0111[6]~input_o $end
$var wire 1 J D0011[6]~input_o $end
$var wire 1 K F0101[6]~input_o $end
$var wire 1 L B0001[6]~input_o $end
$var wire 1 M inst5|inst|inst2|inst2~0_combout $end
$var wire 1 N C0010[6]~input_o $end
$var wire 1 O G0110[6]~input_o $end
$var wire 1 P A0000[6]~input_o $end
$var wire 1 Q E0100[6]~input_o $end
$var wire 1 R inst5|inst|inst2|inst2~1_combout $end
$var wire 1 S inst5|inst|inst2|inst2~2_combout $end
$var wire 1 T G0110[5]~input_o $end
$var wire 1 U A0000[5]~input_o $end
$var wire 1 V C0010[5]~input_o $end
$var wire 1 W E0100[5]~input_o $end
$var wire 1 X inst5|inst|inst1|inst2~1_combout $end
$var wire 1 Y H0111[5]~input_o $end
$var wire 1 Z B0001[5]~input_o $end
$var wire 1 [ F0101[5]~input_o $end
$var wire 1 \ D0011[5]~input_o $end
$var wire 1 ] inst5|inst|inst1|inst2~0_combout $end
$var wire 1 ^ inst5|inst|inst1|inst2~2_combout $end
$var wire 1 _ E0100[4]~input_o $end
$var wire 1 ` C0010[4]~input_o $end
$var wire 1 a G0110[4]~input_o $end
$var wire 1 b A0000[4]~input_o $end
$var wire 1 c inst5|inst|inst|inst2~1_combout $end
$var wire 1 d B0001[4]~input_o $end
$var wire 1 e H0111[4]~input_o $end
$var wire 1 f D0011[4]~input_o $end
$var wire 1 g F0101[4]~input_o $end
$var wire 1 h inst5|inst|inst|inst2~0_combout $end
$var wire 1 i inst5|inst|inst|inst2~2_combout $end
$var wire 1 j E0100[3]~input_o $end
$var wire 1 k G0110[3]~input_o $end
$var wire 1 l C0010[3]~input_o $end
$var wire 1 m A0000[3]~input_o $end
$var wire 1 n inst5|inst1|inst3|inst2~1_combout $end
$var wire 1 o H0111[3]~input_o $end
$var wire 1 p B0001[3]~input_o $end
$var wire 1 q F0101[3]~input_o $end
$var wire 1 r D0011[3]~input_o $end
$var wire 1 s inst5|inst1|inst3|inst2~0_combout $end
$var wire 1 t inst5|inst1|inst3|inst2~2_combout $end
$var wire 1 u F0101[2]~input_o $end
$var wire 1 v D0011[2]~input_o $end
$var wire 1 w B0001[2]~input_o $end
$var wire 1 x H0111[2]~input_o $end
$var wire 1 y inst5|inst1|inst2|inst2~0_combout $end
$var wire 1 z E0100[2]~input_o $end
$var wire 1 { C0010[2]~input_o $end
$var wire 1 | G0110[2]~input_o $end
$var wire 1 } A0000[2]~input_o $end
$var wire 1 ~ inst5|inst1|inst2|inst2~1_combout $end
$var wire 1 !! inst5|inst1|inst2|inst2~2_combout $end
$var wire 1 "! E0100[1]~input_o $end
$var wire 1 #! G0110[1]~input_o $end
$var wire 1 $! C0010[1]~input_o $end
$var wire 1 %! A0000[1]~input_o $end
$var wire 1 &! inst5|inst1|inst1|inst2~1_combout $end
$var wire 1 '! H0111[1]~input_o $end
$var wire 1 (! B0001[1]~input_o $end
$var wire 1 )! D0011[1]~input_o $end
$var wire 1 *! F0101[1]~input_o $end
$var wire 1 +! inst5|inst1|inst1|inst2~0_combout $end
$var wire 1 ,! inst5|inst1|inst1|inst2~2_combout $end
$var wire 1 -! E0100[0]~input_o $end
$var wire 1 .! A0000[0]~input_o $end
$var wire 1 /! G0110[0]~input_o $end
$var wire 1 0! C0010[0]~input_o $end
$var wire 1 1! inst5|inst1|inst|inst2~1_combout $end
$var wire 1 2! F0101[0]~input_o $end
$var wire 1 3! H0111[0]~input_o $end
$var wire 1 4! D0011[0]~input_o $end
$var wire 1 5! B0001[0]~input_o $end
$var wire 1 6! inst5|inst1|inst|inst2~0_combout $end
$var wire 1 7! inst5|inst1|inst|inst2~2_combout $end
$upscope $end
$upscope $end
$enddefinitions $end
#0
$dumpvars
b0 !
b0 "
b0 #
b0 $
b0 %
b0 &
b0 '
b0 (
0)
0*
0+
03
02
01
00
0/
0.
0-
0,
04
15
x6
17
18
19
0:
0;
0<
0=
0>
0?
0@
0A
0B
0C
0D
0E
0F
0G
0H
0I
0J
0K
0L
0M
0N
0O
0P
0Q
0R
0S
0T
0U
0V
0W
0X
0Y
0Z
0[
0\
0]
0^
0_
0`
0a
0b
0c
0d
0e
0f
0g
0h
0i
0j
0k
0l
0m
0n
0o
0p
0q
0r
0s
0t
0u
0v
0w
0x
0y
0z
0{
0|
0}
0~
0!!
0"!
0#!
0$!
0%!
0&!
0'!
0(!
0)!
0*!
0+!
0,!
0-!
0.!
0/!
00!
01!
02!
03!
04!
05!
06!
07!
$end
#4000
b1 (
13!
#8000
b1 '
b11 (
b10 (
03!
1'!
1/!
#12000
b11 (
13!
#15625
b1 &
12!
#16000
b11 '
b111 (
b10 '
b101 (
b100 (
03!
0'!
1x
0/!
1#!
#20000
b101 (
13!
#24000
b11 '
b111 (
b110 (
03!
1'!
1/!
#28000
b111 (
13!
#31250
b1 %
b11 &
1+
b10 &
02!
1*!
1-!
1B
#32000
b111 '
b1111 (
b101 '
b1011 (
b100 '
b1001 (
b1000 (
03!
0'!
0x
1o
0/!
0#!
1|
#36000
b1001 (
13!
#40000
b101 '
b1011 (
b1010 (
03!
1'!
1/!
#44000
b1011 (
13!
#46875
b11 &
12!
#48000
b111 '
b1111 (
b110 '
b1101 (
b1100 (
03!
0'!
1x
0/!
1#!
#52000
b1101 (
13!
#56000
b111 '
b1111 (
b1110 (
03!
1'!
1/!
#60000
b1111 (
13!
#62500
b1 $
b11 %
b111 &
1*
b10 %
b101 &
0+
b100 &
02!
0*!
1u
0-!
1"!
14!
1@
0B
16!
#64000
b1111 '
b11111 (
b1011 '
b10111 (
b1001 '
b10011 (
b1000 '
b10001 (
b10000 (
03!
0'!
0x
0o
1e
0/!
0#!
0|
1k
#68000
b10001 (
13!
#72000
b1001 '
b10011 (
b10010 (
03!
1'!
1/!
#76000
b10011 (
13!
#78125
b101 &
12!
#80000
b1011 '
b10111 (
b1010 '
b10101 (
b10100 (
03!
0'!
1x
0/!
1#!
#84000
b10101 (
13!
#88000
b1011 '
b10111 (
b10110 (
03!
1'!
1/!
#92000
b10111 (
13!
#93750
b11 %
b111 &
1+
b110 &
02!
1*!
1-!
1B
17!
13
#96000
b1111 '
b11111 (
b1101 '
b11011 (
b1100 '
b11001 (
b11000 (
03!
0'!
0x
1o
0/!
0#!
1|
#100000
b11001 (
13!
#104000
b1101 '
b11011 (
b11010 (
03!
1'!
1/!
#108000
b11011 (
13!
#109375
b111 &
12!
#112000
b1111 '
b11111 (
b1110 '
b11101 (
b11100 (
03!
0'!
1x
0/!
1#!
#116000
b11101 (
13!
#120000
b1111 '
b11111 (
b11110 (
03!
1'!
1/!
#124000
b11111 (
13!
#125000
b1 #
b11 $
b111 %
b1111 &
1)
b10 $
b101 %
b1011 &
0*
b100 %
b1001 &
0+
b1000 &
02!
0*!
0u
1q
0-!
0"!
1z
04!
1)!
10!
1>
0@
0B
06!
1~
1s
07!
03
1!!
11
#128000
b11111 '
b111111 (
b10111 '
b101111 (
b10011 '
b100111 (
b10001 '
b100011 (
b10000 '
b100001 (
b100000 (
03!
0'!
0x
0o
0e
1Y
0/!
0#!
0|
0k
1a
#132000
b100001 (
13!
#136000
b10001 '
b100011 (
b100010 (
03!
1'!
1/!
#140000
b100011 (
13!
#140625
b1001 &
12!
16!
#144000
b10011 '
b100111 (
b10010 '
b100101 (
b100100 (
03!
0'!
1x
0/!
1#!
#148000
b100101 (
13!
#152000
b10011 '
b100111 (
b100110 (
03!
1'!
1/!
#156000
b100111 (
13!
#156250
b101 %
b1011 &
1+
b1010 &
02!
1*!
1-!
1B
11!
1+!
06!
17!
0!!
1t
10
01
13
07!
1,!
12
03
#160000
b10111 '
b101111 (
b10101 '
b101011 (
b10100 '
b101001 (
b101000 (
03!
0'!
0x
1o
0/!
0#!
1|
#164000
b101001 (
13!
#168000
b10101 '
b101011 (
b101010 (
03!
1'!
1/!
#171875
b1011 &
12!
16!
17!
13
#172000
b101011 (
13!
#176000
b10111 '
b101111 (
b10110 '
b101101 (
b101100 (
03!
0'!
1x
0/!
1#!
#180000
b101101 (
13!
#184000
b10111 '
b101111 (
b101110 (
03!
1'!
1/!
#187500
b11 $
b111 %
b1111 &
1*
b110 %
b1101 &
0+
b1100 &
02!
0*!
1u
0-!
1"!
14!
1@
0B
06!
1&!
1y
1c
1]
0,!
1!!
0t
00
11
02
1i
1,!
12
1/
#188000
b101111 (
13!
16!
#192000
b11111 '
b111111 (
b11011 '
b110111 (
b11001 '
b110011 (
b11000 '
b110001 (
b110000 (
03!
0'!
0x
0o
1e
0/!
0#!
0|
1k
1n
0~
0&!
01!
1h
0s
0y
0+!
06!
07!
0,!
0!!
1t
10
01
02
03
#196000
b110001 (
13!
16!
#200000
b11001 '
b110011 (
b110010 (
03!
1'!
1/!
11!
1+!
06!
17!
13
#203125
b1101 &
12!
#204000
b110011 (
13!
16!
#208000
b11011 '
b110111 (
b11010 '
b110101 (
b110100 (
03!
0'!
1x
0/!
1#!
1&!
01!
1y
0+!
06!
07!
1,!
12
03
#212000
b110101 (
13!
16!
#216000
b11011 '
b110111 (
b110110 (
03!
1'!
1/!
11!
1+!
06!
17!
13
#218750
b111 %
b1111 &
1+
b1110 &
02!
1*!
1-!
1B
07!
1!!
0t
1^
1.
00
11
03
#220000
b110111 (
13!
16!
17!
13
#224000
b11111 '
b111111 (
b11101 '
b111011 (
b11100 '
b111001 (
b111000 (
03!
0'!
0x
1o
0/!
0#!
1|
1~
0&!
01!
1s
0y
0+!
06!
07!
0,!
0!!
1t
10
01
02
03
#228000
b111001 (
13!
16!
17!
13
#232000
b11101 '
b111011 (
b111010 (
03!
1'!
1/!
11!
1+!
06!
07!
1,!
12
03
#234375
b1111 &
12!
#236000
b111011 (
13!
16!
17!
13
#240000
b11111 '
b111111 (
b11110 '
b111101 (
b111100 (
03!
0'!
1x
0/!
1#!
1&!
01!
1y
0+!
06!
07!
0,!
1!!
11
02
03
#244000
b111101 (
13!
16!
17!
13
#248000
b11111 '
b111111 (
b111110 (
03!
1'!
1/!
11!
1+!
06!
07!
1,!
12
03
#250000
b1 "
b11 #
b111 $
b1111 %
b11111 &
b10 #
b101 $
b1011 %
b10111 &
0)
b100 $
b1001 %
b10011 &
0*
b1000 %
b10001 &
0+
b10000 &
02!
0*!
0u
0q
1g
0-!
0"!
0z
1j
04!
0)!
1v
00!
1$!
15!
0>
0@
0B
16!
01!
0+!
0&!
0~
0y
0s
0n
0h
0c
0]
17!
0^
0.
13
0i
0t
0!!
0,!
07!
03
02
01
00
0/
#252000
b111111 (
13!
#256000
b111111 '
b1111111 (
b101111 '
b1011111 (
b100111 '
b1001111 (
b100011 '
b1000111 (
b100001 '
b1000011 (
b100000 '
b1000001 (
b1000000 (
03!
0'!
0x
0o
0e
0Y
1I
0/!
0#!
0|
0k
0a
1T
#260000
b1000001 (
13!
#264000
b100001 '
b1000011 (
b1000010 (
03!
1'!
1/!
#265625
b10001 &
12!
#268000
b1000011 (
13!
#272000
b100011 '
b1000111 (
b100010 '
b1000101 (
b1000100 (
03!
0'!
1x
0/!
1#!
#276000
b1000101 (
13!
#280000
b100011 '
b1000111 (
b1000110 (
03!
1'!
1/!
#281250
b1001 %
b10011 &
1+
b10010 &
02!
1*!
1-!
1B
17!
13
#284000
b1000111 (
13!
#288000
b100111 '
b1001111 (
b100101 '
b1001011 (
b100100 '
b1001001 (
b1001000 (
03!
0'!
0x
1o
0/!
0#!
1|
#292000
b1001001 (
13!
#296000
b100101 '
b1001011 (
b1001010 (
03!
1'!
1/!
#296875
b10011 &
12!
#300000
b1001011 (
13!
#304000
b100111 '
b1001111 (
b100110 '
b1001101 (
b1001100 (
03!
0'!
1x
0/!
1#!
#308000
b1001101 (
13!
#312000
b100111 '
b1001111 (
b1001110 (
03!
1'!
1/!
#312500
b101 $
b1011 %
b10111 &
1*
b1010 %
b10101 &
0+
b10100 &
02!
0*!
1u
0-!
1"!
14!
1@
0B
1&!
1y
07!
03
1,!
12
#316000
b1001111 (
13!
#320000
b101111 '
b1011111 (
b101011 '
b1010111 (
b101001 '
b1010011 (
b101000 '
b1010001 (
b1010000 (
03!
0'!
0x
0o
1e
0/!
0#!
0|
1k
#324000
b1010001 (
13!
#328000
b101001 '
b1010011 (
b1010010 (
03!
1'!
1/!
#328125
b10101 &
12!
#332000
b1010011 (
13!
#336000
b101011 '
b1010111 (
b101010 '
b1010101 (
b1010100 (
03!
0'!
1x
0/!
1#!
#340000
b1010101 (
13!
#343750
b1011 %
b10111 &
1+
b10110 &
02!
1*!
1-!
1B
17!
0,!
1!!
11
02
13
#344000
b101011 '
b1010111 (
b1010110 (
03!
1'!
1/!
#348000
b1010111 (
13!
#352000
b101111 '
b1011111 (
b101101 '
b1011011 (
b101100 '
b1011001 (
b1011000 (
03!
0'!
0x
1o
0/!
0#!
1|
#356000
b1011001 (
13!
#359375
b10111 &
12!
#360000
b101101 '
b1011011 (
b1011010 (
03!
1'!
1/!
#364000
b1011011 (
13!
#368000
b101111 '
b1011111 (
b101110 '
b1011101 (
b1011100 (
03!
0'!
1x
0/!
1#!
#372000
b1011101 (
13!
#375000
b11 #
b111 $
b1111 %
b11111 &
1)
b110 $
b1101 %
b11011 &
0*
b1100 %
b11001 &
0+
b11000 &
02!
0*!
0u
1q
0-!
0"!
1z
04!
1)!
10!
1>
0@
0B
06!
0&!
1~
0y
1s
1n
1h
07!
1,!
0!!
01
12
03
1t
1!!
0,!
02
11
10
#376000
b101111 '
b1011111 (
b1011110 (
03!
1'!
1/!
#380000
b1011111 (
13!
#384000
b111111 '
b1111111 (
b110111 '
b1101111 (
b110011 '
b1100111 (
b110001 '
b1100011 (
b110000 '
b1100001 (
b1100000 (
03!
0'!
0x
0o
0e
1Y
0/!
0#!
0|
0k
1a
#388000
b1100001 (
13!
#390625
b11001 &
12!
16!
#392000
b110001 '
b1100011 (
b1100010 (
03!
1'!
1/!
#396000
b1100011 (
13!
#400000
b110011 '
b1100111 (
b110010 '
b1100101 (
b1100100 (
03!
0'!
1x
0/!
1#!
#404000
b1100101 (
13!
#406250
b1101 %
b11011 &
1+
b11010 &
02!
1*!
1-!
1B
11!
1+!
06!
17!
0!!
1i
1/
01
13
07!
1,!
12
03
#408000
b110011 '
b1100111 (
b1100110 (
03!
1'!
1/!
#412000
b1100111 (
13!
#416000
b110111 '
b1101111 (
b110101 '
b1101011 (
b110100 '
b1101001 (
b1101000 (
03!
0'!
0x
1o
0/!
0#!
1|
#420000
b1101001 (
13!
#421875
b11011 &
12!
16!
17!
13
#424000
b110101 '
b1101011 (
b1101010 (
03!
1'!
1/!
#428000
b1101011 (
13!
#432000
b110111 '
b1101111 (
b110110 '
b1101101 (
b1101100 (
03!
0'!
1x
0/!
1#!
#436000
b1101101 (
13!
#437500
b111 $
b1111 %
b11111 &
1*
b1110 %
b11101 &
0+
b11100 &
02!
0*!
1u
0-!
1"!
14!
1@
0B
01!
0+!
1&!
1y
0n
0h
1c
1]
1X
1M
0,!
1!!
0i
0/
11
02
1^
1i
0t
1,!
07!
03
12
00
1/
1.
#440000
b110111 '
b1101111 (
b1101110 (
03!
1'!
1/!
11!
1+!
06!
17!
13
#444000
b1101111 (
13!
16!
#448000
b111111 '
b1111111 (
b111011 '
b1110111 (
b111001 '
b1110011 (
b111000 '
b1110001 (
b1110000 (
03!
0'!
0x
0o
1e
0/!
0#!
0|
1k
1n
0~
0&!
01!
1h
0s
0y
0+!
06!
07!
0,!
0!!
1t
10
01
02
03
#452000
b1110001 (
13!
16!
#453125
b11101 &
12!
#456000
b111001 '
b1110011 (
b1110010 (
03!
1'!
1/!
11!
1+!
06!
17!
13
#460000
b1110011 (
13!
16!
#464000
b111011 '
b1110111 (
b111010 '
b1110101 (
b1110100 (
03!
0'!
1x
0/!
1#!
1&!
01!
1y
0+!
06!
07!
1,!
12
03
#468000
b1110101 (
13!
16!
#468750
b1111 %
b11111 &
1+
b11110 &
02!
1*!
1-!
1B
17!
0,!
1!!
0t
1S
1-
00
11
02
13
#472000
b111011 '
b1110111 (
b1110110 (
03!
1'!
1/!
11!
1+!
06!
07!
1,!
12
03
#476000
b1110111 (
13!
16!
17!
13
#480000
b111111 '
b1111111 (
b111101 '
b1111011 (
b111100 '
b1111001 (
b1111000 (
03!
0'!
0x
1o
0/!
0#!
1|
1~
0&!
01!
1s
0y
0+!
06!
07!
0,!
0!!
1t
10
01
02
03
#484000
b1111001 (
13!
16!
17!
13
#484375
b11111 &
12!
#488000
b111101 '
b1111011 (
b1111010 (
03!
1'!
1/!
11!
1+!
06!
07!
1,!
12
03
#492000
b1111011 (
13!
16!
17!
13
#496000
b111111 '
b1111111 (
b111110 '
b1111101 (
b1111100 (
03!
0'!
1x
0/!
1#!
1&!
01!
1y
0+!
06!
07!
0,!
1!!
11
02
03
#500000
b1 !
b11 "
b111 #
b1111 $
b11111 %
b111111 &
b10 "
b101 #
b1011 $
b10111 %
b101111 &
b100 #
b1001 $
b10011 %
b100111 &
0)
b1000 $
b10001 %
b100011 &
0*
b10000 %
b100001 &
0+
b100000 &
b1111101 (
0>
0@
0B
13!
02!
0*!
0u
0q
0g
1[
0-!
0"!
0z
0j
1_
04!
0)!
0v
1r
00!
0$!
1{
05!
1(!
1.!
11!
1+!
0~
0&!
0s
0y
0c
0n
0]
0h
0X
0M
1,!
0S
0-
12
0^
0i
0t
0!!
0,!
17!
13
02
01
00
0/
0.
#504000
b111111 '
b1111111 (
b1111110 (
03!
1'!
1/!
#508000
b1111111 (
13!
#512000
b1111111 '
b11111111 (
b1011111 '
b10111111 (
b1001111 '
b10011111 (
b1000111 '
b10001111 (
b1000011 '
b10000111 (
b1000001 '
b10000011 (
b1000000 '
b10000001 (
b10000000 (
03!
0'!
0x
0o
0e
0Y
0I
1;
0/!
0#!
0|
0k
0a
0T
1O
#515625
b100001 &
12!
#516000
b10000001 (
13!
#520000
b1000001 '
b10000011 (
b10000010 (
03!
1'!
1/!
#524000
b10000011 (
13!
#528000
b1000011 '
b10000111 (
b1000010 '
b10000101 (
b10000100 (
03!
0'!
1x
0/!
1#!
#531250
b10001 %
b100011 &
1+
b100010 &
02!
1*!
1-!
1B
07!
1,!
12
03
#532000
b10000101 (
13!
#536000
b1000011 '
b10000111 (
b10000110 (
03!
1'!
1/!
#540000
b10000111 (
13!
#544000
b1000111 '
b10001111 (
b1000101 '
b10001011 (
b1000100 '
b10001001 (
b10001000 (
03!
0'!
0x
1o
0/!
0#!
1|
#546875
b100011 &
12!
#548000
b10001001 (
13!
#552000
b1000101 '
b10001011 (
b10001010 (
03!
1'!
1/!
#556000
b10001011 (
13!
#560000
b1000111 '
b10001111 (
b1000110 '
b10001101 (
b10001100 (
03!
0'!
1x
0/!
1#!
#562500
b1001 $
b10011 %
b100111 &
1*
b10010 %
b100101 &
0+
b100100 &
02!
0*!
1u
0-!
1"!
14!
1@
0B
16!
01!
0+!
1~
1s
17!
0,!
02
13
1!!
07!
03
11
#564000
b10001101 (
13!
#568000
b1000111 '
b10001111 (
b10001110 (
03!
1'!
1/!
#572000
b10001111 (
13!
#576000
b1001111 '
b10011111 (
b1001011 '
b10010111 (
b1001001 '
b10010011 (
b1001000 '
b10010001 (
b10010000 (
03!
0'!
0x
0o
1e
0/!
0#!
0|
1k
#578125
b100101 &
12!
#580000
b10010001 (
13!
#584000
b1001001 '
b10010011 (
b10010010 (
03!
1'!
1/!
#588000
b10010011 (
13!
#592000
b1001011 '
b10010111 (
b1001010 '
b10010101 (
b10010100 (
03!
0'!
1x
0/!
1#!
#593750
b10011 %
b100111 &
1+
b100110 &
02!
1*!
1-!
1B
17!
0!!
1t
10
01
13
#596000
b10010101 (
13!
#600000
b1001011 '
b10010111 (
b10010110 (
03!
1'!
1/!
#604000
b10010111 (
13!
#608000
b1001111 '
b10011111 (
b1001101 '
b10011011 (
b1001100 '
b10011001 (
b10011000 (
03!
0'!
0x
1o
0/!
0#!
1|
#609375
b100111 &
12!
#612000
b10011001 (
13!
#616000
b1001101 '
b10011011 (
b10011010 (
03!
1'!
1/!
#620000
b10011011 (
13!
#624000
b1001111 '
b10011111 (
b1001110 '
b10011101 (
b10011100 (
03!
0'!
1x
0/!
1#!
#625000
b101 #
b1011 $
b10111 %
b101111 &
1)
b1010 $
b10101 %
b101011 &
0*
b10100 %
b101001 &
0+
b101000 &
02!
0*!
0u
1q
0-!
0"!
1z
04!
1)!
10!
1>
0@
0B
06!
1c
1]
07!
1!!
0t
00
11
03
1i
1/
#628000
b10011101 (
13!
#632000
b1001111 '
b10011111 (
b10011110 (
03!
1'!
1/!
#636000
b10011111 (
13!
#640000
b1011111 '
b10111111 (
b1010111 '
b10101111 (
b1010011 '
b10100111 (
b1010001 '
b10100011 (
b1010000 '
b10100001 (
b10100000 (
03!
0'!
0x
0o
0e
1Y
0/!
0#!
0|
0k
1a
#640625
b101001 &
12!
16!
#644000
b10100001 (
13!
#648000
b1010001 '
b10100011 (
b10100010 (
03!
1'!
1/!
#652000
b10100011 (
13!
#656000
b1010011 '
b10100111 (
b1010010 '
b10100101 (
b10100100 (
03!
0'!
1x
0/!
1#!
#656250
b10101 %
b101011 &
1+
b101010 &
02!
1*!
1-!
1B
11!
1+!
06!
17!
0!!
1t
0i
1^
1.
0/
10
01
13
07!
1,!
12
03
#660000
b10100101 (
13!
#664000
b1010011 '
b10100111 (
b10100110 (
03!
1'!
1/!
#668000
b10100111 (
13!
#671875
b101011 &
12!
16!
17!
13
#672000
b1010111 '
b10101111 (
b1010101 '
b10101011 (
b1010100 '
b10101001 (
b10101000 (
03!
0'!
0x
1o
0/!
0#!
1|
#676000
b10101001 (
13!
#680000
b1010101 '
b10101011 (
b10101010 (
03!
1'!
1/!
#684000
b10101011 (
13!
#687500
b1011 $
b10111 %
b101111 &
1*
b10110 %
b101101 &
0+
b101100 &
02!
0*!
1u
0-!
1"!
14!
1@
0B
1R
1A
0,!
1!!
0t
1i
0^
0.
1/
00
11
02
1S
1-
#688000
b1010111 '
b10101111 (
b1010110 '
b10101101 (
b10101100 (
03!
0'!
1x
0/!
1#!
1&!
01!
1y
0+!
06!
07!
1,!
12
03
#692000
b10101101 (
13!
16!
#696000
b1010111 '
b10101111 (
b10101110 (
03!
1'!
1/!
11!
1+!
06!
17!
13
#700000
b10101111 (
13!
16!
#703125
b101101 &
12!
#704000
b1011111 '
b10111111 (
b1011011 '
b10110111 (
b1011001 '
b10110011 (
b1011000 '
b10110001 (
b10110000 (
03!
0'!
0x
0o
1e
0/!
0#!
0|
1k
1n
0~
0&!
01!
1h
0s
0y
0+!
06!
07!
0,!
0!!
1t
10
01
02
03
#708000
b10110001 (
13!
16!
#712000
b1011001 '
b10110011 (
b10110010 (
03!
1'!
1/!
11!
1+!
06!
17!
13
#716000
b10110011 (
13!
16!
#718750
b10111 %
b101111 &
1+
b101110 &
02!
1*!
1-!
1B
1,!
0t
1^
0S
1H
1,
0-
1.
00
12
#720000
b1011011 '
b10110111 (
b1011010 '
b10110101 (
b10110100 (
03!
0'!
1x
0/!
1#!
1&!
01!
1y
0+!
06!
07!
0,!
1!!
11
02
03
#724000
b10110101 (
13!
16!
17!
13
#728000
b1011011 '
b10110111 (
b10110110 (
03!
1'!
1/!
11!
1+!
06!
07!
1,!
12
03
#732000
b10110111 (
13!
16!
17!
13
#734375
b101111 &
12!
#736000
b1011111 '
b10111111 (
b1011101 '
b10111011 (
b1011100 '
b10111001 (
b10111000 (
03!
0'!
0x
1o
0/!
0#!
1|
1~
0&!
01!
1s
0y
0+!
06!
07!
0,!
0!!
1t
10
01
02
03
#740000
b10111001 (
13!
16!
17!
13
#744000
b1011101 '
b10111011 (
b10111010 (
03!
1'!
1/!
11!
1+!
06!
07!
1,!
12
03
#748000
b10111011 (
13!
16!
17!
13
#750000
b11 "
b111 #
b1111 $
b11111 %
b111111 &
b110 #
b1101 $
b11011 %
b110111 &
0)
b1100 $
b11001 %
b110011 &
0*
b11000 %
b110001 &
0+
b110000 &
02!
0*!
0u
0q
1g
0-!
0"!
0z
1j
04!
0)!
1v
00!
1$!
15!
0>
0@
0B
0~
0s
0n
0h
0c
0]
0R
0A
0,!
1!!
0^
1S
0H
0,
1-
0.
11
02
0S
0i
0t
0!!
01
00
0/
0-
#752000
b1011111 '
b10111111 (
b1011110 '
b10111101 (
b10111100 (
03!
0'!
1x
0/!
1#!
#756000
b10111101 (
13!
#760000
b1011111 '
b10111111 (
b10111110 (
03!
1'!
1/!
#764000
b10111111 (
13!
#765625
b110001 &
12!
#768000
b1111111 '
b11111111 (
b1101111 '
b11011111 (
b1100111 '
b11001111 (
b1100011 '
b11000111 (
b1100001 '
b11000011 (
b1100000 '
b11000001 (
b11000000 (
03!
0'!
0x
0o
0e
0Y
1I
0/!
0#!
0|
0k
0a
1T
#772000
b11000001 (
13!
#776000
b1100001 '
b11000011 (
b11000010 (
03!
1'!
1/!
#780000
b11000011 (
13!
#781250
b11001 %
b110011 &
1+
b110010 &
02!
1*!
1-!
1B
1,!
12
#784000
b1100011 '
b11000111 (
b1100010 '
b11000101 (
b11000100 (
03!
0'!
1x
0/!
1#!
#788000
b11000101 (
13!
#792000
b1100011 '
b11000111 (
b11000110 (
03!
1'!
1/!
#796000
b11000111 (
13!
#796875
b110011 &
12!
#800000
b1100111 '
b11001111 (
b1100101 '
b11001011 (
b1100100 '
b11001001 (
b11001000 (
03!
0'!
0x
1o
0/!
0#!
1|
#804000
b11001001 (
13!
#808000
b1100101 '
b11001011 (
b11001010 (
03!
1'!
1/!
#812000
b11001011 (
13!
#812500
b1101 $
b11011 %
b110111 &
1*
b11010 %
b110101 &
0+
b110100 &
02!
0*!
1u
0-!
1"!
14!
1@
0B
01!
0+!
1&!
1~
1y
1s
0,!
02
1!!
1,!
07!
03
12
11
#816000
b1100111 '
b11001111 (
b1100110 '
b11001101 (
b11001100 (
03!
0'!
1x
0/!
1#!
#820000
b11001101 (
13!
#824000
b1100111 '
b11001111 (
b11001110 (
03!
1'!
1/!
#828000
b11001111 (
13!
#828125
b110101 &
12!
#832000
b1101111 '
b11011111 (
b1101011 '
b11010111 (
b1101001 '
b11010011 (
b1101000 '
b11010001 (
b11010000 (
03!
0'!
0x
0o
1e
0/!
0#!
0|
1k
#836000
b11010001 (
13!
#840000
b1101001 '
b11010011 (
b11010010 (
03!
1'!
1/!
#843750
b11011 %
b110111 &
1+
b110110 &
02!
1*!
1-!
1B
17!
0,!
1t
10
02
13
#844000
b11010011 (
13!
#848000
b1101011 '
b11010111 (
b1101010 '
b11010101 (
b11010100 (
03!
0'!
1x
0/!
1#!
#852000
b11010101 (
13!
#856000
b1101011 '
b11010111 (
b11010110 (
03!
1'!
1/!
#859375
b110111 &
12!
#860000
b11010111 (
13!
#864000
b1101111 '
b11011111 (
b1101101 '
b11011011 (
b1101100 '
b11011001 (
b11011000 (
03!
0'!
0x
1o
0/!
0#!
1|
#868000
b11011001 (
13!
#872000
b1101101 '
b11011011 (
b11011010 (
03!
1'!
1/!
#875000
b111 #
b1111 $
b11111 %
b111111 &
1)
b1110 $
b11101 %
b111011 &
0*
b11100 %
b111001 &
0+
b111000 &
02!
0*!
0u
1q
0-!
0"!
1z
04!
1)!
10!
1>
0@
0B
06!
0&!
0y
1n
1h
1c
1]
07!
1,!
0t
00
12
03
1i
1t
0,!
02
10
1/
#876000
b11011011 (
13!
#880000
b1101111 '
b11011111 (
b1101110 '
b11011101 (
b11011100 (
03!
0'!
1x
0/!
1#!
#884000
b11011101 (
13!
#888000
b1101111 '
b11011111 (
b11011110 (
03!
1'!
1/!
#890625
b111001 &
12!
16!
#892000
b11011111 (
13!
