Projects/Engineering Projects/Computer Architecture and Embedded Systems/DATAPATH03/FourToSixteenDecoder/simulation/qsim/FourToSixteenDecoder.msim.vcd
$comment
	File created using the following command:
		vcd file FourToSixteenDecoder.msim.vcd -direction
$end
$date
	Thu Oct 13 23:32:16 2022
$end
$version
	ModelSim Version 2020.1
$end
$timescale
	1ps
$end

$scope module FourToSixteenDecoder_vlg_vec_tst $end
$var reg 4 ! WA [3:0] $end
$var wire 1 " R1 $end
$var wire 1 # R2 $end
$var wire 1 $ R3 $end
$var wire 1 % R4 $end
$var wire 1 & R5 $end
$var wire 1 ' R6 $end
$var wire 1 ( R7 $end
$var wire 1 ) R8 $end
$var wire 1 * R9 $end
$var wire 1 + R10 $end
$var wire 1 , R11 $end
$var wire 1 - R12 $end
$var wire 1 . R13 $end
$var wire 1 / R14 $end
$var wire 1 0 R15 $end
$var wire 1 1 R16 $end

$scope module i1 $end
$var wire 1 2 gnd $end
$var wire 1 3 vcc $end
$var wire 1 4 unknown $end
$var tri1 1 5 devclrn $end
$var tri1 1 6 devpor $end
$var tri1 1 7 devoe $end
$var wire 1 8 R1~output_o $end
$var wire 1 9 R2~output_o $end
$var wire 1 : R3~output_o $end
$var wire 1 ; R4~output_o $end
$var wire 1 < R5~output_o $end
$var wire 1 = R6~output_o $end
$var wire 1 > R7~output_o $end
$var wire 1 ? R8~output_o $end
$var wire 1 @ R9~output_o $end
$var wire 1 A R10~output_o $end
$var wire 1 B R11~output_o $end
$var wire 1 C R12~output_o $end
$var wire 1 D R13~output_o $end
$var wire 1 E R14~output_o $end
$var wire 1 F R15~output_o $end
$var wire 1 G R16~output_o $end
$var wire 1 H WA[3]~input_o $end
$var wire 1 I WA[2]~input_o $end
$var wire 1 J WA[1]~input_o $end
$var wire 1 K WA[0]~input_o $end
$var wire 1 L inst15~combout $end
$var wire 1 M inst3~0_combout $end
$var wire 1 N inst4~0_combout $end
$var wire 1 O inst5~0_combout $end
$var wire 1 P inst7~0_combout $end
$var wire 1 Q inst8~0_combout $end
$var wire 1 R inst9~0_combout $end
$var wire 1 S inst10~0_combout $end
$var wire 1 T inst11~0_combout $end
$var wire 1 U inst12~0_combout $end
$var wire 1 V inst13~0_combout $end
$var wire 1 W inst14~0_combout $end
$var wire 1 X inst16~0_combout $end
$var wire 1 Y inst17~0_combout $end
$var wire 1 Z inst18~0_combout $end
$var wire 1 [ inst19~0_combout $end
$upscope $end
$upscope $end
$enddefinitions $end
#0
$dumpvars
b0 !
1"
0#
0$
0%
0&
0'
0(
0)
0*
0+
0,
0-
0.
0/
00
01
02
13
x4
15
16
17
18
09
0:
0;
0<
0=
0>
0?
0@
0A
0B
0C
0D
0E
0F
0G
0H
0I
0J
0K
0L
0M
0N
0O
0P
0Q
0R
0S
0T
0U
0V
0W
0X
0Y
0Z
0[
$end
#1000000
b1 !
1K
1L
1M
19
08
0"
1#
#2000000
b11 !
b10 !
0K
1J
1N
0M
09
1:
1$
0#
#3000000
b11 !
1K
1O
0N
0:
1;
1%
0$
#4000000
b111 !
b101 !
b100 !
0K
0J
1I
1P
0O
0;
1<
1&
0%
#5000000
b101 !
1K
1Q
0P
0<
1=
1'
0&
#6000000
b111 !
b110 !
0K
1J
1R
0Q
0=
1>
1(
0'
#7000000
b111 !
1K
1S
0R
0>
1?
1)
0(
#8000000
b1111 !
b1011 !
b1001 !
b1000 !
0K
0J
0I
1H
1T
0S
0?
1@
1*
0)
#9000000
b1001 !
1K
1U
0T
0@
1A
1+
0*
#10000000
b1011 !
b1010 !
0K
1J
1V
0U
0A
1B
1,
0+
#11000000
b1011 !
1K
1W
0V
0B
1C
1-
0,
#12000000
b1111 !
b1101 !
b1100 !
0K
0J
1I
1X
0W
0C
1D
1.
0-
#13000000
b1101 !
1K
1Y
0X
0D
1E
1/
0.
#14000000
b1111 !
b1110 !
0K
1J
1Z
0Y
0E
1F
10
0/
#15000000
b1111 !
1K
1[
0Z
0F
1G
11
00
