Projects/Engineering Projects/Computer Architecture and Embedded Systems/Instruction Set Arch/DATAPATH03/SixteenWayEightBitMultiplexer/simulation/qsim/SixteenWayEightBitMultiplexer.msim.vcd
$comment
	File created using the following command:
		vcd file SixteenWayEightBitMultiplexer.msim.vcd -direction
$end
$date
	Thu Oct 13 23:43:14 2022
$end
$version
	ModelSim Version 2020.1
$end
$timescale
	1ps
$end

$scope module SixteenWayEightBitMultiplexer_vlg_vec_tst $end
$var reg 1 ! D0 $end
$var reg 1 " D1 $end
$var reg 1 # D2 $end
$var reg 1 $ D3 $end
$var reg 1 % D4 $end
$var reg 1 & D5 $end
$var reg 1 ' D6 $end
$var reg 1 ( D7 $end
$var reg 1 ) D8 $end
$var reg 1 * D9 $end
$var reg 1 + D10 $end
$var reg 1 , D11 $end
$var reg 1 - D12 $end
$var reg 1 . D13 $end
$var reg 1 / D14 $end
$var reg 1 0 D15 $end
$var reg 4 1 S [3:0] $end
$var wire 1 2 Q $end

$scope module i1 $end
$var wire 1 3 gnd $end
$var wire 1 4 vcc $end
$var wire 1 5 unknown $end
$var tri1 1 6 devclrn $end
$var tri1 1 7 devpor $end
$var tri1 1 8 devoe $end
$var wire 1 9 Q~output_o $end
$var wire 1 : S[1]~input_o $end
$var wire 1 ; S[0]~input_o $end
$var wire 1 < D0~input_o $end
$var wire 1 = D1~input_o $end
$var wire 1 > D2~input_o $end
$var wire 1 ? D3~input_o $end
$var wire 1 @ inst22~0_combout $end
$var wire 1 A D4~input_o $end
$var wire 1 B D5~input_o $end
$var wire 1 C D6~input_o $end
$var wire 1 D D7~input_o $end
$var wire 1 E inst22~1_combout $end
$var wire 1 F D8~input_o $end
$var wire 1 G D9~input_o $end
$var wire 1 H D10~input_o $end
$var wire 1 I D11~input_o $end
$var wire 1 J inst22~2_combout $end
$var wire 1 K D12~input_o $end
$var wire 1 L D13~input_o $end
$var wire 1 M D14~input_o $end
$var wire 1 N D15~input_o $end
$var wire 1 O inst22~3_combout $end
$var wire 1 P S[2]~input_o $end
$var wire 1 Q S[3]~input_o $end
$var wire 1 R inst22~4_combout $end
$upscope $end
$upscope $end
$enddefinitions $end
#0
$dumpvars
1!
0"
0#
0$
0%
0&
0'
0(
0)
0*
0+
0,
0-
0.
0/
00
b0 1
12
03
14
x5
16
17
18
19
0:
0;
1<
0=
0>
0?
1@
0A
0B
0C
0D
0E
0F
0G
0H
0I
0J
0K
0L
0M
0N
0O
0P
0Q
1R
$end
#1000000
b1 1
0!
1"
1;
0<
1=
#2000000
b11 1
1#
b10 1
0"
0;
1:
1>
0=
#3000000
1$
0#
b11 1
1?
0>
1;
#4000000
b111 1
1%
b101 1
0$
b100 1
0;
0:
1P
1A
0?
0@
1E
0R
09
02
1R
19
12
#5000000
1&
0%
b101 1
1B
0A
1;
#6000000
1'
b111 1
0&
b110 1
1C
0;
1:
0B
#7000000
1(
0'
b111 1
1D
0C
1;
#8000000
b1111 1
1)
b1011 1
b1001 1
0(
b1000 1
0;
0:
0P
1Q
1F
0D
0E
1J
0R
09
02
1R
19
12
#9000000
1*
0)
b1001 1
1G
0F
1;
#10000000
1+
b1011 1
0*
b1010 1
1H
0;
1:
0G
#11000000
1,
0+
b1011 1
1I
0H
1;
#12000000
b1111 1
b1101 1
b1100 1
0;
0:
1P
0J
0R
09
02
#12040000
1-
0,
1K
0I
1O
1R
19
12
#13000000
1.
b1101 1
0-
1L
1;
0K
#14000000
1/
b1111 1
0.
b1110 1
1M
0;
1:
0L
#15000000
b1111 1
1;
0O
0R
09
02
#15040000
10
0/
1N
0M
1O
1R
19
12
